x,y,z,H+,Cl-,Na+,No3
0,0,0,1.00E-06,1.00E-04,1.00E-04,1.00E-06
0.005,0,0,1.41E-06,9.96E-05,1.00E-04,2.21E-06
0.015,0,0,2.24E-06,9.87E-05,1.01E-04,4.62E-06
0.025,0,0,3.07E-06,9.78E-05,1.02E-04,6.98E-06
0.035,0,0,3.92E-06,9.70E-05,1.02E-04,9.30E-06
0.045,0,0,4.78E-06,9.63E-05,1.03E-04,1.16E-05
0.055,0,0,5.65E-06,9.55E-05,1.04E-04,1.38E-05
0.065,0,0,6.54E-06,9.48E-05,1.04E-04,1.60E-05
0.075,0,0,7.43E-06,9.42E-05,1.05E-04,1.82E-05
0.085,0,0,8.34E-06,9.35E-05,1.05E-04,2.03E-05
0.095,0,0,9.26E-06,9.29E-05,1.06E-04,2.24E-05
0.105,0,0,1.02E-05,9.24E-05,1.07E-04,2.44E-05
0.115,0,0,1.11E-05,9.18E-05,1.07E-04,2.64E-05
0.125,0,0,1.21E-05,9.13E-05,1.08E-04,2.84E-05
0.135,0,0,1.30E-05,9.08E-05,1.08E-04,3.03E-05
0.145,0,0,1.40E-05,9.04E-05,1.09E-04,3.22E-05
0.155,0,0,1.49E-05,9.00E-05,1.09E-04,3.41E-05
0.165,0,0,1.59E-05,8.95E-05,1.09E-04,3.59E-05
0.175,0,0,1.69E-05,8.92E-05,1.10E-04,3.76E-05
0.185,0,0,1.79E-05,8.88E-05,1.10E-04,3.94E-05
0.195,0,0,1.89E-05,8.85E-05,1.11E-04,4.10E-05
0.205,0,0,1.99E-05,8.82E-05,1.11E-04,4.27E-05
0.215,0,0,2.09E-05,8.79E-05,1.11E-04,4.43E-05
0.225,0,0,2.19E-05,8.76E-05,1.12E-04,4.59E-05
0.235,0,0,2.29E-05,8.74E-05,1.12E-04,4.74E-05
0.245,0,0,2.40E-05,8.72E-05,1.12E-04,4.89E-05
0.255,0,0,2.50E-05,8.70E-05,1.12E-04,5.04E-05
0.265,0,0,2.60E-05,8.68E-05,1.13E-04,5.18E-05
0.275,0,0,2.71E-05,8.66E-05,1.13E-04,5.32E-05
0.285,0,0,2.81E-05,8.65E-05,1.13E-04,5.46E-05
0.295,0,0,2.91E-05,8.63E-05,1.13E-04,5.59E-05
0.305,0,0,3.02E-05,8.62E-05,1.13E-04,5.72E-05
0.315,0,0,3.12E-05,8.61E-05,1.13E-04,5.84E-05
0.325,0,0,3.23E-05,8.60E-05,1.13E-04,5.97E-05
0.335,0,0,3.33E-05,8.60E-05,1.13E-04,6.08E-05
0.345,0,0,3.43E-05,8.59E-05,1.14E-04,6.20E-05
0.355,0,0,3.54E-05,8.59E-05,1.14E-04,6.31E-05
0.365,0,0,3.64E-05,8.58E-05,1.14E-04,6.42E-05
0.375,0,0,3.75E-05,8.58E-05,1.14E-04,6.53E-05
0.385,0,0,3.85E-05,8.58E-05,1.14E-04,6.63E-05
0.395,0,0,3.95E-05,8.58E-05,1.14E-04,6.73E-05
0.405,0,0,4.05E-05,8.58E-05,1.14E-04,6.83E-05
0.415,0,0,4.16E-05,8.58E-05,1.13E-04,6.92E-05
0.425,0,0,4.26E-05,8.59E-05,1.13E-04,7.01E-05
0.435,0,0,4.36E-05,8.59E-05,1.13E-04,7.10E-05
0.445,0,0,4.46E-05,8.60E-05,1.13E-04,7.19E-05
0.455,0,0,4.56E-05,8.60E-05,1.13E-04,7.27E-05
0.465,0,0,4.66E-05,8.61E-05,1.13E-04,7.35E-05
0.475,0,0,4.76E-05,8.62E-05,1.13E-04,7.43E-05
0.485,0,0,4.85E-05,8.63E-05,1.13E-04,7.50E-05
0.495,0,0,4.95E-05,8.64E-05,1.13E-04,7.58E-05
0.505,0,0,5.05E-05,8.65E-05,1.12E-04,7.65E-05
0.515,0,0,5.14E-05,8.66E-05,1.12E-04,7.72E-05
0.525,0,0,5.24E-05,8.67E-05,1.12E-04,7.78E-05
0.535,0,0,5.33E-05,8.68E-05,1.12E-04,7.85E-05
0.545,0,0,5.42E-05,8.69E-05,1.12E-04,7.91E-05
0.555,0,0,5.51E-05,8.70E-05,1.12E-04,7.97E-05
0.565,0,0,5.60E-05,8.71E-05,1.11E-04,8.03E-05
0.575,0,0,5.69E-05,8.73E-05,1.11E-04,8.08E-05
0.585,0,0,5.77E-05,8.74E-05,1.11E-04,8.14E-05
0.595,0,0,5.86E-05,8.75E-05,1.11E-04,8.19E-05
0.605,0,0,5.94E-05,8.77E-05,1.11E-04,8.24E-05
0.615,0,0,6.03E-05,8.78E-05,1.10E-04,8.29E-05
0.625,0,0,6.11E-05,8.79E-05,1.10E-04,8.33E-05
0.635,0,0,6.18E-05,8.81E-05,1.10E-04,8.38E-05
0.645,0,0,6.26E-05,8.82E-05,1.10E-04,8.42E-05
0.655,0,0,6.34E-05,8.83E-05,1.10E-04,8.47E-05
0.665,0,0,6.41E-05,8.85E-05,1.09E-04,8.51E-05
0.675,0,0,6.48E-05,8.86E-05,1.09E-04,8.54E-05
0.685,0,0,6.56E-05,8.88E-05,1.09E-04,8.58E-05
0.695,0,0,6.62E-05,8.89E-05,1.09E-04,8.62E-05
0.705,0,0,6.69E-05,8.90E-05,1.09E-04,8.65E-05
0.715,0,0,6.76E-05,8.92E-05,1.08E-04,8.69E-05
0.725,0,0,6.82E-05,8.93E-05,1.08E-04,8.72E-05
0.735,0,0,6.88E-05,8.94E-05,1.08E-04,8.75E-05
0.745,0,0,6.94E-05,8.95E-05,1.08E-04,8.78E-05
0.755,0,0,7.00E-05,8.97E-05,1.08E-04,8.81E-05
0.765,0,0,7.05E-05,8.98E-05,1.08E-04,8.83E-05
0.775,0,0,7.10E-05,8.99E-05,1.07E-04,8.86E-05
0.785,0,0,7.16E-05,9.00E-05,1.07E-04,8.88E-05
0.795,0,0,7.20E-05,9.01E-05,1.07E-04,8.90E-05
0.805,0,0,7.25E-05,9.02E-05,1.07E-04,8.93E-05
0.815,0,0,7.30E-05,9.03E-05,1.07E-04,8.95E-05
0.825,0,0,7.34E-05,9.04E-05,1.07E-04,8.97E-05
0.835,0,0,7.38E-05,9.05E-05,1.07E-04,8.98E-05
0.845,0,0,7.41E-05,9.06E-05,1.06E-04,9.00E-05
0.855,0,0,7.45E-05,9.07E-05,1.06E-04,9.02E-05
0.865,0,0,7.48E-05,9.08E-05,1.06E-04,9.03E-05
0.875,0,0,7.51E-05,9.09E-05,1.06E-04,9.04E-05
0.885,0,0,7.54E-05,9.09E-05,1.06E-04,9.06E-05
0.895,0,0,7.57E-05,9.10E-05,1.06E-04,9.07E-05
0.905,0,0,7.59E-05,9.11E-05,1.06E-04,9.08E-05
0.915,0,0,7.61E-05,9.11E-05,1.06E-04,9.09E-05
0.925,0,0,7.63E-05,9.12E-05,1.06E-04,9.10E-05
0.935,0,0,7.65E-05,9.12E-05,1.06E-04,9.10E-05
0.945,0,0,7.66E-05,9.12E-05,1.06E-04,9.11E-05
0.955,0,0,7.68E-05,9.13E-05,1.06E-04,9.12E-05
0.965,0,0,7.69E-05,9.13E-05,1.06E-04,9.12E-05
0.975,0,0,7.69E-05,9.13E-05,1.06E-04,9.12E-05
0.985,0,0,7.70E-05,9.13E-05,1.06E-04,9.13E-05
0.995,0,0,7.70E-05,9.13E-05,1.06E-04,9.13E-05
