#  GEMS3K v.3.3.5 c.a73e674 
# File: /home/lhdamiani/Documents/nps/Demos/Bench5/gems/bc-dbr-0-0000.dat
# Comments can be marked with # $ ; as the first character in the line
# DBR text input file for node system recipe and speciation data
# (should be read only after the DCH and the IPM files)

# (1): Flags controlling GEM IPM-3 operation and data exchange
# NodeHandle: Node identification handle
<NodeHandle>  0
# NodeTypeHY:  Node type code (hydraulic), not used on TNode level; see typedef NODETYPE
<NodeTypeHY>  0
# NodeTypeMT:  Node type (mass transport), not used on TNode level; see typedef NODETYPE
<NodeTypeMT>  0
# NodeStatusFMT:  Node status code in FMT part, not used on TNode level; see typedef NODECODEFMT
<NodeStatusFMT>  -1
# NodeStatusCH: Node status code and control in GEM input and output; see typedef NODECODECH
<NodeStatusCH>  1
# IterDone:  Number of iterations performed by GEM IPM in the last run (GEM output)
<IterDone>  48

## (2) Chemical scalar properies of the node system
# TK: Node temperature T, Kelvin. This value must always be provided (GEM input)
<TK>  298.15
# P:  Node Pressure P, Pa. This value must always be provided (GEM input)
<P>  100000
# Vs: Volume V of reactive subsystem, m3 (GEM output)
<Vs>  0.00180517
# Vi: Volume of inert subsystem, m3 (mass transport)
<Vi>  0
# Ms: Mass of reactive subsystem, kg (GEM output)
<Ms>  3.12483
# Mi: Mass of inert subsystem, kg (mass transport)
<Mi>  0
# Hs: Total enthalpy of reactive subsystem, J (reserved)
<Hs>  0
# Hi: Total enthalpy of inert subsystem, J (reserved, mass transport) 
<Hi>  0
# Gs: Total Gibbs energy of the reactive subsystem, J/(RT) (GEM output)
<Gs>  -17504.9
# IS: Effective aqueous ionic strength, molal (GEM output)
<IS>  0.00300052
# pH: pH of aqueous solution in molal activity scale (GEM output)
<pH>  6.94811
# pe: pe of aqueous solution in molal activity scale (GEM output)
<pe>  4.18452
# Eh: Eh of aqueous solution, V (GEM output)
<Eh>  0.247055
# Tm: Actual total simulation time, s (kinetics, metastability, transport)
<Tm>  0
# dt: Actual time step, s (kinetics, metastability, transport)
<dt>  0

### Arrays: for dimensions and index lists, see Section (2) of DCH file

## (4) Data for Independent Components
#  'C' 'Ca' 'Cl' 'H' 'Mg' 'O' 'Si' 'Zz' 
# bIC: Bulk composition of reactive subsystem (main GEM input), moles of ICs [nICb]
<bIC>
1e-14 1e-14 0.002 111 0.001 126.23 35.365 0 

# rMB: Mass balance residuals, moles (GEM output) [nICb]
<rMB>
-1.8735446498999e-30 -9.72979807904432e-31 0 2.8421709430404e-14 1.12073046833585e-19 -1.4210854715202e-14 0 -4.56497819010864e-19 

# uIC: Chemical potentials of ICs in equilibrium (dual solution), J/(RT) (GEM output) [nICb]
<uIC>
-93.7229201679637 -268.524245978329 -49.6008314337859 -25.6338087622944 -209.552843037999 -44.4097840566304 -255.998078416706 9.6352041366322 

# bSP: Output bulk composition of the equilibrium solid part of the system, moles 
<bSP>
0 0 0 0 0 70.73 35.365 0 

## (5) Data for Dependent Components
#  'Ca(CO3)@' 'Ca(HCO3)+' 'Ca+2' 'CaOH+' 'Mg(CO3)@' 'Mg(HCO3)+' 'Mg+2' 'MgOH+' 'CO2@' 'CO3-2' 'HCO3-' 'CH4@' 'ClO4-' 'Cl-' 'H2@' 'O2@' 'OH-' 'H+' 'H2O@' 'Gr' 'Arg' 'Cal' 'Dis-Dol' 'Portlandite' 'Mgs' 'Brc' 'Qtz' 
# xDC: Speciation - amounts of DCs in equilibrium (primal solution), moles (GEM output/input) [nDCb]
<xDC>
2.41781508280667e-23 4.69634869258309e-22 9.99385003382802e-15 6.14947235896527e-18 1.89551017063597e-15 2.76825300972193e-15 0.000999973126860305 2.68731350313706e-08 2.19214489643584e-15 2.51346986003894e-15 6.30621569354304e-16 0 0 0.002 4.25326410523856e-26 0 9.36946668365873e-08 1.20567794090894e-07 55.4999998794322 0 0 0 0 0 0 0 35.365 

# gam: Activity coefficients of DCs in their respective phases (GEM output/input) [nDCb]
<gam>
0.999999998538976 0.941679471374855 0.786343703296641 0.941679471374855 0.999999998538976 0.941679471374855 0.786343703296641 0.941679471374855 0.999999998538976 0.786343703296641 0.941679471374855 0.999999998538976 0.941679471374855 0.941679471374855 0.999999998538976 0.999999998538976 0.941679471374855 0.941679471374855 0.9999999970779 1 1 1 1 1 1 1 1 

# dll: Lower metastability restrictions on amounts of DCs, moles (GEM input) [nDCb]
<dll>
0 0 0 0 0 0 0 0 0 0 0 0 0 0 0 0 0 0 0 0 0 0 0 0 0 0 0 

# dul: Upper metastability constraints on amounts of DCs, moles (GEM input) [nDCb]
<dul>
1000000 1000000 1000000 1000000 1000000 1000000 1000000 1000000 1000000 1000000 1000000 1000000 1000000 1000000 1000000 1000000 1000000 1000000 1000000 1000000 1000000 1000000 1000000 1000000 1000000 1000000 1000000 

## (6) Data for Phases
#  'aq_gen' 'Graphite' 'Aragonite' 'Calcite' 'Dolomite-dis' 'Portlandite' 'Magnesite' 'Brucite' 'Quartz' 
# aPH: Specific surface areas of phases, m2/kg (GEM input) [nPHb]
<aPH>
0 0 0 0 0 0 0 0 0 

# xPH: Amounts of phases in equilibrium state, moles (GEM output) [nPHb]
<xPH>
55.5030000936947 0 0 0 0 0 0 0 35.365 

# vPS: Volumes of multicomponent phases, m3 (GEM output) [nPSb]
<vPS>
0.00100280870997858 

# mPS: Masses of multicomponent phases, kg (GEM output) [nPSb]
<mPS>
0.999944362967492 

# xPA: Amount of carrier (sorbent or solvent) in multicomponent phases, moles (GEM output) [nPSb]
<xPA>
55.4999998794322 

# amru: Upper AMRs on amounts of multi-component phases (mol) [nPSb]  
<amru>
1000000 

# amrl: Lower AMRs on amounts of multi-component phases (mol) [nPSb]
<amrl>
0 

# bPS: Bulk elemental compositions of multicomponent phases, moles (GEM output) [nPSb*nICb]
#  'C' 'Ca' 'Cl' 'H' 'Mg' 'O' 'Si' 'Zz' 
<bPS>
9.99999950618698e-15 9.99385003382802e-15 0.002 111 0.001 55.5 0 -5.61503434690796e-18 

# End of file
