vtkOriginalIndices,Na+,Points:0,Points:1,Points:2,__vtkIsSelected__,arc_length,vtkValidPointMask
0,7345.55,0,7.5e-09,0,1,0,1
1,7343.79,3e-11,7.5e-09,0,1,3e-11,1
2,7342.03,6e-11,7.5e-09,0,1,6e-11,1
3,7340.27,9e-11,7.5e-09,0,1,9e-11,1
4,7338.51,1.2e-10,7.5e-09,0,1,1.2e-10,1
5,7336.75,1.5e-10,7.5e-09,0,1,1.5e-10,1
6,7334.99,1.8e-10,7.5e-09,0,1,1.8e-10,1
7,7333.23,2.1e-10,7.5e-09,0,1,2.1e-10,1
8,7331.47,2.4e-10,7.5e-09,0,1,2.4e-10,1
9,7329.71,2.7e-10,7.5e-09,0,1,2.7e-10,1
10,7327.95,3e-10,7.5e-09,0,1,3e-10,1
11,7326.19,3.3e-10,7.5e-09,0,1,3.3e-10,1
12,7324.43,3.6e-10,7.5e-09,0,1,3.6e-10,1
13,7322.67,3.9e-10,7.5e-09,0,1,3.9e-10,1
14,7320.91,4.2e-10,7.5e-09,0,1,4.2e-10,1
15,7319.15,4.5e-10,7.5e-09,0,1,4.5e-10,1
16,7317.39,4.8e-10,7.5e-09,0,1,4.8e-10,1
17,7315.63,5.1e-10,7.5e-09,0,1,5.1e-10,1
18,7313.87,5.4e-10,7.5e-09,0,1,5.4e-10,1
19,7312.11,5.7e-10,7.5e-09,0,1,5.7e-10,1
20,7310.35,6e-10,7.5e-09,0,1,6e-10,1
21,7308.58,6.3e-10,7.5e-09,0,1,6.3e-10,1
22,7306.82,6.6e-10,7.5e-09,0,1,6.6e-10,1
23,7305.06,6.9e-10,7.5e-09,0,1,6.9e-10,1
24,7303.3,7.2e-10,7.5e-09,0,1,7.2e-10,1
25,7301.54,7.5e-10,7.5e-09,0,1,7.5e-10,1
26,7299.78,7.8e-10,7.5e-09,0,1,7.8e-10,1
27,7298.02,8.1e-10,7.5e-09,0,1,8.1e-10,1
28,7296.26,8.4e-10,7.5e-09,0,1,8.4e-10,1
29,7294.5,8.7e-10,7.5e-09,0,1,8.7e-10,1
30,7292.73,9e-10,7.5e-09,0,1,9e-10,1
31,7290.97,9.3e-10,7.5e-09,0,1,9.3e-10,1
32,7289.2,9.6e-10,7.5e-09,0,1,9.6e-10,1
33,7287.43,9.9e-10,7.5e-09,0,1,9.9e-10,1
34,7285.66,1.02e-09,7.5e-09,0,1,1.02e-09,1
35,7283.89,1.05e-09,7.5e-09,0,1,1.05e-09,1
36,7282.12,1.08e-09,7.5e-09,0,1,1.08e-09,1
37,7280.36,1.11e-09,7.5e-09,0,1,1.11e-09,1
38,7278.59,1.14e-09,7.5e-09,0,1,1.14e-09,1
39,7276.82,1.17e-09,7.5e-09,0,1,1.17e-09,1
40,7275.05,1.2e-09,7.5e-09,0,1,1.2e-09,1
41,7273.28,1.23e-09,7.5e-09,0,1,1.23e-09,1
42,7271.52,1.26e-09,7.5e-09,0,1,1.26e-09,1
43,7269.75,1.29e-09,7.5e-09,0,1,1.29e-09,1
44,7267.98,1.32e-09,7.5e-09,0,1,1.32e-09,1
45,7266.21,1.35e-09,7.5e-09,0,1,1.35e-09,1
46,7264.44,1.38e-09,7.5e-09,0,1,1.38e-09,1
47,7262.67,1.41e-09,7.5e-09,0,1,1.41e-09,1
48,7260.91,1.44e-09,7.5e-09,0,1,1.44e-09,1
49,7259.14,1.47e-09,7.5e-09,0,1,1.47e-09,1
50,7257.37,1.5e-09,7.5e-09,0,1,1.5e-09,1
51,7255.6,1.53e-09,7.5e-09,0,1,1.53e-09,1
52,7253.83,1.56e-09,7.5e-09,0,1,1.56e-09,1
53,7252.06,1.59e-09,7.5e-09,0,1,1.59e-09,1
54,7250.29,1.62e-09,7.5e-09,0,1,1.62e-09,1
55,7248.51,1.65e-09,7.5e-09,0,1,1.65e-09,1
56,7246.73,1.68e-09,7.5e-09,0,1,1.68e-09,1
57,7244.96,1.71e-09,7.5e-09,0,1,1.71e-09,1
58,7243.18,1.74e-09,7.5e-09,0,1,1.74e-09,1
59,7241.4,1.77e-09,7.5e-09,0,1,1.77e-09,1
60,7239.62,1.8e-09,7.5e-09,0,1,1.8e-09,1
61,7237.85,1.83e-09,7.5e-09,0,1,1.83e-09,1
62,7236.07,1.86e-09,7.5e-09,0,1,1.86e-09,1
63,7234.29,1.89e-09,7.5e-09,0,1,1.89e-09,1
64,7232.51,1.92e-09,7.5e-09,0,1,1.92e-09,1
65,7230.74,1.95e-09,7.5e-09,0,1,1.95e-09,1
66,7228.96,1.98e-09,7.5e-09,0,1,1.98e-09,1
67,7227.15,2.01e-09,7.5e-09,0,1,2.01e-09,1
68,7225.33,2.04e-09,7.5e-09,0,1,2.04e-09,1
69,7223.52,2.07e-09,7.5e-09,0,1,2.07e-09,1
70,7221.71,2.1e-09,7.5e-09,0,1,2.1e-09,1
71,7219.89,2.13e-09,7.5e-09,0,1,2.13e-09,1
72,7218.08,2.16e-09,7.5e-09,0,1,2.16e-09,1
73,7216.27,2.19e-09,7.5e-09,0,1,2.19e-09,1
74,7214.45,2.22e-09,7.5e-09,0,1,2.22e-09,1
75,7212.64,2.25e-09,7.5e-09,0,1,2.25e-09,1
76,7210.83,2.28e-09,7.5e-09,0,1,2.28e-09,1
77,7209.01,2.31e-09,7.5e-09,0,1,2.31e-09,1
78,7207.2,2.34e-09,7.5e-09,0,1,2.34e-09,1
79,7205.39,2.37e-09,7.5e-09,0,1,2.37e-09,1
80,7203.57,2.4e-09,7.5e-09,0,1,2.4e-09,1
81,7201.76,2.43e-09,7.5e-09,0,1,2.43e-09,1
82,7199.95,2.46e-09,7.5e-09,0,1,2.46e-09,1
83,7198.13,2.49e-09,7.5e-09,0,1,2.49e-09,1
84,7196.32,2.52e-09,7.5e-09,0,1,2.52e-09,1
85,7194.52,2.55e-09,7.5e-09,0,1,2.55e-09,1
86,7192.71,2.58e-09,7.5e-09,0,1,2.58e-09,1
87,7190.9,2.61e-09,7.5e-09,0,1,2.61e-09,1
88,7189.09,2.64e-09,7.5e-09,0,1,2.64e-09,1
89,7187.29,2.67e-09,7.5e-09,0,1,2.67e-09,1
90,7185.48,2.7e-09,7.5e-09,0,1,2.7e-09,1
91,7183.67,2.73e-09,7.5e-09,0,1,2.73e-09,1
92,7181.86,2.76e-09,7.5e-09,0,1,2.76e-09,1
93,7180.05,2.79e-09,7.5e-09,0,1,2.79e-09,1
94,7178.25,2.82e-09,7.5e-09,0,1,2.82e-09,1
95,7176.44,2.85e-09,7.5e-09,0,1,2.85e-09,1
96,7174.63,2.88e-09,7.5e-09,0,1,2.88e-09,1
97,7172.82,2.91e-09,7.5e-09,0,1,2.91e-09,1
98,7170.96,2.94e-09,7.5e-09,0,1,2.94e-09,1
99,7169.11,2.97e-09,7.5e-09,0,1,2.97e-09,1
100,7167.25,3e-09,7.5e-09,0,1,3e-09,1
101,7165.39,3.03e-09,7.5e-09,0,1,3.03e-09,1
102,7163.54,3.06e-09,7.5e-09,0,1,3.06e-09,1
103,7161.68,3.09e-09,7.5e-09,0,1,3.09e-09,1
104,7159.83,3.12e-09,7.5e-09,0,1,3.12e-09,1
105,7157.97,3.15e-09,7.5e-09,0,1,3.15e-09,1
106,7156.12,3.18e-09,7.5e-09,0,1,3.18e-09,1
107,7154.26,3.21e-09,7.5e-09,0,1,3.21e-09,1
108,7152.41,3.24e-09,7.5e-09,0,1,3.24e-09,1
109,7150.55,3.27e-09,7.5e-09,0,1,3.27e-09,1
110,7148.69,3.3e-09,7.5e-09,0,1,3.3e-09,1
111,7146.84,3.33e-09,7.5e-09,0,1,3.33e-09,1
112,7144.98,3.36e-09,7.5e-09,0,1,3.36e-09,1
113,7143.13,3.39e-09,7.5e-09,0,1,3.39e-09,1
114,7141.27,3.42e-09,7.5e-09,0,1,3.42e-09,1
115,7139.42,3.45e-09,7.5e-09,0,1,3.45e-09,1
116,7137.56,3.48e-09,7.5e-09,0,1,3.48e-09,1
117,7135.7,3.51e-09,7.5e-09,0,1,3.51e-09,1
118,7133.85,3.54e-09,7.5e-09,0,1,3.54e-09,1
119,7131.98,3.57e-09,7.5e-09,0,1,3.57e-09,1
120,7130.12,3.6e-09,7.5e-09,0,1,3.6e-09,1
121,7128.26,3.63e-09,7.5e-09,0,1,3.63e-09,1
122,7126.4,3.66e-09,7.5e-09,0,1,3.66e-09,1
123,7124.54,3.69e-09,7.5e-09,0,1,3.69e-09,1
124,7122.66,3.72e-09,7.5e-09,0,1,3.72e-09,1
125,7120.72,3.75e-09,7.5e-09,0,1,3.75e-09,1
126,7118.78,3.78e-09,7.5e-09,0,1,3.78e-09,1
127,7116.84,3.81e-09,7.5e-09,0,1,3.81e-09,1
128,7114.9,3.84e-09,7.5e-09,0,1,3.84e-09,1
129,7112.97,3.87e-09,7.5e-09,0,1,3.87e-09,1
130,7111.03,3.9e-09,7.5e-09,0,1,3.9e-09,1
131,7109.09,3.93e-09,7.5e-09,0,1,3.93e-09,1
132,7107.15,3.96e-09,7.5e-09,0,1,3.96e-09,1
133,7105.21,3.99e-09,7.5e-09,0,1,3.99e-09,1
134,7103.28,4.02e-09,7.5e-09,0,1,4.02e-09,1
135,7101.34,4.05e-09,7.5e-09,0,1,4.05e-09,1
136,7099.4,4.08e-09,7.5e-09,0,1,4.08e-09,1
137,7097.46,4.11e-09,7.5e-09,0,1,4.11e-09,1
138,7095.52,4.14e-09,7.5e-09,0,1,4.14e-09,1
139,7093.59,4.17e-09,7.5e-09,0,1,4.17e-09,1
140,7091.65,4.2e-09,7.5e-09,0,1,4.2e-09,1
141,7089.72,4.23e-09,7.5e-09,0,1,4.23e-09,1
142,7087.8,4.26e-09,7.5e-09,0,1,4.26e-09,1
143,7085.88,4.29e-09,7.5e-09,0,1,4.29e-09,1
144,7083.97,4.32e-09,7.5e-09,0,1,4.32e-09,1
145,7082.05,4.35e-09,7.5e-09,0,1,4.35e-09,1
146,7080.13,4.38e-09,7.5e-09,0,1,4.38e-09,1
147,7078.22,4.41e-09,7.5e-09,0,1,4.41e-09,1
148,7076.3,4.44e-09,7.5e-09,0,1,4.44e-09,1
149,7074.38,4.47e-09,7.5e-09,0,1,4.47e-09,1
150,7072.47,4.5e-09,7.5e-09,0,1,4.5e-09,1
151,7070.55,4.53e-09,7.5e-09,0,1,4.53e-09,1
152,7068.59,4.56e-09,7.5e-09,0,1,4.56e-09,1
153,7066.61,4.59e-09,7.5e-09,0,1,4.59e-09,1
154,7064.64,4.62e-09,7.5e-09,0,1,4.62e-09,1
155,7062.64,4.65e-09,7.5e-09,0,1,4.65e-09,1
156,7060.59,4.68e-09,7.5e-09,0,1,4.68e-09,1
157,7058.54,4.71e-09,7.5e-09,0,1,4.71e-09,1
158,7056.49,4.74e-09,7.5e-09,0,1,4.74e-09,1
159,7054.44,4.77e-09,7.5e-09,0,1,4.77e-09,1
160,7052.39,4.8e-09,7.5e-09,0,1,4.8e-09,1
161,7050.34,4.83e-09,7.5e-09,0,1,4.83e-09,1
162,7048.28,4.86e-09,7.5e-09,0,1,4.86e-09,1
163,7046.23,4.89e-09,7.5e-09,0,1,4.89e-09,1
164,7044.18,4.92e-09,7.5e-09,0,1,4.92e-09,1
165,7042.13,4.95e-09,7.5e-09,0,1,4.95e-09,1
166,7040.08,4.98e-09,7.5e-09,0,1,4.98e-09,1
167,7038.03,5.01e-09,7.5e-09,0,1,5.01e-09,1
168,7035.98,5.04e-09,7.5e-09,0,1,5.04e-09,1
169,7033.93,5.07e-09,7.5e-09,0,1,5.07e-09,1
170,7031.87,5.1e-09,7.5e-09,0,1,5.1e-09,1
171,7029.82,5.13e-09,7.5e-09,0,1,5.13e-09,1
172,7027.77,5.16e-09,7.5e-09,0,1,5.16e-09,1
173,7025.72,5.19e-09,7.5e-09,0,1,5.19e-09,1
174,7023.67,5.22e-09,7.5e-09,0,1,5.22e-09,1
175,7021.62,5.25e-09,7.5e-09,0,1,5.25e-09,1
176,7019.57,5.28e-09,7.5e-09,0,1,5.28e-09,1
177,7017.51,5.31e-09,7.5e-09,0,1,5.31e-09,1
178,7015.46,5.34e-09,7.5e-09,0,1,5.34e-09,1
179,7013.41,5.37e-09,7.5e-09,0,1,5.37e-09,1
180,7011.36,5.4e-09,7.5e-09,0,1,5.4e-09,1
181,7009.31,5.43e-09,7.5e-09,0,1,5.43e-09,1
182,7007.26,5.46e-09,7.5e-09,0,1,5.46e-09,1
183,7005.21,5.49e-09,7.5e-09,0,1,5.49e-09,1
184,7003.15,5.52e-09,7.5e-09,0,1,5.52e-09,1
185,7001.1,5.55e-09,7.5e-09,0,1,5.55e-09,1
186,6999.05,5.58e-09,7.5e-09,0,1,5.58e-09,1
187,6996.92,5.61e-09,7.5e-09,0,1,5.61e-09,1
188,6994.77,5.64e-09,7.5e-09,0,1,5.64e-09,1
189,6992.61,5.67e-09,7.5e-09,0,1,5.67e-09,1
190,6990.46,5.7e-09,7.5e-09,0,1,5.7e-09,1
191,6988.31,5.73e-09,7.5e-09,0,1,5.73e-09,1
192,6986.15,5.76e-09,7.5e-09,0,1,5.76e-09,1
193,6984,5.79e-09,7.5e-09,0,1,5.79e-09,1
194,6981.84,5.82e-09,7.5e-09,0,1,5.82e-09,1
195,6979.45,5.85e-09,7.5e-09,0,1,5.85e-09,1
196,6977.06,5.88e-09,7.5e-09,0,1,5.88e-09,1
197,6974.68,5.91e-09,7.5e-09,0,1,5.91e-09,1
198,6972.29,5.94e-09,7.5e-09,0,1,5.94e-09,1
199,6969.9,5.97e-09,7.5e-09,0,1,5.97e-09,1
200,6967.52,6e-09,7.5e-09,0,1,6e-09,1
201,6965.13,6.03e-09,7.5e-09,0,1,6.03e-09,1
202,6962.74,6.06e-09,7.5e-09,0,1,6.06e-09,1
203,6960.35,6.09e-09,7.5e-09,0,1,6.09e-09,1
204,6957.97,6.12e-09,7.5e-09,0,1,6.12e-09,1
205,6955.58,6.15e-09,7.5e-09,0,1,6.15e-09,1
206,6953.19,6.18e-09,7.5e-09,0,1,6.18e-09,1
207,6950.85,6.21e-09,7.5e-09,0,1,6.21e-09,1
208,6948.58,6.24e-09,7.5e-09,0,1,6.24e-09,1
209,6946.31,6.27e-09,7.5e-09,0,1,6.27e-09,1
210,6944.04,6.3e-09,7.5e-09,0,1,6.3e-09,1
211,6941.77,6.33e-09,7.5e-09,0,1,6.33e-09,1
212,6939.5,6.36e-09,7.5e-09,0,1,6.36e-09,1
213,6937.23,6.39e-09,7.5e-09,0,1,6.39e-09,1
214,6934.96,6.42e-09,7.5e-09,0,1,6.42e-09,1
215,6932.69,6.45e-09,7.5e-09,0,1,6.45e-09,1
216,6930.42,6.48e-09,7.5e-09,0,1,6.48e-09,1
217,6928.15,6.51e-09,7.5e-09,0,1,6.51e-09,1
218,6925.88,6.54e-09,7.5e-09,0,1,6.54e-09,1
219,6923.61,6.57e-09,7.5e-09,0,1,6.57e-09,1
220,6921.34,6.6e-09,7.5e-09,0,1,6.6e-09,1
221,6919.07,6.63e-09,7.5e-09,0,1,6.63e-09,1
222,6916.8,6.66e-09,7.5e-09,0,1,6.66e-09,1
223,6914.53,6.69e-09,7.5e-09,0,1,6.69e-09,1
224,6912.26,6.72e-09,7.5e-09,0,1,6.72e-09,1
225,6909.99,6.75e-09,7.5e-09,0,1,6.75e-09,1
226,6907.43,6.78e-09,7.5e-09,0,1,6.78e-09,1
227,6904.77,6.81e-09,7.5e-09,0,1,6.81e-09,1
228,6902.11,6.84e-09,7.5e-09,0,1,6.84e-09,1
229,6899.44,6.87e-09,7.5e-09,0,1,6.87e-09,1
230,6896.78,6.9e-09,7.5e-09,0,1,6.9e-09,1
231,6894.12,6.93e-09,7.5e-09,0,1,6.93e-09,1
232,6891.46,6.96e-09,7.5e-09,0,1,6.96e-09,1
233,6888.8,6.99e-09,7.5e-09,0,1,6.99e-09,1
234,6886.14,7.02e-09,7.5e-09,0,1,7.02e-09,1
235,6883.48,7.05e-09,7.5e-09,0,1,7.05e-09,1
236,6880.82,7.08e-09,7.5e-09,0,1,7.08e-09,1
237,6878.15,7.11e-09,7.5e-09,0,1,7.11e-09,1
238,6875.49,7.14e-09,7.5e-09,0,1,7.14e-09,1
239,6872.83,7.17e-09,7.5e-09,0,1,7.17e-09,1
240,6870.17,7.2e-09,7.5e-09,0,1,7.2e-09,1
241,6867.51,7.23e-09,7.5e-09,0,1,7.23e-09,1
242,6864.85,7.26e-09,7.5e-09,0,1,7.26e-09,1
243,6862.19,7.29e-09,7.5e-09,0,1,7.29e-09,1
244,6859.53,7.32e-09,7.5e-09,0,1,7.32e-09,1
245,6856.86,7.35e-09,7.5e-09,0,1,7.35e-09,1
246,6854.2,7.38e-09,7.5e-09,0,1,7.38e-09,1
247,6851.54,7.41e-09,7.5e-09,0,1,7.41e-09,1
248,6848.88,7.44e-09,7.5e-09,0,1,7.44e-09,1
249,6846.22,7.47e-09,7.5e-09,0,1,7.47e-09,1
250,6843.56,7.5e-09,7.5e-09,0,1,7.5e-09,1
251,6840.55,7.53e-09,7.5e-09,0,1,7.53e-09,1
252,6837.53,7.56e-09,7.5e-09,0,1,7.56e-09,1
253,6834.52,7.59e-09,7.5e-09,0,1,7.59e-09,1
254,6831.51,7.62e-09,7.5e-09,0,1,7.62e-09,1
255,6828.49,7.65e-09,7.5e-09,0,1,7.65e-09,1
256,6825.48,7.68e-09,7.5e-09,0,1,7.68e-09,1
257,6822.47,7.71e-09,7.5e-09,0,1,7.71e-09,1
258,6819.45,7.74e-09,7.5e-09,0,1,7.74e-09,1
259,6816.44,7.77e-09,7.5e-09,0,1,7.77e-09,1
260,6813.43,7.8e-09,7.5e-09,0,1,7.8e-09,1
261,6810.41,7.83e-09,7.5e-09,0,1,7.83e-09,1
262,6807.4,7.86e-09,7.5e-09,0,1,7.86e-09,1
263,6804.39,7.89e-09,7.5e-09,0,1,7.89e-09,1
264,6801.37,7.92e-09,7.5e-09,0,1,7.92e-09,1
265,6798.36,7.95e-09,7.5e-09,0,1,7.95e-09,1
266,6795.35,7.98e-09,7.5e-09,0,1,7.98e-09,1
267,6792.33,8.01e-09,7.5e-09,0,1,8.01e-09,1
268,6789.32,8.04e-09,7.5e-09,0,1,8.04e-09,1
269,6786.31,8.07e-09,7.5e-09,0,1,8.07e-09,1
270,6783.3,8.1e-09,7.5e-09,0,1,8.1e-09,1
271,6780.28,8.13e-09,7.5e-09,0,1,8.13e-09,1
272,6777.27,8.16e-09,7.5e-09,0,1,8.16e-09,1
273,6774.26,8.19e-09,7.5e-09,0,1,8.19e-09,1
274,6771.24,8.22e-09,7.5e-09,0,1,8.22e-09,1
275,6768.23,8.25e-09,7.5e-09,0,1,8.25e-09,1
276,6765.22,8.28e-09,7.5e-09,0,1,8.28e-09,1
277,6762.2,8.31e-09,7.5e-09,0,1,8.31e-09,1
278,6759.06,8.34e-09,7.5e-09,0,1,8.34e-09,1
279,6755.44,8.37e-09,7.5e-09,0,1,8.37e-09,1
280,6751.82,8.4e-09,7.5e-09,0,1,8.4e-09,1
281,6748.2,8.43e-09,7.5e-09,0,1,8.43e-09,1
282,6744.58,8.46e-09,7.5e-09,0,1,8.46e-09,1
283,6740.96,8.49e-09,7.5e-09,0,1,8.49e-09,1
284,6737.34,8.52e-09,7.5e-09,0,1,8.52e-09,1
285,6733.72,8.55e-09,7.5e-09,0,1,8.55e-09,1
286,6730.1,8.58e-09,7.5e-09,0,1,8.58e-09,1
287,6726.48,8.61e-09,7.5e-09,0,1,8.61e-09,1
288,6722.86,8.64e-09,7.5e-09,0,1,8.64e-09,1
289,6719.24,8.67e-09,7.5e-09,0,1,8.67e-09,1
290,6715.62,8.7e-09,7.5e-09,0,1,8.7e-09,1
291,6712,8.73e-09,7.5e-09,0,1,8.73e-09,1
292,6708.38,8.76e-09,7.5e-09,0,1,8.76e-09,1
293,6704.76,8.79e-09,7.5e-09,0,1,8.79e-09,1
294,6701.14,8.82e-09,7.5e-09,0,1,8.82e-09,1
295,6697.52,8.85e-09,7.5e-09,0,1,8.85e-09,1
296,6693.9,8.88e-09,7.5e-09,0,1,8.88e-09,1
297,6690.29,8.91e-09,7.5e-09,0,1,8.91e-09,1
298,6686.67,8.94e-09,7.5e-09,0,1,8.94e-09,1
299,6683.05,8.97e-09,7.5e-09,0,1,8.97e-09,1
300,6679.43,9e-09,7.5e-09,0,1,9e-09,1
301,6675.81,9.03e-09,7.5e-09,0,1,9.03e-09,1
302,6672.19,9.06e-09,7.5e-09,0,1,9.06e-09,1
303,6668.57,9.09e-09,7.5e-09,0,1,9.09e-09,1
304,6664.95,9.12e-09,7.5e-09,0,1,9.12e-09,1
305,6661.33,9.15e-09,7.5e-09,0,1,9.15e-09,1
306,6657.42,9.18e-09,7.5e-09,0,1,9.18e-09,1
307,6653.14,9.21e-09,7.5e-09,0,1,9.21e-09,1
308,6648.86,9.24e-09,7.5e-09,0,1,9.24e-09,1
309,6644.58,9.27e-09,7.5e-09,0,1,9.27e-09,1
310,6640.3,9.3e-09,7.5e-09,0,1,9.3e-09,1
311,6636.02,9.33e-09,7.5e-09,0,1,9.33e-09,1
312,6631.74,9.36e-09,7.5e-09,0,1,9.36e-09,1
313,6627.47,9.39e-09,7.5e-09,0,1,9.39e-09,1
314,6623.19,9.42e-09,7.5e-09,0,1,9.42e-09,1
315,6618.91,9.45e-09,7.5e-09,0,1,9.45e-09,1
316,6614.63,9.48e-09,7.5e-09,0,1,9.48e-09,1
317,6610.35,9.51e-09,7.5e-09,0,1,9.51e-09,1
318,6606.07,9.54e-09,7.5e-09,0,1,9.54e-09,1
319,6601.79,9.57e-09,7.5e-09,0,1,9.57e-09,1
320,6597.51,9.6e-09,7.5e-09,0,1,9.6e-09,1
321,6593.23,9.63e-09,7.5e-09,0,1,9.63e-09,1
322,6588.96,9.66e-09,7.5e-09,0,1,9.66e-09,1
323,6584.68,9.69e-09,7.5e-09,0,1,9.69e-09,1
324,6580.4,9.72e-09,7.5e-09,0,1,9.72e-09,1
325,6576.12,9.75e-09,7.5e-09,0,1,9.75e-09,1
326,6571.84,9.78e-09,7.5e-09,0,1,9.78e-09,1
327,6567.56,9.81e-09,7.5e-09,0,1,9.81e-09,1
328,6563.28,9.84e-09,7.5e-09,0,1,9.84e-09,1
329,6559,9.87e-09,7.5e-09,0,1,9.87e-09,1
330,6554.73,9.9e-09,7.5e-09,0,1,9.9e-09,1
331,6550.45,9.93e-09,7.5e-09,0,1,9.93e-09,1
332,6546.17,9.96e-09,7.5e-09,0,1,9.96e-09,1
333,6541.89,9.99e-09,7.5e-09,0,1,9.99e-09,1
334,6537.26,1.002e-08,7.5e-09,0,1,1.002e-08,1
335,6532.45,1.005e-08,7.5e-09,0,1,1.005e-08,1
336,6527.64,1.008e-08,7.5e-09,0,1,1.008e-08,1
337,6522.84,1.011e-08,7.5e-09,0,1,1.011e-08,1
338,6518.03,1.014e-08,7.5e-09,0,1,1.014e-08,1
339,6513.22,1.017e-08,7.5e-09,0,1,1.017e-08,1
340,6508.41,1.02e-08,7.5e-09,0,1,1.02e-08,1
341,6503.61,1.023e-08,7.5e-09,0,1,1.023e-08,1
342,6498.8,1.026e-08,7.5e-09,0,1,1.026e-08,1
343,6493.99,1.029e-08,7.5e-09,0,1,1.029e-08,1
344,6489.18,1.032e-08,7.5e-09,0,1,1.032e-08,1
345,6484.38,1.035e-08,7.5e-09,0,1,1.035e-08,1
346,6479.57,1.038e-08,7.5e-09,0,1,1.038e-08,1
347,6474.76,1.041e-08,7.5e-09,0,1,1.041e-08,1
348,6469.95,1.044e-08,7.5e-09,0,1,1.044e-08,1
349,6465.15,1.047e-08,7.5e-09,0,1,1.047e-08,1
350,6460.34,1.05e-08,7.5e-09,0,1,1.05e-08,1
351,6455.53,1.053e-08,7.5e-09,0,1,1.053e-08,1
352,6450.72,1.056e-08,7.5e-09,0,1,1.056e-08,1
353,6445.92,1.059e-08,7.5e-09,0,1,1.059e-08,1
354,6441.11,1.062e-08,7.5e-09,0,1,1.062e-08,1
355,6436.3,1.065e-08,7.5e-09,0,1,1.065e-08,1
356,6431.5,1.068e-08,7.5e-09,0,1,1.068e-08,1
357,6426.69,1.071e-08,7.5e-09,0,1,1.071e-08,1
358,6421.88,1.074e-08,7.5e-09,0,1,1.074e-08,1
359,6417.07,1.077e-08,7.5e-09,0,1,1.077e-08,1
360,6412.27,1.08e-08,7.5e-09,0,1,1.08e-08,1
361,6407.46,1.083e-08,7.5e-09,0,1,1.083e-08,1
362,6402.65,1.086e-08,7.5e-09,0,1,1.086e-08,1
363,6397.84,1.089e-08,7.5e-09,0,1,1.089e-08,1
364,6393.04,1.092e-08,7.5e-09,0,1,1.092e-08,1
365,6388.23,1.095e-08,7.5e-09,0,1,1.095e-08,1
366,6383.42,1.098e-08,7.5e-09,0,1,1.098e-08,1
367,6378.56,1.101e-08,7.5e-09,0,1,1.101e-08,1
368,6373.59,1.104e-08,7.5e-09,0,1,1.104e-08,1
369,6368.62,1.107e-08,7.5e-09,0,1,1.107e-08,1
370,6363.65,1.11e-08,7.5e-09,0,1,1.11e-08,1
371,6358.67,1.113e-08,7.5e-09,0,1,1.113e-08,1
372,6353.7,1.116e-08,7.5e-09,0,1,1.116e-08,1
373,6348.73,1.119e-08,7.5e-09,0,1,1.119e-08,1
374,6343.76,1.122e-08,7.5e-09,0,1,1.122e-08,1
375,6338.79,1.125e-08,7.5e-09,0,1,1.125e-08,1
376,6333.82,1.128e-08,7.5e-09,0,1,1.128e-08,1
377,6328.85,1.131e-08,7.5e-09,0,1,1.131e-08,1
378,6323.88,1.134e-08,7.5e-09,0,1,1.134e-08,1
379,6318.91,1.137e-08,7.5e-09,0,1,1.137e-08,1
380,6313.93,1.14e-08,7.5e-09,0,1,1.14e-08,1
381,6308.96,1.143e-08,7.5e-09,0,1,1.143e-08,1
382,6303.99,1.146e-08,7.5e-09,0,1,1.146e-08,1
383,6299.02,1.149e-08,7.5e-09,0,1,1.149e-08,1
384,6294.05,1.152e-08,7.5e-09,0,1,1.152e-08,1
385,6289.08,1.155e-08,7.5e-09,0,1,1.155e-08,1
386,6284.11,1.158e-08,7.5e-09,0,1,1.158e-08,1
387,6279.14,1.161e-08,7.5e-09,0,1,1.161e-08,1
388,6274.17,1.164e-08,7.5e-09,0,1,1.164e-08,1
389,6269.19,1.167e-08,7.5e-09,0,1,1.167e-08,1
390,6264.22,1.17e-08,7.5e-09,0,1,1.17e-08,1
391,6259.25,1.173e-08,7.5e-09,0,1,1.173e-08,1
392,6254.28,1.176e-08,7.5e-09,0,1,1.176e-08,1
393,6249.31,1.179e-08,7.5e-09,0,1,1.179e-08,1
394,6244.34,1.182e-08,7.5e-09,0,1,1.182e-08,1
395,6239.37,1.185e-08,7.5e-09,0,1,1.185e-08,1
396,6234.4,1.188e-08,7.5e-09,0,1,1.188e-08,1
397,6229.42,1.191e-08,7.5e-09,0,1,1.191e-08,1
398,6224.45,1.194e-08,7.5e-09,0,1,1.194e-08,1
399,6219.48,1.197e-08,7.5e-09,0,1,1.197e-08,1
400,6214.51,1.2e-08,7.5e-09,0,1,1.2e-08,1
401,6209.53,1.203e-08,7.5e-09,0,1,1.203e-08,1
402,6204.55,1.206e-08,7.5e-09,0,1,1.206e-08,1
403,6199.58,1.209e-08,7.5e-09,0,1,1.209e-08,1
404,6194.6,1.212e-08,7.5e-09,0,1,1.212e-08,1
405,6189.62,1.215e-08,7.5e-09,0,1,1.215e-08,1
406,6184.64,1.218e-08,7.5e-09,0,1,1.218e-08,1
407,6179.67,1.221e-08,7.5e-09,0,1,1.221e-08,1
408,6174.69,1.224e-08,7.5e-09,0,1,1.224e-08,1
409,6169.71,1.227e-08,7.5e-09,0,1,1.227e-08,1
410,6164.73,1.23e-08,7.5e-09,0,1,1.23e-08,1
411,6159.75,1.233e-08,7.5e-09,0,1,1.233e-08,1
412,6154.77,1.236e-08,7.5e-09,0,1,1.236e-08,1
413,6149.8,1.239e-08,7.5e-09,0,1,1.239e-08,1
414,6144.82,1.242e-08,7.5e-09,0,1,1.242e-08,1
415,6139.84,1.245e-08,7.5e-09,0,1,1.245e-08,1
416,6134.86,1.248e-08,7.5e-09,0,1,1.248e-08,1
417,6129.88,1.251e-08,7.5e-09,0,1,1.251e-08,1
418,6124.91,1.254e-08,7.5e-09,0,1,1.254e-08,1
419,6119.93,1.257e-08,7.5e-09,0,1,1.257e-08,1
420,6114.95,1.26e-08,7.5e-09,0,1,1.26e-08,1
421,6109.97,1.263e-08,7.5e-09,0,1,1.263e-08,1
422,6104.99,1.266e-08,7.5e-09,0,1,1.266e-08,1
423,6100.02,1.269e-08,7.5e-09,0,1,1.269e-08,1
424,6095.04,1.272e-08,7.5e-09,0,1,1.272e-08,1
425,6090.06,1.275e-08,7.5e-09,0,1,1.275e-08,1
426,6085.08,1.278e-08,7.5e-09,0,1,1.278e-08,1
427,6080.1,1.281e-08,7.5e-09,0,1,1.281e-08,1
428,6075.13,1.284e-08,7.5e-09,0,1,1.284e-08,1
429,6070.15,1.287e-08,7.5e-09,0,1,1.287e-08,1
430,6065.17,1.29e-08,7.5e-09,0,1,1.29e-08,1
431,6060.19,1.293e-08,7.5e-09,0,1,1.293e-08,1
432,6055.21,1.296e-08,7.5e-09,0,1,1.296e-08,1
433,6050.24,1.299e-08,7.5e-09,0,1,1.299e-08,1
434,6045.26,1.302e-08,7.5e-09,0,1,1.302e-08,1
435,6040.28,1.305e-08,7.5e-09,0,1,1.305e-08,1
436,6035.3,1.308e-08,7.5e-09,0,1,1.308e-08,1
437,6030.32,1.311e-08,7.5e-09,0,1,1.311e-08,1
438,6025.35,1.314e-08,7.5e-09,0,1,1.314e-08,1
439,6020.37,1.317e-08,7.5e-09,0,1,1.317e-08,1
440,6015.39,1.32e-08,7.5e-09,0,1,1.32e-08,1
441,6010.41,1.323e-08,7.5e-09,0,1,1.323e-08,1
442,6005.44,1.326e-08,7.5e-09,0,1,1.326e-08,1
443,6000.46,1.329e-08,7.5e-09,0,1,1.329e-08,1
444,5995.48,1.332e-08,7.5e-09,0,1,1.332e-08,1
445,5990.5,1.335e-08,7.5e-09,0,1,1.335e-08,1
446,5985.52,1.338e-08,7.5e-09,0,1,1.338e-08,1
447,5980.54,1.341e-08,7.5e-09,0,1,1.341e-08,1
448,5975.57,1.344e-08,7.5e-09,0,1,1.344e-08,1
449,5970.59,1.347e-08,7.5e-09,0,1,1.347e-08,1
450,5965.61,1.35e-08,7.5e-09,0,1,1.35e-08,1
451,5960.63,1.353e-08,7.5e-09,0,1,1.353e-08,1
452,5955.66,1.356e-08,7.5e-09,0,1,1.356e-08,1
453,5950.68,1.359e-08,7.5e-09,0,1,1.359e-08,1
454,5945.7,1.362e-08,7.5e-09,0,1,1.362e-08,1
455,5940.72,1.365e-08,7.5e-09,0,1,1.365e-08,1
456,5935.74,1.368e-08,7.5e-09,0,1,1.368e-08,1
457,5930.77,1.371e-08,7.5e-09,0,1,1.371e-08,1
458,5925.79,1.374e-08,7.5e-09,0,1,1.374e-08,1
459,5920.81,1.377e-08,7.5e-09,0,1,1.377e-08,1
460,5915.83,1.38e-08,7.5e-09,0,1,1.38e-08,1
461,5910.85,1.383e-08,7.5e-09,0,1,1.383e-08,1
462,5905.88,1.386e-08,7.5e-09,0,1,1.386e-08,1
463,5900.9,1.389e-08,7.5e-09,0,1,1.389e-08,1
464,5895.92,1.392e-08,7.5e-09,0,1,1.392e-08,1
465,5890.94,1.395e-08,7.5e-09,0,1,1.395e-08,1
466,5885.96,1.398e-08,7.5e-09,0,1,1.398e-08,1
467,5880.99,1.401e-08,7.5e-09,0,1,1.401e-08,1
468,5876.01,1.404e-08,7.5e-09,0,1,1.404e-08,1
469,5871.03,1.407e-08,7.5e-09,0,1,1.407e-08,1
470,5866.05,1.41e-08,7.5e-09,0,1,1.41e-08,1
471,5861.07,1.413e-08,7.5e-09,0,1,1.413e-08,1
472,5856.09,1.416e-08,7.5e-09,0,1,1.416e-08,1
473,5851.11,1.419e-08,7.5e-09,0,1,1.419e-08,1
474,5846.14,1.422e-08,7.5e-09,0,1,1.422e-08,1
475,5841.16,1.425e-08,7.5e-09,0,1,1.425e-08,1
476,5836.18,1.428e-08,7.5e-09,0,1,1.428e-08,1
477,5831.2,1.431e-08,7.5e-09,0,1,1.431e-08,1
478,5826.22,1.434e-08,7.5e-09,0,1,1.434e-08,1
479,5821.24,1.437e-08,7.5e-09,0,1,1.437e-08,1
480,5816.26,1.44e-08,7.5e-09,0,1,1.44e-08,1
481,5811.29,1.443e-08,7.5e-09,0,1,1.443e-08,1
482,5806.31,1.446e-08,7.5e-09,0,1,1.446e-08,1
483,5801.33,1.449e-08,7.5e-09,0,1,1.449e-08,1
484,5796.35,1.452e-08,7.5e-09,0,1,1.452e-08,1
485,5791.37,1.455e-08,7.5e-09,0,1,1.455e-08,1
486,5786.39,1.458e-08,7.5e-09,0,1,1.458e-08,1
487,5781.41,1.461e-08,7.5e-09,0,1,1.461e-08,1
488,5776.44,1.464e-08,7.5e-09,0,1,1.464e-08,1
489,5771.46,1.467e-08,7.5e-09,0,1,1.467e-08,1
490,5766.48,1.47e-08,7.5e-09,0,1,1.47e-08,1
491,5761.5,1.473e-08,7.5e-09,0,1,1.473e-08,1
492,5756.52,1.476e-08,7.5e-09,0,1,1.476e-08,1
493,5751.54,1.479e-08,7.5e-09,0,1,1.479e-08,1
494,5746.56,1.482e-08,7.5e-09,0,1,1.482e-08,1
495,5741.59,1.485e-08,7.5e-09,0,1,1.485e-08,1
496,5736.61,1.488e-08,7.5e-09,0,1,1.488e-08,1
497,5731.63,1.491e-08,7.5e-09,0,1,1.491e-08,1
498,5726.65,1.494e-08,7.5e-09,0,1,1.494e-08,1
499,5721.67,1.497e-08,7.5e-09,0,1,1.497e-08,1
500,5716.69,1.5e-08,7.5e-09,0,1,1.5e-08,1
501,5711.72,1.503e-08,7.5e-09,0,1,1.503e-08,1
502,5706.75,1.506e-08,7.5e-09,0,1,1.506e-08,1
503,5701.77,1.509e-08,7.5e-09,0,1,1.509e-08,1
504,5696.8,1.512e-08,7.5e-09,0,1,1.512e-08,1
505,5691.82,1.515e-08,7.5e-09,0,1,1.515e-08,1
506,5686.85,1.518e-08,7.5e-09,0,1,1.518e-08,1
507,5681.88,1.521e-08,7.5e-09,0,1,1.521e-08,1
508,5676.9,1.524e-08,7.5e-09,0,1,1.524e-08,1
509,5671.93,1.527e-08,7.5e-09,0,1,1.527e-08,1
510,5666.95,1.53e-08,7.5e-09,0,1,1.53e-08,1
511,5661.98,1.533e-08,7.5e-09,0,1,1.533e-08,1
512,5657.01,1.536e-08,7.5e-09,0,1,1.536e-08,1
513,5652.03,1.539e-08,7.5e-09,0,1,1.539e-08,1
514,5647.06,1.542e-08,7.5e-09,0,1,1.542e-08,1
515,5642.08,1.545e-08,7.5e-09,0,1,1.545e-08,1
516,5637.11,1.548e-08,7.5e-09,0,1,1.548e-08,1
517,5632.14,1.551e-08,7.5e-09,0,1,1.551e-08,1
518,5627.16,1.554e-08,7.5e-09,0,1,1.554e-08,1
519,5622.19,1.557e-08,7.5e-09,0,1,1.557e-08,1
520,5617.21,1.56e-08,7.5e-09,0,1,1.56e-08,1
521,5612.24,1.563e-08,7.5e-09,0,1,1.563e-08,1
522,5607.27,1.566e-08,7.5e-09,0,1,1.566e-08,1
523,5602.29,1.569e-08,7.5e-09,0,1,1.569e-08,1
524,5597.32,1.572e-08,7.5e-09,0,1,1.572e-08,1
525,5592.34,1.575e-08,7.5e-09,0,1,1.575e-08,1
526,5587.37,1.578e-08,7.5e-09,0,1,1.578e-08,1
527,5582.4,1.581e-08,7.5e-09,0,1,1.581e-08,1
528,5577.42,1.584e-08,7.5e-09,0,1,1.584e-08,1
529,5572.45,1.587e-08,7.5e-09,0,1,1.587e-08,1
530,5567.47,1.59e-08,7.5e-09,0,1,1.59e-08,1
531,5562.5,1.593e-08,7.5e-09,0,1,1.593e-08,1
532,5557.53,1.596e-08,7.5e-09,0,1,1.596e-08,1
533,5552.55,1.599e-08,7.5e-09,0,1,1.599e-08,1
534,5547.59,1.602e-08,7.5e-09,0,1,1.602e-08,1
535,5542.65,1.605e-08,7.5e-09,0,1,1.605e-08,1
536,5537.7,1.608e-08,7.5e-09,0,1,1.608e-08,1
537,5532.75,1.611e-08,7.5e-09,0,1,1.611e-08,1
538,5527.8,1.614e-08,7.5e-09,0,1,1.614e-08,1
539,5522.85,1.617e-08,7.5e-09,0,1,1.617e-08,1
540,5517.9,1.62e-08,7.5e-09,0,1,1.62e-08,1
541,5512.95,1.623e-08,7.5e-09,0,1,1.623e-08,1
542,5508.01,1.626e-08,7.5e-09,0,1,1.626e-08,1
543,5503.06,1.629e-08,7.5e-09,0,1,1.629e-08,1
544,5498.11,1.632e-08,7.5e-09,0,1,1.632e-08,1
545,5493.16,1.635e-08,7.5e-09,0,1,1.635e-08,1
546,5488.21,1.638e-08,7.5e-09,0,1,1.638e-08,1
547,5483.26,1.641e-08,7.5e-09,0,1,1.641e-08,1
548,5478.31,1.644e-08,7.5e-09,0,1,1.644e-08,1
549,5473.37,1.647e-08,7.5e-09,0,1,1.647e-08,1
550,5468.42,1.65e-08,7.5e-09,0,1,1.65e-08,1
551,5463.47,1.653e-08,7.5e-09,0,1,1.653e-08,1
552,5458.52,1.656e-08,7.5e-09,0,1,1.656e-08,1
553,5453.57,1.659e-08,7.5e-09,0,1,1.659e-08,1
554,5448.62,1.662e-08,7.5e-09,0,1,1.662e-08,1
555,5443.67,1.665e-08,7.5e-09,0,1,1.665e-08,1
556,5438.72,1.668e-08,7.5e-09,0,1,1.668e-08,1
557,5433.78,1.671e-08,7.5e-09,0,1,1.671e-08,1
558,5428.83,1.674e-08,7.5e-09,0,1,1.674e-08,1
559,5423.88,1.677e-08,7.5e-09,0,1,1.677e-08,1
560,5418.93,1.68e-08,7.5e-09,0,1,1.68e-08,1
561,5413.98,1.683e-08,7.5e-09,0,1,1.683e-08,1
562,5409.03,1.686e-08,7.5e-09,0,1,1.686e-08,1
563,5404.08,1.689e-08,7.5e-09,0,1,1.689e-08,1
564,5399.14,1.692e-08,7.5e-09,0,1,1.692e-08,1
565,5394.19,1.695e-08,7.5e-09,0,1,1.695e-08,1
566,5389.24,1.698e-08,7.5e-09,0,1,1.698e-08,1
567,5384.32,1.701e-08,7.5e-09,0,1,1.701e-08,1
568,5379.48,1.704e-08,7.5e-09,0,1,1.704e-08,1
569,5374.64,1.707e-08,7.5e-09,0,1,1.707e-08,1
570,5369.79,1.71e-08,7.5e-09,0,1,1.71e-08,1
571,5364.95,1.713e-08,7.5e-09,0,1,1.713e-08,1
572,5360.1,1.716e-08,7.5e-09,0,1,1.716e-08,1
573,5355.26,1.719e-08,7.5e-09,0,1,1.719e-08,1
574,5350.42,1.722e-08,7.5e-09,0,1,1.722e-08,1
575,5345.57,1.725e-08,7.5e-09,0,1,1.725e-08,1
576,5340.73,1.728e-08,7.5e-09,0,1,1.728e-08,1
577,5335.88,1.731e-08,7.5e-09,0,1,1.731e-08,1
578,5331.04,1.734e-08,7.5e-09,0,1,1.734e-08,1
579,5326.2,1.737e-08,7.5e-09,0,1,1.737e-08,1
580,5321.35,1.74e-08,7.5e-09,0,1,1.74e-08,1
581,5316.51,1.743e-08,7.5e-09,0,1,1.743e-08,1
582,5311.66,1.746e-08,7.5e-09,0,1,1.746e-08,1
583,5306.82,1.749e-08,7.5e-09,0,1,1.749e-08,1
584,5301.97,1.752e-08,7.5e-09,0,1,1.752e-08,1
585,5297.13,1.755e-08,7.5e-09,0,1,1.755e-08,1
586,5292.29,1.758e-08,7.5e-09,0,1,1.758e-08,1
587,5287.44,1.761e-08,7.5e-09,0,1,1.761e-08,1
588,5282.6,1.764e-08,7.5e-09,0,1,1.764e-08,1
589,5277.75,1.767e-08,7.5e-09,0,1,1.767e-08,1
590,5272.91,1.77e-08,7.5e-09,0,1,1.77e-08,1
591,5268.07,1.773e-08,7.5e-09,0,1,1.773e-08,1
592,5263.22,1.776e-08,7.5e-09,0,1,1.776e-08,1
593,5258.38,1.779e-08,7.5e-09,0,1,1.779e-08,1
594,5253.53,1.782e-08,7.5e-09,0,1,1.782e-08,1
595,5248.69,1.785e-08,7.5e-09,0,1,1.785e-08,1
596,5243.85,1.788e-08,7.5e-09,0,1,1.788e-08,1
597,5239,1.791e-08,7.5e-09,0,1,1.791e-08,1
598,5234.16,1.794e-08,7.5e-09,0,1,1.794e-08,1
599,5229.31,1.797e-08,7.5e-09,0,1,1.797e-08,1
600,5224.47,1.8e-08,7.5e-09,0,1,1.8e-08,1
601,5219.91,1.803e-08,7.5e-09,0,1,1.803e-08,1
602,5215.35,1.806e-08,7.5e-09,0,1,1.806e-08,1
603,5210.8,1.809e-08,7.5e-09,0,1,1.809e-08,1
604,5206.24,1.812e-08,7.5e-09,0,1,1.812e-08,1
605,5201.68,1.815e-08,7.5e-09,0,1,1.815e-08,1
606,5197.12,1.818e-08,7.5e-09,0,1,1.818e-08,1
607,5192.56,1.821e-08,7.5e-09,0,1,1.821e-08,1
608,5188.01,1.824e-08,7.5e-09,0,1,1.824e-08,1
609,5183.45,1.827e-08,7.5e-09,0,1,1.827e-08,1
610,5178.89,1.83e-08,7.5e-09,0,1,1.83e-08,1
611,5174.33,1.833e-08,7.5e-09,0,1,1.833e-08,1
612,5169.78,1.836e-08,7.5e-09,0,1,1.836e-08,1
613,5165.22,1.839e-08,7.5e-09,0,1,1.839e-08,1
614,5160.66,1.842e-08,7.5e-09,0,1,1.842e-08,1
615,5156.1,1.845e-08,7.5e-09,0,1,1.845e-08,1
616,5151.55,1.848e-08,7.5e-09,0,1,1.848e-08,1
617,5146.99,1.851e-08,7.5e-09,0,1,1.851e-08,1
618,5142.43,1.854e-08,7.5e-09,0,1,1.854e-08,1
619,5137.87,1.857e-08,7.5e-09,0,1,1.857e-08,1
620,5133.31,1.86e-08,7.5e-09,0,1,1.86e-08,1
621,5128.76,1.863e-08,7.5e-09,0,1,1.863e-08,1
622,5124.2,1.866e-08,7.5e-09,0,1,1.866e-08,1
623,5119.64,1.869e-08,7.5e-09,0,1,1.869e-08,1
624,5115.08,1.872e-08,7.5e-09,0,1,1.872e-08,1
625,5110.53,1.875e-08,7.5e-09,0,1,1.875e-08,1
626,5105.97,1.878e-08,7.5e-09,0,1,1.878e-08,1
627,5101.41,1.881e-08,7.5e-09,0,1,1.881e-08,1
628,5096.85,1.884e-08,7.5e-09,0,1,1.884e-08,1
629,5092.29,1.887e-08,7.5e-09,0,1,1.887e-08,1
630,5087.74,1.89e-08,7.5e-09,0,1,1.89e-08,1
631,5083.18,1.893e-08,7.5e-09,0,1,1.893e-08,1
632,5078.62,1.896e-08,7.5e-09,0,1,1.896e-08,1
633,5074.06,1.899e-08,7.5e-09,0,1,1.899e-08,1
634,5069.94,1.902e-08,7.5e-09,0,1,1.902e-08,1
635,5066.03,1.905e-08,7.5e-09,0,1,1.905e-08,1
636,5062.12,1.908e-08,7.5e-09,0,1,1.908e-08,1
637,5058.21,1.911e-08,7.5e-09,0,1,1.911e-08,1
638,5054.3,1.914e-08,7.5e-09,0,1,1.914e-08,1
639,5050.39,1.917e-08,7.5e-09,0,1,1.917e-08,1
640,5046.48,1.92e-08,7.5e-09,0,1,1.92e-08,1
641,5042.57,1.923e-08,7.5e-09,0,1,1.923e-08,1
642,5038.66,1.926e-08,7.5e-09,0,1,1.926e-08,1
643,5034.75,1.929e-08,7.5e-09,0,1,1.929e-08,1
644,5030.84,1.932e-08,7.5e-09,0,1,1.932e-08,1
645,5026.93,1.935e-08,7.5e-09,0,1,1.935e-08,1
646,5023.02,1.938e-08,7.5e-09,0,1,1.938e-08,1
647,5019.11,1.941e-08,7.5e-09,0,1,1.941e-08,1
648,5015.2,1.944e-08,7.5e-09,0,1,1.944e-08,1
649,5011.29,1.947e-08,7.5e-09,0,1,1.947e-08,1
650,5007.38,1.95e-08,7.5e-09,0,1,1.95e-08,1
651,5003.47,1.953e-08,7.5e-09,0,1,1.953e-08,1
652,4999.56,1.956e-08,7.5e-09,0,1,1.956e-08,1
653,4995.65,1.959e-08,7.5e-09,0,1,1.959e-08,1
654,4991.74,1.962e-08,7.5e-09,0,1,1.962e-08,1
655,4987.83,1.965e-08,7.5e-09,0,1,1.965e-08,1
656,4983.92,1.968e-08,7.5e-09,0,1,1.968e-08,1
657,4980.01,1.971e-08,7.5e-09,0,1,1.971e-08,1
658,4976.1,1.974e-08,7.5e-09,0,1,1.974e-08,1
659,4972.19,1.977e-08,7.5e-09,0,1,1.977e-08,1
660,4968.28,1.98e-08,7.5e-09,0,1,1.98e-08,1
661,4964.37,1.983e-08,7.5e-09,0,1,1.983e-08,1
662,4960.46,1.986e-08,7.5e-09,0,1,1.986e-08,1
663,4956.55,1.989e-08,7.5e-09,0,1,1.989e-08,1
664,4952.64,1.992e-08,7.5e-09,0,1,1.992e-08,1
665,4948.73,1.995e-08,7.5e-09,0,1,1.995e-08,1
666,4944.82,1.998e-08,7.5e-09,0,1,1.998e-08,1
667,4941.16,2.001e-08,7.5e-09,0,1,2.001e-08,1
668,4938,2.004e-08,7.5e-09,0,1,2.004e-08,1
669,4934.85,2.007e-08,7.5e-09,0,1,2.007e-08,1
670,4931.69,2.01e-08,7.5e-09,0,1,2.01e-08,1
671,4928.54,2.013e-08,7.5e-09,0,1,2.013e-08,1
672,4925.38,2.016e-08,7.5e-09,0,1,2.016e-08,1
673,4922.23,2.019e-08,7.5e-09,0,1,2.019e-08,1
674,4919.07,2.022e-08,7.5e-09,0,1,2.022e-08,1
675,4915.92,2.025e-08,7.5e-09,0,1,2.025e-08,1
676,4912.76,2.028e-08,7.5e-09,0,1,2.028e-08,1
677,4909.61,2.031e-08,7.5e-09,0,1,2.031e-08,1
678,4906.45,2.034e-08,7.5e-09,0,1,2.034e-08,1
679,4903.29,2.037e-08,7.5e-09,0,1,2.037e-08,1
680,4900.14,2.04e-08,7.5e-09,0,1,2.04e-08,1
681,4896.98,2.043e-08,7.5e-09,0,1,2.043e-08,1
682,4893.83,2.046e-08,7.5e-09,0,1,2.046e-08,1
683,4890.67,2.049e-08,7.5e-09,0,1,2.049e-08,1
684,4887.52,2.052e-08,7.5e-09,0,1,2.052e-08,1
685,4884.36,2.055e-08,7.5e-09,0,1,2.055e-08,1
686,4881.21,2.058e-08,7.5e-09,0,1,2.058e-08,1
687,4878.05,2.061e-08,7.5e-09,0,1,2.061e-08,1
688,4874.9,2.064e-08,7.5e-09,0,1,2.064e-08,1
689,4871.74,2.067e-08,7.5e-09,0,1,2.067e-08,1
690,4868.58,2.07e-08,7.5e-09,0,1,2.07e-08,1
691,4865.43,2.073e-08,7.5e-09,0,1,2.073e-08,1
692,4862.27,2.076e-08,7.5e-09,0,1,2.076e-08,1
693,4859.12,2.079e-08,7.5e-09,0,1,2.079e-08,1
694,4855.96,2.082e-08,7.5e-09,0,1,2.082e-08,1
695,4853.05,2.085e-08,7.5e-09,0,1,2.085e-08,1
696,4850.33,2.088e-08,7.5e-09,0,1,2.088e-08,1
697,4847.6,2.091e-08,7.5e-09,0,1,2.091e-08,1
698,4844.88,2.094e-08,7.5e-09,0,1,2.094e-08,1
699,4842.16,2.097e-08,7.5e-09,0,1,2.097e-08,1
700,4839.44,2.1e-08,7.5e-09,0,1,2.1e-08,1
701,4836.72,2.103e-08,7.5e-09,0,1,2.103e-08,1
702,4834,2.106e-08,7.5e-09,0,1,2.106e-08,1
703,4831.27,2.109e-08,7.5e-09,0,1,2.109e-08,1
704,4828.55,2.112e-08,7.5e-09,0,1,2.112e-08,1
705,4825.83,2.115e-08,7.5e-09,0,1,2.115e-08,1
706,4823.11,2.118e-08,7.5e-09,0,1,2.118e-08,1
707,4820.39,2.121e-08,7.5e-09,0,1,2.121e-08,1
708,4817.66,2.124e-08,7.5e-09,0,1,2.124e-08,1
709,4814.94,2.127e-08,7.5e-09,0,1,2.127e-08,1
710,4812.22,2.13e-08,7.5e-09,0,1,2.13e-08,1
711,4809.5,2.133e-08,7.5e-09,0,1,2.133e-08,1
712,4806.78,2.136e-08,7.5e-09,0,1,2.136e-08,1
713,4804.06,2.139e-08,7.5e-09,0,1,2.139e-08,1
714,4801.33,2.142e-08,7.5e-09,0,1,2.142e-08,1
715,4798.61,2.145e-08,7.5e-09,0,1,2.145e-08,1
716,4795.89,2.148e-08,7.5e-09,0,1,2.148e-08,1
717,4793.17,2.151e-08,7.5e-09,0,1,2.151e-08,1
718,4790.45,2.154e-08,7.5e-09,0,1,2.154e-08,1
719,4787.72,2.157e-08,7.5e-09,0,1,2.157e-08,1
720,4785,2.16e-08,7.5e-09,0,1,2.16e-08,1
721,4782.28,2.163e-08,7.5e-09,0,1,2.163e-08,1
722,4779.56,2.166e-08,7.5e-09,0,1,2.166e-08,1
723,4777.06,2.169e-08,7.5e-09,0,1,2.169e-08,1
724,4774.62,2.172e-08,7.5e-09,0,1,2.172e-08,1
725,4772.17,2.175e-08,7.5e-09,0,1,2.175e-08,1
726,4769.73,2.178e-08,7.5e-09,0,1,2.178e-08,1
727,4767.29,2.181e-08,7.5e-09,0,1,2.181e-08,1
728,4764.85,2.184e-08,7.5e-09,0,1,2.184e-08,1
729,4762.41,2.187e-08,7.5e-09,0,1,2.187e-08,1
730,4759.97,2.19e-08,7.5e-09,0,1,2.19e-08,1
731,4757.53,2.193e-08,7.5e-09,0,1,2.193e-08,1
732,4755.09,2.196e-08,7.5e-09,0,1,2.196e-08,1
733,4752.65,2.199e-08,7.5e-09,0,1,2.199e-08,1
734,4750.21,2.202e-08,7.5e-09,0,1,2.202e-08,1
735,4747.77,2.205e-08,7.5e-09,0,1,2.205e-08,1
736,4745.33,2.208e-08,7.5e-09,0,1,2.208e-08,1
737,4742.89,2.211e-08,7.5e-09,0,1,2.211e-08,1
738,4740.45,2.214e-08,7.5e-09,0,1,2.214e-08,1
739,4738.01,2.217e-08,7.5e-09,0,1,2.217e-08,1
740,4735.57,2.22e-08,7.5e-09,0,1,2.22e-08,1
741,4733.13,2.223e-08,7.5e-09,0,1,2.223e-08,1
742,4730.69,2.226e-08,7.5e-09,0,1,2.226e-08,1
743,4728.25,2.229e-08,7.5e-09,0,1,2.229e-08,1
744,4725.81,2.232e-08,7.5e-09,0,1,2.232e-08,1
745,4723.37,2.235e-08,7.5e-09,0,1,2.235e-08,1
746,4720.92,2.238e-08,7.5e-09,0,1,2.238e-08,1
747,4718.48,2.241e-08,7.5e-09,0,1,2.241e-08,1
748,4716.04,2.244e-08,7.5e-09,0,1,2.244e-08,1
749,4713.6,2.247e-08,7.5e-09,0,1,2.247e-08,1
750,4711.16,2.25e-08,7.5e-09,0,1,2.25e-08,1
751,4708.88,2.253e-08,7.5e-09,0,1,2.253e-08,1
752,4706.6,2.256e-08,7.5e-09,0,1,2.256e-08,1
753,4704.32,2.259e-08,7.5e-09,0,1,2.259e-08,1
754,4702.04,2.262e-08,7.5e-09,0,1,2.262e-08,1
755,4699.76,2.265e-08,7.5e-09,0,1,2.265e-08,1
756,4697.48,2.268e-08,7.5e-09,0,1,2.268e-08,1
757,4695.2,2.271e-08,7.5e-09,0,1,2.271e-08,1
758,4692.92,2.274e-08,7.5e-09,0,1,2.274e-08,1
759,4690.64,2.277e-08,7.5e-09,0,1,2.277e-08,1
760,4688.36,2.28e-08,7.5e-09,0,1,2.28e-08,1
761,4686.08,2.283e-08,7.5e-09,0,1,2.283e-08,1
762,4683.8,2.286e-08,7.5e-09,0,1,2.286e-08,1
763,4681.52,2.289e-08,7.5e-09,0,1,2.289e-08,1
764,4679.24,2.292e-08,7.5e-09,0,1,2.292e-08,1
765,4676.96,2.295e-08,7.5e-09,0,1,2.295e-08,1
766,4674.68,2.298e-08,7.5e-09,0,1,2.298e-08,1
767,4672.4,2.301e-08,7.5e-09,0,1,2.301e-08,1
768,4670.12,2.304e-08,7.5e-09,0,1,2.304e-08,1
769,4667.84,2.307e-08,7.5e-09,0,1,2.307e-08,1
770,4665.56,2.31e-08,7.5e-09,0,1,2.31e-08,1
771,4663.28,2.313e-08,7.5e-09,0,1,2.313e-08,1
772,4661,2.316e-08,7.5e-09,0,1,2.316e-08,1
773,4658.72,2.319e-08,7.5e-09,0,1,2.319e-08,1
774,4656.44,2.322e-08,7.5e-09,0,1,2.322e-08,1
775,4654.21,2.325e-08,7.5e-09,0,1,2.325e-08,1
776,4652.14,2.328e-08,7.5e-09,0,1,2.328e-08,1
777,4650.06,2.331e-08,7.5e-09,0,1,2.331e-08,1
778,4647.99,2.334e-08,7.5e-09,0,1,2.334e-08,1
779,4645.91,2.337e-08,7.5e-09,0,1,2.337e-08,1
780,4643.83,2.34e-08,7.5e-09,0,1,2.34e-08,1
781,4641.76,2.343e-08,7.5e-09,0,1,2.343e-08,1
782,4639.68,2.346e-08,7.5e-09,0,1,2.346e-08,1
783,4637.61,2.349e-08,7.5e-09,0,1,2.349e-08,1
784,4635.53,2.352e-08,7.5e-09,0,1,2.352e-08,1
785,4633.45,2.355e-08,7.5e-09,0,1,2.355e-08,1
786,4631.38,2.358e-08,7.5e-09,0,1,2.358e-08,1
787,4629.3,2.361e-08,7.5e-09,0,1,2.361e-08,1
788,4627.23,2.364e-08,7.5e-09,0,1,2.364e-08,1
789,4625.15,2.367e-08,7.5e-09,0,1,2.367e-08,1
790,4623.07,2.37e-08,7.5e-09,0,1,2.37e-08,1
791,4621,2.373e-08,7.5e-09,0,1,2.373e-08,1
792,4618.92,2.376e-08,7.5e-09,0,1,2.376e-08,1
793,4616.84,2.379e-08,7.5e-09,0,1,2.379e-08,1
794,4614.73,2.382e-08,7.5e-09,0,1,2.382e-08,1
795,4612.59,2.385e-08,7.5e-09,0,1,2.385e-08,1
796,4610.45,2.388e-08,7.5e-09,0,1,2.388e-08,1
797,4608.31,2.391e-08,7.5e-09,0,1,2.391e-08,1
798,4606.17,2.394e-08,7.5e-09,0,1,2.394e-08,1
799,4604.03,2.397e-08,7.5e-09,0,1,2.397e-08,1
800,4601.89,2.4e-08,7.5e-09,0,1,2.4e-08,1
801,4599.75,2.403e-08,7.5e-09,0,1,2.403e-08,1
802,4597.6,2.406e-08,7.5e-09,0,1,2.406e-08,1
803,4595.46,2.409e-08,7.5e-09,0,1,2.409e-08,1
804,4593.32,2.412e-08,7.5e-09,0,1,2.412e-08,1
805,4591.18,2.415e-08,7.5e-09,0,1,2.415e-08,1
806,4589.04,2.418e-08,7.5e-09,0,1,2.418e-08,1
807,4587.03,2.421e-08,7.5e-09,0,1,2.421e-08,1
808,4585.02,2.424e-08,7.5e-09,0,1,2.424e-08,1
809,4583,2.427e-08,7.5e-09,0,1,2.427e-08,1
810,4580.99,2.43e-08,7.5e-09,0,1,2.43e-08,1
811,4578.98,2.433e-08,7.5e-09,0,1,2.433e-08,1
812,4576.97,2.436e-08,7.5e-09,0,1,2.436e-08,1
813,4574.96,2.439e-08,7.5e-09,0,1,2.439e-08,1
814,4572.96,2.442e-08,7.5e-09,0,1,2.442e-08,1
815,4571.02,2.445e-08,7.5e-09,0,1,2.445e-08,1
816,4569.07,2.448e-08,7.5e-09,0,1,2.448e-08,1
817,4567.13,2.451e-08,7.5e-09,0,1,2.451e-08,1
818,4565.18,2.454e-08,7.5e-09,0,1,2.454e-08,1
819,4563.24,2.457e-08,7.5e-09,0,1,2.457e-08,1
820,4561.29,2.46e-08,7.5e-09,0,1,2.46e-08,1
821,4559.35,2.463e-08,7.5e-09,0,1,2.463e-08,1
822,4557.4,2.466e-08,7.5e-09,0,1,2.466e-08,1
823,4555.46,2.469e-08,7.5e-09,0,1,2.469e-08,1
824,4553.51,2.472e-08,7.5e-09,0,1,2.472e-08,1
825,4551.57,2.475e-08,7.5e-09,0,1,2.475e-08,1
826,4549.62,2.478e-08,7.5e-09,0,1,2.478e-08,1
827,4547.68,2.481e-08,7.5e-09,0,1,2.481e-08,1
828,4545.73,2.484e-08,7.5e-09,0,1,2.484e-08,1
829,4543.79,2.487e-08,7.5e-09,0,1,2.487e-08,1
830,4541.84,2.49e-08,7.5e-09,0,1,2.49e-08,1
831,4539.9,2.493e-08,7.5e-09,0,1,2.493e-08,1
832,4537.95,2.496e-08,7.5e-09,0,1,2.496e-08,1
833,4536.01,2.499e-08,7.5e-09,0,1,2.499e-08,1
834,4534.06,2.502e-08,7.5e-09,0,1,2.502e-08,1
835,4532.12,2.505e-08,7.5e-09,0,1,2.505e-08,1
836,4530.17,2.508e-08,7.5e-09,0,1,2.508e-08,1
837,4528.23,2.511e-08,7.5e-09,0,1,2.511e-08,1
838,4526.28,2.514e-08,7.5e-09,0,1,2.514e-08,1
839,4524.34,2.517e-08,7.5e-09,0,1,2.517e-08,1
840,4522.39,2.52e-08,7.5e-09,0,1,2.52e-08,1
841,4520.45,2.523e-08,7.5e-09,0,1,2.523e-08,1
842,4518.5,2.526e-08,7.5e-09,0,1,2.526e-08,1
843,4516.56,2.529e-08,7.5e-09,0,1,2.529e-08,1
844,4514.61,2.532e-08,7.5e-09,0,1,2.532e-08,1
845,4512.67,2.535e-08,7.5e-09,0,1,2.535e-08,1
846,4510.76,2.538e-08,7.5e-09,0,1,2.538e-08,1
847,4508.86,2.541e-08,7.5e-09,0,1,2.541e-08,1
848,4506.96,2.544e-08,7.5e-09,0,1,2.544e-08,1
849,4505.08,2.547e-08,7.5e-09,0,1,2.547e-08,1
850,4503.22,2.55e-08,7.5e-09,0,1,2.55e-08,1
851,4501.36,2.553e-08,7.5e-09,0,1,2.553e-08,1
852,4499.5,2.556e-08,7.5e-09,0,1,2.556e-08,1
853,4497.65,2.559e-08,7.5e-09,0,1,2.559e-08,1
854,4495.79,2.562e-08,7.5e-09,0,1,2.562e-08,1
855,4493.93,2.565e-08,7.5e-09,0,1,2.565e-08,1
856,4492.08,2.568e-08,7.5e-09,0,1,2.568e-08,1
857,4490.22,2.571e-08,7.5e-09,0,1,2.571e-08,1
858,4488.36,2.574e-08,7.5e-09,0,1,2.574e-08,1
859,4486.5,2.577e-08,7.5e-09,0,1,2.577e-08,1
860,4484.64,2.58e-08,7.5e-09,0,1,2.58e-08,1
861,4482.77,2.583e-08,7.5e-09,0,1,2.583e-08,1
862,4480.89,2.586e-08,7.5e-09,0,1,2.586e-08,1
863,4479.02,2.589e-08,7.5e-09,0,1,2.589e-08,1
864,4477.15,2.592e-08,7.5e-09,0,1,2.592e-08,1
865,4475.28,2.595e-08,7.5e-09,0,1,2.595e-08,1
866,4473.41,2.598e-08,7.5e-09,0,1,2.598e-08,1
867,4471.54,2.601e-08,7.5e-09,0,1,2.601e-08,1
868,4469.67,2.604e-08,7.5e-09,0,1,2.604e-08,1
869,4467.8,2.607e-08,7.5e-09,0,1,2.607e-08,1
870,4465.92,2.61e-08,7.5e-09,0,1,2.61e-08,1
871,4464.05,2.613e-08,7.5e-09,0,1,2.613e-08,1
872,4462.18,2.616e-08,7.5e-09,0,1,2.616e-08,1
873,4460.31,2.619e-08,7.5e-09,0,1,2.619e-08,1
874,4458.44,2.622e-08,7.5e-09,0,1,2.622e-08,1
875,4456.57,2.625e-08,7.5e-09,0,1,2.625e-08,1
876,4454.7,2.628e-08,7.5e-09,0,1,2.628e-08,1
877,4452.86,2.631e-08,7.5e-09,0,1,2.631e-08,1
878,4451.04,2.634e-08,7.5e-09,0,1,2.634e-08,1
879,4449.23,2.637e-08,7.5e-09,0,1,2.637e-08,1
880,4447.41,2.64e-08,7.5e-09,0,1,2.64e-08,1
881,4445.59,2.643e-08,7.5e-09,0,1,2.643e-08,1
882,4443.77,2.646e-08,7.5e-09,0,1,2.646e-08,1
883,4441.95,2.649e-08,7.5e-09,0,1,2.649e-08,1
884,4440.14,2.652e-08,7.5e-09,0,1,2.652e-08,1
885,4438.32,2.655e-08,7.5e-09,0,1,2.655e-08,1
886,4436.51,2.658e-08,7.5e-09,0,1,2.658e-08,1
887,4434.69,2.661e-08,7.5e-09,0,1,2.661e-08,1
888,4432.88,2.664e-08,7.5e-09,0,1,2.664e-08,1
889,4431.06,2.667e-08,7.5e-09,0,1,2.667e-08,1
890,4429.25,2.67e-08,7.5e-09,0,1,2.67e-08,1
891,4427.43,2.673e-08,7.5e-09,0,1,2.673e-08,1
892,4425.62,2.676e-08,7.5e-09,0,1,2.676e-08,1
893,4423.8,2.679e-08,7.5e-09,0,1,2.679e-08,1
894,4421.99,2.682e-08,7.5e-09,0,1,2.682e-08,1
895,4420.17,2.685e-08,7.5e-09,0,1,2.685e-08,1
896,4418.36,2.688e-08,7.5e-09,0,1,2.688e-08,1
897,4416.54,2.691e-08,7.5e-09,0,1,2.691e-08,1
898,4414.73,2.694e-08,7.5e-09,0,1,2.694e-08,1
899,4412.91,2.697e-08,7.5e-09,0,1,2.697e-08,1
900,4411.1,2.7e-08,7.5e-09,0,1,2.7e-08,1
901,4409.28,2.703e-08,7.5e-09,0,1,2.703e-08,1
902,4407.47,2.706e-08,7.5e-09,0,1,2.706e-08,1
903,4405.65,2.709e-08,7.5e-09,0,1,2.709e-08,1
904,4403.87,2.712e-08,7.5e-09,0,1,2.712e-08,1
905,4402.09,2.715e-08,7.5e-09,0,1,2.715e-08,1
906,4400.31,2.718e-08,7.5e-09,0,1,2.718e-08,1
907,4398.53,2.721e-08,7.5e-09,0,1,2.721e-08,1
908,4396.74,2.724e-08,7.5e-09,0,1,2.724e-08,1
909,4394.96,2.727e-08,7.5e-09,0,1,2.727e-08,1
910,4393.18,2.73e-08,7.5e-09,0,1,2.73e-08,1
911,4391.4,2.733e-08,7.5e-09,0,1,2.733e-08,1
912,4389.62,2.736e-08,7.5e-09,0,1,2.736e-08,1
913,4387.84,2.739e-08,7.5e-09,0,1,2.739e-08,1
914,4386.06,2.742e-08,7.5e-09,0,1,2.742e-08,1
915,4384.28,2.745e-08,7.5e-09,0,1,2.745e-08,1
916,4382.5,2.748e-08,7.5e-09,0,1,2.748e-08,1
917,4380.72,2.751e-08,7.5e-09,0,1,2.751e-08,1
918,4378.93,2.754e-08,7.5e-09,0,1,2.754e-08,1
919,4377.15,2.757e-08,7.5e-09,0,1,2.757e-08,1
920,4375.36,2.76e-08,7.5e-09,0,1,2.76e-08,1
921,4373.58,2.763e-08,7.5e-09,0,1,2.763e-08,1
922,4371.79,2.766e-08,7.5e-09,0,1,2.766e-08,1
923,4370.01,2.769e-08,7.5e-09,0,1,2.769e-08,1
924,4368.22,2.772e-08,7.5e-09,0,1,2.772e-08,1
925,4366.44,2.775e-08,7.5e-09,0,1,2.775e-08,1
926,4364.65,2.778e-08,7.5e-09,0,1,2.778e-08,1
927,4362.87,2.781e-08,7.5e-09,0,1,2.781e-08,1
928,4361.08,2.784e-08,7.5e-09,0,1,2.784e-08,1
929,4359.3,2.787e-08,7.5e-09,0,1,2.787e-08,1
930,4357.51,2.79e-08,7.5e-09,0,1,2.79e-08,1
931,4355.73,2.793e-08,7.5e-09,0,1,2.793e-08,1
932,4353.94,2.796e-08,7.5e-09,0,1,2.796e-08,1
933,4352.16,2.799e-08,7.5e-09,0,1,2.799e-08,1
934,4350.38,2.802e-08,7.5e-09,0,1,2.802e-08,1
935,4348.62,2.805e-08,7.5e-09,0,1,2.805e-08,1
936,4346.86,2.808e-08,7.5e-09,0,1,2.808e-08,1
937,4345.1,2.811e-08,7.5e-09,0,1,2.811e-08,1
938,4343.34,2.814e-08,7.5e-09,0,1,2.814e-08,1
939,4341.58,2.817e-08,7.5e-09,0,1,2.817e-08,1
940,4339.82,2.82e-08,7.5e-09,0,1,2.82e-08,1
941,4338.06,2.823e-08,7.5e-09,0,1,2.823e-08,1
942,4336.31,2.826e-08,7.5e-09,0,1,2.826e-08,1
943,4334.55,2.829e-08,7.5e-09,0,1,2.829e-08,1
944,4332.79,2.832e-08,7.5e-09,0,1,2.832e-08,1
945,4331.03,2.835e-08,7.5e-09,0,1,2.835e-08,1
946,4329.27,2.838e-08,7.5e-09,0,1,2.838e-08,1
947,4327.51,2.841e-08,7.5e-09,0,1,2.841e-08,1
948,4325.76,2.844e-08,7.5e-09,0,1,2.844e-08,1
949,4324.01,2.847e-08,7.5e-09,0,1,2.847e-08,1
950,4322.26,2.85e-08,7.5e-09,0,1,2.85e-08,1
951,4320.5,2.853e-08,7.5e-09,0,1,2.853e-08,1
952,4318.75,2.856e-08,7.5e-09,0,1,2.856e-08,1
953,4317,2.859e-08,7.5e-09,0,1,2.859e-08,1
954,4315.25,2.862e-08,7.5e-09,0,1,2.862e-08,1
955,4313.5,2.865e-08,7.5e-09,0,1,2.865e-08,1
956,4311.75,2.868e-08,7.5e-09,0,1,2.868e-08,1
957,4309.99,2.871e-08,7.5e-09,0,1,2.871e-08,1
958,4308.24,2.874e-08,7.5e-09,0,1,2.874e-08,1
959,4306.49,2.877e-08,7.5e-09,0,1,2.877e-08,1
960,4304.74,2.88e-08,7.5e-09,0,1,2.88e-08,1
961,4302.99,2.883e-08,7.5e-09,0,1,2.883e-08,1
962,4301.23,2.886e-08,7.5e-09,0,1,2.886e-08,1
963,4299.48,2.889e-08,7.5e-09,0,1,2.889e-08,1
964,4297.73,2.892e-08,7.5e-09,0,1,2.892e-08,1
965,4295.98,2.895e-08,7.5e-09,0,1,2.895e-08,1
966,4294.23,2.898e-08,7.5e-09,0,1,2.898e-08,1
967,4292.47,2.901e-08,7.5e-09,0,1,2.901e-08,1
968,4290.72,2.904e-08,7.5e-09,0,1,2.904e-08,1
969,4288.97,2.907e-08,7.5e-09,0,1,2.907e-08,1
970,4287.22,2.91e-08,7.5e-09,0,1,2.91e-08,1
971,4285.47,2.913e-08,7.5e-09,0,1,2.913e-08,1
972,4283.72,2.916e-08,7.5e-09,0,1,2.916e-08,1
973,4281.98,2.919e-08,7.5e-09,0,1,2.919e-08,1
974,4280.23,2.922e-08,7.5e-09,0,1,2.922e-08,1
975,4278.48,2.925e-08,7.5e-09,0,1,2.925e-08,1
976,4276.74,2.928e-08,7.5e-09,0,1,2.928e-08,1
977,4274.99,2.931e-08,7.5e-09,0,1,2.931e-08,1
978,4273.24,2.934e-08,7.5e-09,0,1,2.934e-08,1
979,4271.5,2.937e-08,7.5e-09,0,1,2.937e-08,1
980,4269.75,2.94e-08,7.5e-09,0,1,2.94e-08,1
981,4268.01,2.943e-08,7.5e-09,0,1,2.943e-08,1
982,4266.26,2.946e-08,7.5e-09,0,1,2.946e-08,1
983,4264.51,2.949e-08,7.5e-09,0,1,2.949e-08,1
984,4262.77,2.952e-08,7.5e-09,0,1,2.952e-08,1
985,4261.02,2.955e-08,7.5e-09,0,1,2.955e-08,1
986,4259.28,2.958e-08,7.5e-09,0,1,2.958e-08,1
987,4257.53,2.961e-08,7.5e-09,0,1,2.961e-08,1
988,4255.78,2.964e-08,7.5e-09,0,1,2.964e-08,1
989,4254.04,2.967e-08,7.5e-09,0,1,2.967e-08,1
990,4252.29,2.97e-08,7.5e-09,0,1,2.97e-08,1
991,4250.55,2.973e-08,7.5e-09,0,1,2.973e-08,1
992,4248.8,2.976e-08,7.5e-09,0,1,2.976e-08,1
993,4247.05,2.979e-08,7.5e-09,0,1,2.979e-08,1
994,4245.31,2.982e-08,7.5e-09,0,1,2.982e-08,1
995,4243.56,2.985e-08,7.5e-09,0,1,2.985e-08,1
996,4241.82,2.988e-08,7.5e-09,0,1,2.988e-08,1
997,4240.07,2.991e-08,7.5e-09,0,1,2.991e-08,1
998,4238.33,2.994e-08,7.5e-09,0,1,2.994e-08,1
999,4236.58,2.997e-08,7.5e-09,0,1,2.997e-08,1
1000,4234.83,3e-08,7.5e-09,0,1,3e-08,1
