vtkOriginalIndices,PSI,Points:0,Points:1,Points:2,__vtkIsSelected__,arc_length,vtkValidPointMask
0,0,0,7.5e-09,0,1,0,1
1,2.30552e-07,3e-11,7.5e-09,0,1,3e-11,1
2,4.61103e-07,6e-11,7.5e-09,0,1,6e-11,1
3,6.91655e-07,9e-11,7.5e-09,0,1,9e-11,1
4,9.22207e-07,1.2e-10,7.5e-09,0,1,1.2e-10,1
5,1.15276e-06,1.5e-10,7.5e-09,0,1,1.5e-10,1
6,1.38331e-06,1.8e-10,7.5e-09,0,1,1.8e-10,1
7,1.61386e-06,2.1e-10,7.5e-09,0,1,2.1e-10,1
8,1.84441e-06,2.4e-10,7.5e-09,0,1,2.4e-10,1
9,2.07497e-06,2.7e-10,7.5e-09,0,1,2.7e-10,1
10,2.30552e-06,3e-10,7.5e-09,0,1,3e-10,1
11,2.53607e-06,3.3e-10,7.5e-09,0,1,3.3e-10,1
12,2.76662e-06,3.6e-10,7.5e-09,0,1,3.6e-10,1
13,2.99717e-06,3.9e-10,7.5e-09,0,1,3.9e-10,1
14,3.22772e-06,4.2e-10,7.5e-09,0,1,4.2e-10,1
15,3.45828e-06,4.5e-10,7.5e-09,0,1,4.5e-10,1
16,3.68883e-06,4.8e-10,7.5e-09,0,1,4.8e-10,1
17,3.91938e-06,5.1e-10,7.5e-09,0,1,5.1e-10,1
18,4.14993e-06,5.4e-10,7.5e-09,0,1,5.4e-10,1
19,4.38201e-06,5.7e-10,7.5e-09,0,1,5.7e-10,1
20,4.61527e-06,6e-10,7.5e-09,0,1,6e-10,1
21,4.84854e-06,6.3e-10,7.5e-09,0,1,6.3e-10,1
22,5.0818e-06,6.6e-10,7.5e-09,0,1,6.6e-10,1
23,5.31507e-06,6.9e-10,7.5e-09,0,1,6.9e-10,1
24,5.54833e-06,7.2e-10,7.5e-09,0,1,7.2e-10,1
25,5.7816e-06,7.5e-10,7.5e-09,0,1,7.5e-10,1
26,6.01486e-06,7.8e-10,7.5e-09,0,1,7.8e-10,1
27,6.24813e-06,8.1e-10,7.5e-09,0,1,8.1e-10,1
28,6.48139e-06,8.4e-10,7.5e-09,0,1,8.4e-10,1
29,6.71466e-06,8.7e-10,7.5e-09,0,1,8.7e-10,1
30,6.94541e-06,9e-10,7.5e-09,0,1,9e-10,1
31,7.17402e-06,9.3e-10,7.5e-09,0,1,9.3e-10,1
32,7.40263e-06,9.6e-10,7.5e-09,0,1,9.6e-10,1
33,7.63124e-06,9.9e-10,7.5e-09,0,1,9.9e-10,1
34,7.85985e-06,1.02e-09,7.5e-09,0,1,1.02e-09,1
35,8.08846e-06,1.05e-09,7.5e-09,0,1,1.05e-09,1
36,8.31707e-06,1.08e-09,7.5e-09,0,1,1.08e-09,1
37,8.54568e-06,1.11e-09,7.5e-09,0,1,1.11e-09,1
38,8.77429e-06,1.14e-09,7.5e-09,0,1,1.14e-09,1
39,9.0029e-06,1.17e-09,7.5e-09,0,1,1.17e-09,1
40,9.23151e-06,1.2e-09,7.5e-09,0,1,1.2e-09,1
41,9.46012e-06,1.23e-09,7.5e-09,0,1,1.23e-09,1
42,9.68874e-06,1.26e-09,7.5e-09,0,1,1.26e-09,1
43,9.91735e-06,1.29e-09,7.5e-09,0,1,1.29e-09,1
44,1.0146e-05,1.32e-09,7.5e-09,0,1,1.32e-09,1
45,1.03746e-05,1.35e-09,7.5e-09,0,1,1.35e-09,1
46,1.06032e-05,1.38e-09,7.5e-09,0,1,1.38e-09,1
47,1.08318e-05,1.41e-09,7.5e-09,0,1,1.41e-09,1
48,1.10604e-05,1.44e-09,7.5e-09,0,1,1.44e-09,1
49,1.1289e-05,1.47e-09,7.5e-09,0,1,1.47e-09,1
50,1.15176e-05,1.5e-09,7.5e-09,0,1,1.5e-09,1
51,1.17462e-05,1.53e-09,7.5e-09,0,1,1.53e-09,1
52,1.19748e-05,1.56e-09,7.5e-09,0,1,1.56e-09,1
53,1.22035e-05,1.59e-09,7.5e-09,0,1,1.59e-09,1
54,1.24349e-05,1.62e-09,7.5e-09,0,1,1.62e-09,1
55,1.26668e-05,1.65e-09,7.5e-09,0,1,1.65e-09,1
56,1.28987e-05,1.68e-09,7.5e-09,0,1,1.68e-09,1
57,1.31305e-05,1.71e-09,7.5e-09,0,1,1.71e-09,1
58,1.33624e-05,1.74e-09,7.5e-09,0,1,1.74e-09,1
59,1.35943e-05,1.77e-09,7.5e-09,0,1,1.77e-09,1
60,1.38262e-05,1.8e-09,7.5e-09,0,1,1.8e-09,1
61,1.40581e-05,1.83e-09,7.5e-09,0,1,1.83e-09,1
62,1.42899e-05,1.86e-09,7.5e-09,0,1,1.86e-09,1
63,1.45218e-05,1.89e-09,7.5e-09,0,1,1.89e-09,1
64,1.47537e-05,1.92e-09,7.5e-09,0,1,1.92e-09,1
65,1.49856e-05,1.95e-09,7.5e-09,0,1,1.95e-09,1
66,1.52174e-05,1.98e-09,7.5e-09,0,1,1.98e-09,1
67,1.54412e-05,2.01e-09,7.5e-09,0,1,2.01e-09,1
68,1.5664e-05,2.04e-09,7.5e-09,0,1,2.04e-09,1
69,1.58869e-05,2.07e-09,7.5e-09,0,1,2.07e-09,1
70,1.61097e-05,2.1e-09,7.5e-09,0,1,2.1e-09,1
71,1.63326e-05,2.13e-09,7.5e-09,0,1,2.13e-09,1
72,1.65554e-05,2.16e-09,7.5e-09,0,1,2.16e-09,1
73,1.67782e-05,2.19e-09,7.5e-09,0,1,2.19e-09,1
74,1.70011e-05,2.22e-09,7.5e-09,0,1,2.22e-09,1
75,1.72239e-05,2.25e-09,7.5e-09,0,1,2.25e-09,1
76,1.74467e-05,2.28e-09,7.5e-09,0,1,2.28e-09,1
77,1.76696e-05,2.31e-09,7.5e-09,0,1,2.31e-09,1
78,1.78924e-05,2.34e-09,7.5e-09,0,1,2.34e-09,1
79,1.81153e-05,2.37e-09,7.5e-09,0,1,2.37e-09,1
80,1.83381e-05,2.4e-09,7.5e-09,0,1,2.4e-09,1
81,1.85609e-05,2.43e-09,7.5e-09,0,1,2.43e-09,1
82,1.87838e-05,2.46e-09,7.5e-09,0,1,2.46e-09,1
83,1.90066e-05,2.49e-09,7.5e-09,0,1,2.49e-09,1
84,1.92286e-05,2.52e-09,7.5e-09,0,1,2.52e-09,1
85,1.94506e-05,2.55e-09,7.5e-09,0,1,2.55e-09,1
86,1.96726e-05,2.58e-09,7.5e-09,0,1,2.58e-09,1
87,1.98946e-05,2.61e-09,7.5e-09,0,1,2.61e-09,1
88,2.01166e-05,2.64e-09,7.5e-09,0,1,2.64e-09,1
89,2.03386e-05,2.67e-09,7.5e-09,0,1,2.67e-09,1
90,2.05606e-05,2.7e-09,7.5e-09,0,1,2.7e-09,1
91,2.07826e-05,2.73e-09,7.5e-09,0,1,2.73e-09,1
92,2.10045e-05,2.76e-09,7.5e-09,0,1,2.76e-09,1
93,2.12265e-05,2.79e-09,7.5e-09,0,1,2.79e-09,1
94,2.14485e-05,2.82e-09,7.5e-09,0,1,2.82e-09,1
95,2.16705e-05,2.85e-09,7.5e-09,0,1,2.85e-09,1
96,2.18925e-05,2.88e-09,7.5e-09,0,1,2.88e-09,1
97,2.21135e-05,2.91e-09,7.5e-09,0,1,2.91e-09,1
98,2.23262e-05,2.94e-09,7.5e-09,0,1,2.94e-09,1
99,2.25389e-05,2.97e-09,7.5e-09,0,1,2.97e-09,1
100,2.27516e-05,3e-09,7.5e-09,0,1,3e-09,1
101,2.29643e-05,3.03e-09,7.5e-09,0,1,3.03e-09,1
102,2.3177e-05,3.06e-09,7.5e-09,0,1,3.06e-09,1
103,2.33897e-05,3.09e-09,7.5e-09,0,1,3.09e-09,1
104,2.36024e-05,3.12e-09,7.5e-09,0,1,3.12e-09,1
105,2.38151e-05,3.15e-09,7.5e-09,0,1,3.15e-09,1
106,2.40278e-05,3.18e-09,7.5e-09,0,1,3.18e-09,1
107,2.42405e-05,3.21e-09,7.5e-09,0,1,3.21e-09,1
108,2.44532e-05,3.24e-09,7.5e-09,0,1,3.24e-09,1
109,2.46659e-05,3.27e-09,7.5e-09,0,1,3.27e-09,1
110,2.48786e-05,3.3e-09,7.5e-09,0,1,3.3e-09,1
111,2.50913e-05,3.33e-09,7.5e-09,0,1,3.33e-09,1
112,2.5304e-05,3.36e-09,7.5e-09,0,1,3.36e-09,1
113,2.55167e-05,3.39e-09,7.5e-09,0,1,3.39e-09,1
114,2.57294e-05,3.42e-09,7.5e-09,0,1,3.42e-09,1
115,2.59421e-05,3.45e-09,7.5e-09,0,1,3.45e-09,1
116,2.61548e-05,3.48e-09,7.5e-09,0,1,3.48e-09,1
117,2.63675e-05,3.51e-09,7.5e-09,0,1,3.51e-09,1
118,2.65787e-05,3.54e-09,7.5e-09,0,1,3.54e-09,1
119,2.6788e-05,3.57e-09,7.5e-09,0,1,3.57e-09,1
120,2.69972e-05,3.6e-09,7.5e-09,0,1,3.6e-09,1
121,2.72065e-05,3.63e-09,7.5e-09,0,1,3.63e-09,1
122,2.74158e-05,3.66e-09,7.5e-09,0,1,3.66e-09,1
123,2.7625e-05,3.69e-09,7.5e-09,0,1,3.69e-09,1
124,2.78298e-05,3.72e-09,7.5e-09,0,1,3.72e-09,1
125,2.80204e-05,3.75e-09,7.5e-09,0,1,3.75e-09,1
126,2.8211e-05,3.78e-09,7.5e-09,0,1,3.78e-09,1
127,2.84016e-05,3.81e-09,7.5e-09,0,1,3.81e-09,1
128,2.85922e-05,3.84e-09,7.5e-09,0,1,3.84e-09,1
129,2.87828e-05,3.87e-09,7.5e-09,0,1,3.87e-09,1
130,2.89734e-05,3.9e-09,7.5e-09,0,1,3.9e-09,1
131,2.9164e-05,3.93e-09,7.5e-09,0,1,3.93e-09,1
132,2.93546e-05,3.96e-09,7.5e-09,0,1,3.96e-09,1
133,2.95452e-05,3.99e-09,7.5e-09,0,1,3.99e-09,1
134,2.97358e-05,4.02e-09,7.5e-09,0,1,4.02e-09,1
135,2.99264e-05,4.05e-09,7.5e-09,0,1,4.05e-09,1
136,3.0117e-05,4.08e-09,7.5e-09,0,1,4.08e-09,1
137,3.03076e-05,4.11e-09,7.5e-09,0,1,4.11e-09,1
138,3.04982e-05,4.14e-09,7.5e-09,0,1,4.14e-09,1
139,3.06888e-05,4.17e-09,7.5e-09,0,1,4.17e-09,1
140,3.08794e-05,4.2e-09,7.5e-09,0,1,4.2e-09,1
141,3.10722e-05,4.23e-09,7.5e-09,0,1,4.23e-09,1
142,3.12694e-05,4.26e-09,7.5e-09,0,1,4.26e-09,1
143,3.14666e-05,4.29e-09,7.5e-09,0,1,4.29e-09,1
144,3.16639e-05,4.32e-09,7.5e-09,0,1,4.32e-09,1
145,3.18611e-05,4.35e-09,7.5e-09,0,1,4.35e-09,1
146,3.20583e-05,4.38e-09,7.5e-09,0,1,4.38e-09,1
147,3.22555e-05,4.41e-09,7.5e-09,0,1,4.41e-09,1
148,3.24527e-05,4.44e-09,7.5e-09,0,1,4.44e-09,1
149,3.265e-05,4.47e-09,7.5e-09,0,1,4.47e-09,1
150,3.28472e-05,4.5e-09,7.5e-09,0,1,4.5e-09,1
151,3.30444e-05,4.53e-09,7.5e-09,0,1,4.53e-09,1
152,3.3232e-05,4.56e-09,7.5e-09,0,1,4.56e-09,1
153,3.34167e-05,4.59e-09,7.5e-09,0,1,4.59e-09,1
154,3.36015e-05,4.62e-09,7.5e-09,0,1,4.62e-09,1
155,3.37778e-05,4.65e-09,7.5e-09,0,1,4.65e-09,1
156,3.39327e-05,4.68e-09,7.5e-09,0,1,4.68e-09,1
157,3.40877e-05,4.71e-09,7.5e-09,0,1,4.71e-09,1
158,3.42426e-05,4.74e-09,7.5e-09,0,1,4.74e-09,1
159,3.43975e-05,4.77e-09,7.5e-09,0,1,4.77e-09,1
160,3.45525e-05,4.8e-09,7.5e-09,0,1,4.8e-09,1
161,3.47074e-05,4.83e-09,7.5e-09,0,1,4.83e-09,1
162,3.48624e-05,4.86e-09,7.5e-09,0,1,4.86e-09,1
163,3.50173e-05,4.89e-09,7.5e-09,0,1,4.89e-09,1
164,3.51723e-05,4.92e-09,7.5e-09,0,1,4.92e-09,1
165,3.53272e-05,4.95e-09,7.5e-09,0,1,4.95e-09,1
166,3.54821e-05,4.98e-09,7.5e-09,0,1,4.98e-09,1
167,3.56371e-05,5.01e-09,7.5e-09,0,1,5.01e-09,1
168,3.5792e-05,5.04e-09,7.5e-09,0,1,5.04e-09,1
169,3.5947e-05,5.07e-09,7.5e-09,0,1,5.07e-09,1
170,3.61019e-05,5.1e-09,7.5e-09,0,1,5.1e-09,1
171,3.62569e-05,5.13e-09,7.5e-09,0,1,5.13e-09,1
172,3.64118e-05,5.16e-09,7.5e-09,0,1,5.16e-09,1
173,3.65667e-05,5.19e-09,7.5e-09,0,1,5.19e-09,1
174,3.67217e-05,5.22e-09,7.5e-09,0,1,5.22e-09,1
175,3.68766e-05,5.25e-09,7.5e-09,0,1,5.25e-09,1
176,3.70316e-05,5.28e-09,7.5e-09,0,1,5.28e-09,1
177,3.71865e-05,5.31e-09,7.5e-09,0,1,5.31e-09,1
178,3.73415e-05,5.34e-09,7.5e-09,0,1,5.34e-09,1
179,3.74964e-05,5.37e-09,7.5e-09,0,1,5.37e-09,1
180,3.76513e-05,5.4e-09,7.5e-09,0,1,5.4e-09,1
181,3.78063e-05,5.43e-09,7.5e-09,0,1,5.43e-09,1
182,3.79612e-05,5.46e-09,7.5e-09,0,1,5.46e-09,1
183,3.81162e-05,5.49e-09,7.5e-09,0,1,5.49e-09,1
184,3.82711e-05,5.52e-09,7.5e-09,0,1,5.52e-09,1
185,3.84261e-05,5.55e-09,7.5e-09,0,1,5.55e-09,1
186,3.8581e-05,5.58e-09,7.5e-09,0,1,5.58e-09,1
187,3.87162e-05,5.61e-09,7.5e-09,0,1,5.61e-09,1
188,3.88465e-05,5.64e-09,7.5e-09,0,1,5.64e-09,1
189,3.89768e-05,5.67e-09,7.5e-09,0,1,5.67e-09,1
190,3.91071e-05,5.7e-09,7.5e-09,0,1,5.7e-09,1
191,3.92374e-05,5.73e-09,7.5e-09,0,1,5.73e-09,1
192,3.93677e-05,5.76e-09,7.5e-09,0,1,5.76e-09,1
193,3.94981e-05,5.79e-09,7.5e-09,0,1,5.79e-09,1
194,3.96231e-05,5.82e-09,7.5e-09,0,1,5.82e-09,1
195,3.9643e-05,5.85e-09,7.5e-09,0,1,5.85e-09,1
196,3.96629e-05,5.88e-09,7.5e-09,0,1,5.88e-09,1
197,3.96827e-05,5.91e-09,7.5e-09,0,1,5.91e-09,1
198,3.97026e-05,5.94e-09,7.5e-09,0,1,5.94e-09,1
199,3.97225e-05,5.97e-09,7.5e-09,0,1,5.97e-09,1
200,3.97424e-05,6e-09,7.5e-09,0,1,6e-09,1
201,3.97623e-05,6.03e-09,7.5e-09,0,1,6.03e-09,1
202,3.97822e-05,6.06e-09,7.5e-09,0,1,6.06e-09,1
203,3.9802e-05,6.09e-09,7.5e-09,0,1,6.09e-09,1
204,3.98219e-05,6.12e-09,7.5e-09,0,1,6.12e-09,1
205,3.98418e-05,6.15e-09,7.5e-09,0,1,6.15e-09,1
206,3.98617e-05,6.18e-09,7.5e-09,0,1,6.18e-09,1
207,3.99003e-05,6.21e-09,7.5e-09,0,1,6.21e-09,1
208,3.99717e-05,6.24e-09,7.5e-09,0,1,6.24e-09,1
209,4.00431e-05,6.27e-09,7.5e-09,0,1,6.27e-09,1
210,4.01145e-05,6.3e-09,7.5e-09,0,1,6.3e-09,1
211,4.01859e-05,6.33e-09,7.5e-09,0,1,6.33e-09,1
212,4.02573e-05,6.36e-09,7.5e-09,0,1,6.36e-09,1
213,4.03287e-05,6.39e-09,7.5e-09,0,1,6.39e-09,1
214,4.04002e-05,6.42e-09,7.5e-09,0,1,6.42e-09,1
215,4.04716e-05,6.45e-09,7.5e-09,0,1,6.45e-09,1
216,4.0543e-05,6.48e-09,7.5e-09,0,1,6.48e-09,1
217,4.06144e-05,6.51e-09,7.5e-09,0,1,6.51e-09,1
218,4.06858e-05,6.54e-09,7.5e-09,0,1,6.54e-09,1
219,4.07572e-05,6.57e-09,7.5e-09,0,1,6.57e-09,1
220,4.08286e-05,6.6e-09,7.5e-09,0,1,6.6e-09,1
221,4.09e-05,6.63e-09,7.5e-09,0,1,6.63e-09,1
222,4.09715e-05,6.66e-09,7.5e-09,0,1,6.66e-09,1
223,4.10429e-05,6.69e-09,7.5e-09,0,1,6.69e-09,1
224,4.11143e-05,6.72e-09,7.5e-09,0,1,6.72e-09,1
225,4.11857e-05,6.75e-09,7.5e-09,0,1,6.75e-09,1
226,4.11028e-05,6.78e-09,7.5e-09,0,1,6.78e-09,1
227,4.0965e-05,6.81e-09,7.5e-09,0,1,6.81e-09,1
228,4.08273e-05,6.84e-09,7.5e-09,0,1,6.84e-09,1
229,4.06895e-05,6.87e-09,7.5e-09,0,1,6.87e-09,1
230,4.05518e-05,6.9e-09,7.5e-09,0,1,6.9e-09,1
231,4.0414e-05,6.93e-09,7.5e-09,0,1,6.93e-09,1
232,4.02763e-05,6.96e-09,7.5e-09,0,1,6.96e-09,1
233,4.01385e-05,6.99e-09,7.5e-09,0,1,6.99e-09,1
234,4.00008e-05,7.02e-09,7.5e-09,0,1,7.02e-09,1
235,3.9863e-05,7.05e-09,7.5e-09,0,1,7.05e-09,1
236,3.97253e-05,7.08e-09,7.5e-09,0,1,7.08e-09,1
237,3.95875e-05,7.11e-09,7.5e-09,0,1,7.11e-09,1
238,3.94497e-05,7.14e-09,7.5e-09,0,1,7.14e-09,1
239,3.9312e-05,7.17e-09,7.5e-09,0,1,7.17e-09,1
240,3.91742e-05,7.2e-09,7.5e-09,0,1,7.2e-09,1
241,3.90365e-05,7.23e-09,7.5e-09,0,1,7.23e-09,1
242,3.88987e-05,7.26e-09,7.5e-09,0,1,7.26e-09,1
243,3.8761e-05,7.29e-09,7.5e-09,0,1,7.29e-09,1
244,3.86232e-05,7.32e-09,7.5e-09,0,1,7.32e-09,1
245,3.84855e-05,7.35e-09,7.5e-09,0,1,7.35e-09,1
246,3.83477e-05,7.38e-09,7.5e-09,0,1,7.38e-09,1
247,3.821e-05,7.41e-09,7.5e-09,0,1,7.41e-09,1
248,3.80722e-05,7.44e-09,7.5e-09,0,1,7.44e-09,1
249,3.79344e-05,7.47e-09,7.5e-09,0,1,7.47e-09,1
250,3.77967e-05,7.5e-09,7.5e-09,0,1,7.5e-09,1
251,3.74091e-05,7.53e-09,7.5e-09,0,1,7.53e-09,1
252,3.70215e-05,7.56e-09,7.5e-09,0,1,7.56e-09,1
253,3.66339e-05,7.59e-09,7.5e-09,0,1,7.59e-09,1
254,3.62463e-05,7.62e-09,7.5e-09,0,1,7.62e-09,1
255,3.58587e-05,7.65e-09,7.5e-09,0,1,7.65e-09,1
256,3.54711e-05,7.68e-09,7.5e-09,0,1,7.68e-09,1
257,3.50835e-05,7.71e-09,7.5e-09,0,1,7.71e-09,1
258,3.46959e-05,7.74e-09,7.5e-09,0,1,7.74e-09,1
259,3.43083e-05,7.77e-09,7.5e-09,0,1,7.77e-09,1
260,3.39207e-05,7.8e-09,7.5e-09,0,1,7.8e-09,1
261,3.35331e-05,7.83e-09,7.5e-09,0,1,7.83e-09,1
262,3.31455e-05,7.86e-09,7.5e-09,0,1,7.86e-09,1
263,3.27579e-05,7.89e-09,7.5e-09,0,1,7.89e-09,1
264,3.23703e-05,7.92e-09,7.5e-09,0,1,7.92e-09,1
265,3.19827e-05,7.95e-09,7.5e-09,0,1,7.95e-09,1
266,3.15951e-05,7.98e-09,7.5e-09,0,1,7.98e-09,1
267,3.12075e-05,8.01e-09,7.5e-09,0,1,8.01e-09,1
268,3.08199e-05,8.04e-09,7.5e-09,0,1,8.04e-09,1
269,3.04323e-05,8.07e-09,7.5e-09,0,1,8.07e-09,1
270,3.00447e-05,8.1e-09,7.5e-09,0,1,8.1e-09,1
271,2.96571e-05,8.13e-09,7.5e-09,0,1,8.13e-09,1
272,2.92695e-05,8.16e-09,7.5e-09,0,1,8.16e-09,1
273,2.88819e-05,8.19e-09,7.5e-09,0,1,8.19e-09,1
274,2.84943e-05,8.22e-09,7.5e-09,0,1,8.22e-09,1
275,2.81067e-05,8.25e-09,7.5e-09,0,1,8.25e-09,1
276,2.77191e-05,8.28e-09,7.5e-09,0,1,8.28e-09,1
277,2.73315e-05,8.31e-09,7.5e-09,0,1,8.31e-09,1
278,2.68274e-05,8.34e-09,7.5e-09,0,1,8.34e-09,1
279,2.59151e-05,8.37e-09,7.5e-09,0,1,8.37e-09,1
280,2.50029e-05,8.4e-09,7.5e-09,0,1,8.4e-09,1
281,2.40907e-05,8.43e-09,7.5e-09,0,1,8.43e-09,1
282,2.31785e-05,8.46e-09,7.5e-09,0,1,8.46e-09,1
283,2.22663e-05,8.49e-09,7.5e-09,0,1,8.49e-09,1
284,2.13541e-05,8.52e-09,7.5e-09,0,1,8.52e-09,1
285,2.04419e-05,8.55e-09,7.5e-09,0,1,8.55e-09,1
286,1.95296e-05,8.58e-09,7.5e-09,0,1,8.58e-09,1
287,1.86174e-05,8.61e-09,7.5e-09,0,1,8.61e-09,1
288,1.77052e-05,8.64e-09,7.5e-09,0,1,8.64e-09,1
289,1.6793e-05,8.67e-09,7.5e-09,0,1,8.67e-09,1
290,1.58808e-05,8.7e-09,7.5e-09,0,1,8.7e-09,1
291,1.49686e-05,8.73e-09,7.5e-09,0,1,8.73e-09,1
292,1.40564e-05,8.76e-09,7.5e-09,0,1,8.76e-09,1
293,1.31441e-05,8.79e-09,7.5e-09,0,1,8.79e-09,1
294,1.22319e-05,8.82e-09,7.5e-09,0,1,8.82e-09,1
295,1.13197e-05,8.85e-09,7.5e-09,0,1,8.85e-09,1
296,1.04075e-05,8.88e-09,7.5e-09,0,1,8.88e-09,1
297,9.49528e-06,8.91e-09,7.5e-09,0,1,8.91e-09,1
298,8.58307e-06,8.94e-09,7.5e-09,0,1,8.94e-09,1
299,7.67085e-06,8.97e-09,7.5e-09,0,1,8.97e-09,1
300,6.75864e-06,9e-09,7.5e-09,0,1,9e-09,1
301,5.84642e-06,9.03e-09,7.5e-09,0,1,9.03e-09,1
302,4.93421e-06,9.06e-09,7.5e-09,0,1,9.06e-09,1
303,4.02199e-06,9.09e-09,7.5e-09,0,1,9.09e-09,1
304,3.10978e-06,9.12e-09,7.5e-09,0,1,9.12e-09,1
305,2.19756e-06,9.15e-09,7.5e-09,0,1,9.15e-09,1
306,1.00084e-06,9.18e-09,7.5e-09,0,1,9.18e-09,1
307,-5.51507e-07,9.21e-09,7.5e-09,0,1,9.21e-09,1
308,-2.10386e-06,9.24e-09,7.5e-09,0,1,9.24e-09,1
309,-3.65621e-06,9.27e-09,7.5e-09,0,1,9.27e-09,1
310,-5.20856e-06,9.3e-09,7.5e-09,0,1,9.3e-09,1
311,-6.76091e-06,9.33e-09,7.5e-09,0,1,9.33e-09,1
312,-8.31327e-06,9.36e-09,7.5e-09,0,1,9.36e-09,1
313,-9.86562e-06,9.39e-09,7.5e-09,0,1,9.39e-09,1
314,-1.1418e-05,9.42e-09,7.5e-09,0,1,9.42e-09,1
315,-1.29703e-05,9.45e-09,7.5e-09,0,1,9.45e-09,1
316,-1.45227e-05,9.48e-09,7.5e-09,0,1,9.48e-09,1
317,-1.6075e-05,9.51e-09,7.5e-09,0,1,9.51e-09,1
318,-1.76274e-05,9.54e-09,7.5e-09,0,1,9.54e-09,1
319,-1.91797e-05,9.57e-09,7.5e-09,0,1,9.57e-09,1
320,-2.07321e-05,9.6e-09,7.5e-09,0,1,9.6e-09,1
321,-2.22844e-05,9.63e-09,7.5e-09,0,1,9.63e-09,1
322,-2.38368e-05,9.66e-09,7.5e-09,0,1,9.66e-09,1
323,-2.53891e-05,9.69e-09,7.5e-09,0,1,9.69e-09,1
324,-2.69415e-05,9.72e-09,7.5e-09,0,1,9.72e-09,1
325,-2.84938e-05,9.75e-09,7.5e-09,0,1,9.75e-09,1
326,-3.00462e-05,9.78e-09,7.5e-09,0,1,9.78e-09,1
327,-3.15985e-05,9.81e-09,7.5e-09,0,1,9.81e-09,1
328,-3.31509e-05,9.84e-09,7.5e-09,0,1,9.84e-09,1
329,-3.47032e-05,9.87e-09,7.5e-09,0,1,9.87e-09,1
330,-3.62556e-05,9.9e-09,7.5e-09,0,1,9.9e-09,1
331,-3.78079e-05,9.93e-09,7.5e-09,0,1,9.93e-09,1
332,-3.93603e-05,9.96e-09,7.5e-09,0,1,9.96e-09,1
333,-4.09126e-05,9.99e-09,7.5e-09,0,1,9.99e-09,1
334,-4.26351e-05,1.002e-08,7.5e-09,0,1,1.002e-08,1
335,-4.44426e-05,1.005e-08,7.5e-09,0,1,1.005e-08,1
336,-4.62502e-05,1.008e-08,7.5e-09,0,1,1.008e-08,1
337,-4.80577e-05,1.011e-08,7.5e-09,0,1,1.011e-08,1
338,-4.98652e-05,1.014e-08,7.5e-09,0,1,1.014e-08,1
339,-5.16727e-05,1.017e-08,7.5e-09,0,1,1.017e-08,1
340,-5.34803e-05,1.02e-08,7.5e-09,0,1,1.02e-08,1
341,-5.52878e-05,1.023e-08,7.5e-09,0,1,1.023e-08,1
342,-5.70953e-05,1.026e-08,7.5e-09,0,1,1.026e-08,1
343,-5.89028e-05,1.029e-08,7.5e-09,0,1,1.029e-08,1
344,-6.07104e-05,1.032e-08,7.5e-09,0,1,1.032e-08,1
345,-6.25179e-05,1.035e-08,7.5e-09,0,1,1.035e-08,1
346,-6.43254e-05,1.038e-08,7.5e-09,0,1,1.038e-08,1
347,-6.6133e-05,1.041e-08,7.5e-09,0,1,1.041e-08,1
348,-6.79405e-05,1.044e-08,7.5e-09,0,1,1.044e-08,1
349,-6.9748e-05,1.047e-08,7.5e-09,0,1,1.047e-08,1
350,-7.15555e-05,1.05e-08,7.5e-09,0,1,1.05e-08,1
351,-7.33631e-05,1.053e-08,7.5e-09,0,1,1.053e-08,1
352,-7.51706e-05,1.056e-08,7.5e-09,0,1,1.056e-08,1
353,-7.69781e-05,1.059e-08,7.5e-09,0,1,1.059e-08,1
354,-7.87856e-05,1.062e-08,7.5e-09,0,1,1.062e-08,1
355,-8.05932e-05,1.065e-08,7.5e-09,0,1,1.065e-08,1
356,-8.24007e-05,1.068e-08,7.5e-09,0,1,1.068e-08,1
357,-8.42082e-05,1.071e-08,7.5e-09,0,1,1.071e-08,1
358,-8.60157e-05,1.074e-08,7.5e-09,0,1,1.074e-08,1
359,-8.78233e-05,1.077e-08,7.5e-09,0,1,1.077e-08,1
360,-8.96308e-05,1.08e-08,7.5e-09,0,1,1.08e-08,1
361,-9.14383e-05,1.083e-08,7.5e-09,0,1,1.083e-08,1
362,-9.32458e-05,1.086e-08,7.5e-09,0,1,1.086e-08,1
363,-9.50534e-05,1.089e-08,7.5e-09,0,1,1.089e-08,1
364,-9.68609e-05,1.092e-08,7.5e-09,0,1,1.092e-08,1
365,-9.86684e-05,1.095e-08,7.5e-09,0,1,1.095e-08,1
366,-0.000100476,1.098e-08,7.5e-09,0,1,1.098e-08,1
367,-0.000102174,1.101e-08,7.5e-09,0,1,1.101e-08,1
368,-0.000103651,1.104e-08,7.5e-09,0,1,1.104e-08,1
369,-0.000105129,1.107e-08,7.5e-09,0,1,1.107e-08,1
370,-0.000106606,1.11e-08,7.5e-09,0,1,1.11e-08,1
371,-0.000108084,1.113e-08,7.5e-09,0,1,1.113e-08,1
372,-0.000109562,1.116e-08,7.5e-09,0,1,1.116e-08,1
373,-0.000111039,1.119e-08,7.5e-09,0,1,1.119e-08,1
374,-0.000112517,1.122e-08,7.5e-09,0,1,1.122e-08,1
375,-0.000113994,1.125e-08,7.5e-09,0,1,1.125e-08,1
376,-0.000115472,1.128e-08,7.5e-09,0,1,1.128e-08,1
377,-0.00011695,1.131e-08,7.5e-09,0,1,1.131e-08,1
378,-0.000118427,1.134e-08,7.5e-09,0,1,1.134e-08,1
379,-0.000119905,1.137e-08,7.5e-09,0,1,1.137e-08,1
380,-0.000121383,1.14e-08,7.5e-09,0,1,1.14e-08,1
381,-0.00012286,1.143e-08,7.5e-09,0,1,1.143e-08,1
382,-0.000124338,1.146e-08,7.5e-09,0,1,1.146e-08,1
383,-0.000125815,1.149e-08,7.5e-09,0,1,1.149e-08,1
384,-0.000127293,1.152e-08,7.5e-09,0,1,1.152e-08,1
385,-0.000128771,1.155e-08,7.5e-09,0,1,1.155e-08,1
386,-0.000130248,1.158e-08,7.5e-09,0,1,1.158e-08,1
387,-0.000131726,1.161e-08,7.5e-09,0,1,1.161e-08,1
388,-0.000133203,1.164e-08,7.5e-09,0,1,1.164e-08,1
389,-0.000134681,1.167e-08,7.5e-09,0,1,1.167e-08,1
390,-0.000136159,1.17e-08,7.5e-09,0,1,1.17e-08,1
391,-0.000137636,1.173e-08,7.5e-09,0,1,1.173e-08,1
392,-0.000139114,1.176e-08,7.5e-09,0,1,1.176e-08,1
393,-0.000140592,1.179e-08,7.5e-09,0,1,1.179e-08,1
394,-0.000142069,1.182e-08,7.5e-09,0,1,1.182e-08,1
395,-0.000143547,1.185e-08,7.5e-09,0,1,1.185e-08,1
396,-0.000145024,1.188e-08,7.5e-09,0,1,1.188e-08,1
397,-0.000146502,1.191e-08,7.5e-09,0,1,1.191e-08,1
398,-0.00014798,1.194e-08,7.5e-09,0,1,1.194e-08,1
399,-0.000149457,1.197e-08,7.5e-09,0,1,1.197e-08,1
400,-0.000150935,1.2e-08,7.5e-09,0,1,1.2e-08,1
401,-0.000152252,1.203e-08,7.5e-09,0,1,1.203e-08,1
402,-0.000153569,1.206e-08,7.5e-09,0,1,1.206e-08,1
403,-0.000154886,1.209e-08,7.5e-09,0,1,1.209e-08,1
404,-0.000156203,1.212e-08,7.5e-09,0,1,1.212e-08,1
405,-0.00015752,1.215e-08,7.5e-09,0,1,1.215e-08,1
406,-0.000158838,1.218e-08,7.5e-09,0,1,1.218e-08,1
407,-0.000160155,1.221e-08,7.5e-09,0,1,1.221e-08,1
408,-0.000161472,1.224e-08,7.5e-09,0,1,1.224e-08,1
409,-0.000162789,1.227e-08,7.5e-09,0,1,1.227e-08,1
410,-0.000164106,1.23e-08,7.5e-09,0,1,1.23e-08,1
411,-0.000165423,1.233e-08,7.5e-09,0,1,1.233e-08,1
412,-0.00016674,1.236e-08,7.5e-09,0,1,1.236e-08,1
413,-0.000168057,1.239e-08,7.5e-09,0,1,1.239e-08,1
414,-0.000169374,1.242e-08,7.5e-09,0,1,1.242e-08,1
415,-0.000170691,1.245e-08,7.5e-09,0,1,1.245e-08,1
416,-0.000172009,1.248e-08,7.5e-09,0,1,1.248e-08,1
417,-0.000173326,1.251e-08,7.5e-09,0,1,1.251e-08,1
418,-0.000174643,1.254e-08,7.5e-09,0,1,1.254e-08,1
419,-0.00017596,1.257e-08,7.5e-09,0,1,1.257e-08,1
420,-0.000177277,1.26e-08,7.5e-09,0,1,1.26e-08,1
421,-0.000178594,1.263e-08,7.5e-09,0,1,1.263e-08,1
422,-0.000179911,1.266e-08,7.5e-09,0,1,1.266e-08,1
423,-0.000181228,1.269e-08,7.5e-09,0,1,1.269e-08,1
424,-0.000182545,1.272e-08,7.5e-09,0,1,1.272e-08,1
425,-0.000183862,1.275e-08,7.5e-09,0,1,1.275e-08,1
426,-0.00018518,1.278e-08,7.5e-09,0,1,1.278e-08,1
427,-0.000186497,1.281e-08,7.5e-09,0,1,1.281e-08,1
428,-0.000187814,1.284e-08,7.5e-09,0,1,1.284e-08,1
429,-0.000189131,1.287e-08,7.5e-09,0,1,1.287e-08,1
430,-0.000190448,1.29e-08,7.5e-09,0,1,1.29e-08,1
431,-0.000191765,1.293e-08,7.5e-09,0,1,1.293e-08,1
432,-0.000193082,1.296e-08,7.5e-09,0,1,1.296e-08,1
433,-0.000194399,1.299e-08,7.5e-09,0,1,1.299e-08,1
434,-0.000195819,1.302e-08,7.5e-09,0,1,1.302e-08,1
435,-0.000197289,1.305e-08,7.5e-09,0,1,1.305e-08,1
436,-0.000198759,1.308e-08,7.5e-09,0,1,1.308e-08,1
437,-0.00020023,1.311e-08,7.5e-09,0,1,1.311e-08,1
438,-0.0002017,1.314e-08,7.5e-09,0,1,1.314e-08,1
439,-0.000203171,1.317e-08,7.5e-09,0,1,1.317e-08,1
440,-0.000204641,1.32e-08,7.5e-09,0,1,1.32e-08,1
441,-0.000206111,1.323e-08,7.5e-09,0,1,1.323e-08,1
442,-0.000207582,1.326e-08,7.5e-09,0,1,1.326e-08,1
443,-0.000209052,1.329e-08,7.5e-09,0,1,1.329e-08,1
444,-0.000210523,1.332e-08,7.5e-09,0,1,1.332e-08,1
445,-0.000211993,1.335e-08,7.5e-09,0,1,1.335e-08,1
446,-0.000213463,1.338e-08,7.5e-09,0,1,1.338e-08,1
447,-0.000214934,1.341e-08,7.5e-09,0,1,1.341e-08,1
448,-0.000216404,1.344e-08,7.5e-09,0,1,1.344e-08,1
449,-0.000217875,1.347e-08,7.5e-09,0,1,1.347e-08,1
450,-0.000219345,1.35e-08,7.5e-09,0,1,1.35e-08,1
451,-0.000220815,1.353e-08,7.5e-09,0,1,1.353e-08,1
452,-0.000222286,1.356e-08,7.5e-09,0,1,1.356e-08,1
453,-0.000223756,1.359e-08,7.5e-09,0,1,1.359e-08,1
454,-0.000225227,1.362e-08,7.5e-09,0,1,1.362e-08,1
455,-0.000226697,1.365e-08,7.5e-09,0,1,1.365e-08,1
456,-0.000228168,1.368e-08,7.5e-09,0,1,1.368e-08,1
457,-0.000229638,1.371e-08,7.5e-09,0,1,1.371e-08,1
458,-0.000231108,1.374e-08,7.5e-09,0,1,1.374e-08,1
459,-0.000232579,1.377e-08,7.5e-09,0,1,1.377e-08,1
460,-0.000234049,1.38e-08,7.5e-09,0,1,1.38e-08,1
461,-0.00023552,1.383e-08,7.5e-09,0,1,1.383e-08,1
462,-0.00023699,1.386e-08,7.5e-09,0,1,1.386e-08,1
463,-0.00023846,1.389e-08,7.5e-09,0,1,1.389e-08,1
464,-0.000239931,1.392e-08,7.5e-09,0,1,1.392e-08,1
465,-0.000241401,1.395e-08,7.5e-09,0,1,1.395e-08,1
466,-0.000242872,1.398e-08,7.5e-09,0,1,1.398e-08,1
467,-0.000244393,1.401e-08,7.5e-09,0,1,1.401e-08,1
468,-0.000246015,1.404e-08,7.5e-09,0,1,1.404e-08,1
469,-0.000247637,1.407e-08,7.5e-09,0,1,1.407e-08,1
470,-0.000249259,1.41e-08,7.5e-09,0,1,1.41e-08,1
471,-0.000250881,1.413e-08,7.5e-09,0,1,1.413e-08,1
472,-0.000252504,1.416e-08,7.5e-09,0,1,1.416e-08,1
473,-0.000254126,1.419e-08,7.5e-09,0,1,1.419e-08,1
474,-0.000255748,1.422e-08,7.5e-09,0,1,1.422e-08,1
475,-0.00025737,1.425e-08,7.5e-09,0,1,1.425e-08,1
476,-0.000258992,1.428e-08,7.5e-09,0,1,1.428e-08,1
477,-0.000260615,1.431e-08,7.5e-09,0,1,1.431e-08,1
478,-0.000262237,1.434e-08,7.5e-09,0,1,1.434e-08,1
479,-0.000263859,1.437e-08,7.5e-09,0,1,1.437e-08,1
480,-0.000265481,1.44e-08,7.5e-09,0,1,1.44e-08,1
481,-0.000267103,1.443e-08,7.5e-09,0,1,1.443e-08,1
482,-0.000268726,1.446e-08,7.5e-09,0,1,1.446e-08,1
483,-0.000270348,1.449e-08,7.5e-09,0,1,1.449e-08,1
484,-0.00027197,1.452e-08,7.5e-09,0,1,1.452e-08,1
485,-0.000273592,1.455e-08,7.5e-09,0,1,1.455e-08,1
486,-0.000275214,1.458e-08,7.5e-09,0,1,1.458e-08,1
487,-0.000276837,1.461e-08,7.5e-09,0,1,1.461e-08,1
488,-0.000278459,1.464e-08,7.5e-09,0,1,1.464e-08,1
489,-0.000280081,1.467e-08,7.5e-09,0,1,1.467e-08,1
490,-0.000281703,1.47e-08,7.5e-09,0,1,1.47e-08,1
491,-0.000283326,1.473e-08,7.5e-09,0,1,1.473e-08,1
492,-0.000284948,1.476e-08,7.5e-09,0,1,1.476e-08,1
493,-0.00028657,1.479e-08,7.5e-09,0,1,1.479e-08,1
494,-0.000288192,1.482e-08,7.5e-09,0,1,1.482e-08,1
495,-0.000289814,1.485e-08,7.5e-09,0,1,1.485e-08,1
496,-0.000291437,1.488e-08,7.5e-09,0,1,1.488e-08,1
497,-0.000293059,1.491e-08,7.5e-09,0,1,1.491e-08,1
498,-0.000294681,1.494e-08,7.5e-09,0,1,1.494e-08,1
499,-0.000296303,1.497e-08,7.5e-09,0,1,1.497e-08,1
500,-0.000297925,1.5e-08,7.5e-09,0,1,1.5e-08,1
501,-0.000299566,1.503e-08,7.5e-09,0,1,1.503e-08,1
502,-0.000301208,1.506e-08,7.5e-09,0,1,1.506e-08,1
503,-0.000302849,1.509e-08,7.5e-09,0,1,1.509e-08,1
504,-0.00030449,1.512e-08,7.5e-09,0,1,1.512e-08,1
505,-0.000306131,1.515e-08,7.5e-09,0,1,1.515e-08,1
506,-0.000307772,1.518e-08,7.5e-09,0,1,1.518e-08,1
507,-0.000309413,1.521e-08,7.5e-09,0,1,1.521e-08,1
508,-0.000311054,1.524e-08,7.5e-09,0,1,1.524e-08,1
509,-0.000312695,1.527e-08,7.5e-09,0,1,1.527e-08,1
510,-0.000314336,1.53e-08,7.5e-09,0,1,1.53e-08,1
511,-0.000315977,1.533e-08,7.5e-09,0,1,1.533e-08,1
512,-0.000317618,1.536e-08,7.5e-09,0,1,1.536e-08,1
513,-0.000319259,1.539e-08,7.5e-09,0,1,1.539e-08,1
514,-0.0003209,1.542e-08,7.5e-09,0,1,1.542e-08,1
515,-0.000322541,1.545e-08,7.5e-09,0,1,1.545e-08,1
516,-0.000324182,1.548e-08,7.5e-09,0,1,1.548e-08,1
517,-0.000325823,1.551e-08,7.5e-09,0,1,1.551e-08,1
518,-0.000327465,1.554e-08,7.5e-09,0,1,1.554e-08,1
519,-0.000329106,1.557e-08,7.5e-09,0,1,1.557e-08,1
520,-0.000330747,1.56e-08,7.5e-09,0,1,1.56e-08,1
521,-0.000332388,1.563e-08,7.5e-09,0,1,1.563e-08,1
522,-0.000334029,1.566e-08,7.5e-09,0,1,1.566e-08,1
523,-0.00033567,1.569e-08,7.5e-09,0,1,1.569e-08,1
524,-0.000337311,1.572e-08,7.5e-09,0,1,1.572e-08,1
525,-0.000338952,1.575e-08,7.5e-09,0,1,1.575e-08,1
526,-0.000340593,1.578e-08,7.5e-09,0,1,1.578e-08,1
527,-0.000342234,1.581e-08,7.5e-09,0,1,1.581e-08,1
528,-0.000343875,1.584e-08,7.5e-09,0,1,1.584e-08,1
529,-0.000345516,1.587e-08,7.5e-09,0,1,1.587e-08,1
530,-0.000347157,1.59e-08,7.5e-09,0,1,1.59e-08,1
531,-0.000348798,1.593e-08,7.5e-09,0,1,1.593e-08,1
532,-0.00035044,1.596e-08,7.5e-09,0,1,1.596e-08,1
533,-0.000352081,1.599e-08,7.5e-09,0,1,1.599e-08,1
534,-0.000353646,1.602e-08,7.5e-09,0,1,1.602e-08,1
535,-0.000355174,1.605e-08,7.5e-09,0,1,1.605e-08,1
536,-0.000356702,1.608e-08,7.5e-09,0,1,1.608e-08,1
537,-0.00035823,1.611e-08,7.5e-09,0,1,1.611e-08,1
538,-0.000359758,1.614e-08,7.5e-09,0,1,1.614e-08,1
539,-0.000361286,1.617e-08,7.5e-09,0,1,1.617e-08,1
540,-0.000362814,1.62e-08,7.5e-09,0,1,1.62e-08,1
541,-0.000364342,1.623e-08,7.5e-09,0,1,1.623e-08,1
542,-0.00036587,1.626e-08,7.5e-09,0,1,1.626e-08,1
543,-0.000367397,1.629e-08,7.5e-09,0,1,1.629e-08,1
544,-0.000368925,1.632e-08,7.5e-09,0,1,1.632e-08,1
545,-0.000370453,1.635e-08,7.5e-09,0,1,1.635e-08,1
546,-0.000371981,1.638e-08,7.5e-09,0,1,1.638e-08,1
547,-0.000373509,1.641e-08,7.5e-09,0,1,1.641e-08,1
548,-0.000375037,1.644e-08,7.5e-09,0,1,1.644e-08,1
549,-0.000376565,1.647e-08,7.5e-09,0,1,1.647e-08,1
550,-0.000378093,1.65e-08,7.5e-09,0,1,1.65e-08,1
551,-0.000379621,1.653e-08,7.5e-09,0,1,1.653e-08,1
552,-0.000381149,1.656e-08,7.5e-09,0,1,1.656e-08,1
553,-0.000382677,1.659e-08,7.5e-09,0,1,1.659e-08,1
554,-0.000384204,1.662e-08,7.5e-09,0,1,1.662e-08,1
555,-0.000385732,1.665e-08,7.5e-09,0,1,1.665e-08,1
556,-0.00038726,1.668e-08,7.5e-09,0,1,1.668e-08,1
557,-0.000388788,1.671e-08,7.5e-09,0,1,1.671e-08,1
558,-0.000390316,1.674e-08,7.5e-09,0,1,1.674e-08,1
559,-0.000391844,1.677e-08,7.5e-09,0,1,1.677e-08,1
560,-0.000393372,1.68e-08,7.5e-09,0,1,1.68e-08,1
561,-0.0003949,1.683e-08,7.5e-09,0,1,1.683e-08,1
562,-0.000396428,1.686e-08,7.5e-09,0,1,1.686e-08,1
563,-0.000397956,1.689e-08,7.5e-09,0,1,1.689e-08,1
564,-0.000399484,1.692e-08,7.5e-09,0,1,1.692e-08,1
565,-0.000401011,1.695e-08,7.5e-09,0,1,1.695e-08,1
566,-0.000402539,1.698e-08,7.5e-09,0,1,1.698e-08,1
567,-0.000403866,1.701e-08,7.5e-09,0,1,1.701e-08,1
568,-0.000404788,1.704e-08,7.5e-09,0,1,1.704e-08,1
569,-0.000405711,1.707e-08,7.5e-09,0,1,1.707e-08,1
570,-0.000406634,1.71e-08,7.5e-09,0,1,1.71e-08,1
571,-0.000407556,1.713e-08,7.5e-09,0,1,1.713e-08,1
572,-0.000408479,1.716e-08,7.5e-09,0,1,1.716e-08,1
573,-0.000409402,1.719e-08,7.5e-09,0,1,1.719e-08,1
574,-0.000410325,1.722e-08,7.5e-09,0,1,1.722e-08,1
575,-0.000411247,1.725e-08,7.5e-09,0,1,1.725e-08,1
576,-0.00041217,1.728e-08,7.5e-09,0,1,1.728e-08,1
577,-0.000413093,1.731e-08,7.5e-09,0,1,1.731e-08,1
578,-0.000414015,1.734e-08,7.5e-09,0,1,1.734e-08,1
579,-0.000414938,1.737e-08,7.5e-09,0,1,1.737e-08,1
580,-0.000415861,1.74e-08,7.5e-09,0,1,1.74e-08,1
581,-0.000416784,1.743e-08,7.5e-09,0,1,1.743e-08,1
582,-0.000417706,1.746e-08,7.5e-09,0,1,1.746e-08,1
583,-0.000418629,1.749e-08,7.5e-09,0,1,1.749e-08,1
584,-0.000419552,1.752e-08,7.5e-09,0,1,1.752e-08,1
585,-0.000420475,1.755e-08,7.5e-09,0,1,1.755e-08,1
586,-0.000421397,1.758e-08,7.5e-09,0,1,1.758e-08,1
587,-0.00042232,1.761e-08,7.5e-09,0,1,1.761e-08,1
588,-0.000423243,1.764e-08,7.5e-09,0,1,1.764e-08,1
589,-0.000424165,1.767e-08,7.5e-09,0,1,1.767e-08,1
590,-0.000425088,1.77e-08,7.5e-09,0,1,1.77e-08,1
591,-0.000426011,1.773e-08,7.5e-09,0,1,1.773e-08,1
592,-0.000426934,1.776e-08,7.5e-09,0,1,1.776e-08,1
593,-0.000427856,1.779e-08,7.5e-09,0,1,1.779e-08,1
594,-0.000428779,1.782e-08,7.5e-09,0,1,1.782e-08,1
595,-0.000429702,1.785e-08,7.5e-09,0,1,1.785e-08,1
596,-0.000430624,1.788e-08,7.5e-09,0,1,1.788e-08,1
597,-0.000431547,1.791e-08,7.5e-09,0,1,1.791e-08,1
598,-0.00043247,1.794e-08,7.5e-09,0,1,1.794e-08,1
599,-0.000433393,1.797e-08,7.5e-09,0,1,1.797e-08,1
600,-0.000434315,1.8e-08,7.5e-09,0,1,1.8e-08,1
601,-0.000434131,1.803e-08,7.5e-09,0,1,1.803e-08,1
602,-0.000433947,1.806e-08,7.5e-09,0,1,1.806e-08,1
603,-0.000433763,1.809e-08,7.5e-09,0,1,1.809e-08,1
604,-0.000433579,1.812e-08,7.5e-09,0,1,1.812e-08,1
605,-0.000433395,1.815e-08,7.5e-09,0,1,1.815e-08,1
606,-0.000433211,1.818e-08,7.5e-09,0,1,1.818e-08,1
607,-0.000433027,1.821e-08,7.5e-09,0,1,1.821e-08,1
608,-0.000432843,1.824e-08,7.5e-09,0,1,1.824e-08,1
609,-0.000432659,1.827e-08,7.5e-09,0,1,1.827e-08,1
610,-0.000432475,1.83e-08,7.5e-09,0,1,1.83e-08,1
611,-0.000432291,1.833e-08,7.5e-09,0,1,1.833e-08,1
612,-0.000432107,1.836e-08,7.5e-09,0,1,1.836e-08,1
613,-0.000431922,1.839e-08,7.5e-09,0,1,1.839e-08,1
614,-0.000431738,1.842e-08,7.5e-09,0,1,1.842e-08,1
615,-0.000431554,1.845e-08,7.5e-09,0,1,1.845e-08,1
616,-0.00043137,1.848e-08,7.5e-09,0,1,1.848e-08,1
617,-0.000431186,1.851e-08,7.5e-09,0,1,1.851e-08,1
618,-0.000431002,1.854e-08,7.5e-09,0,1,1.854e-08,1
619,-0.000430818,1.857e-08,7.5e-09,0,1,1.857e-08,1
620,-0.000430634,1.86e-08,7.5e-09,0,1,1.86e-08,1
621,-0.00043045,1.863e-08,7.5e-09,0,1,1.863e-08,1
622,-0.000430266,1.866e-08,7.5e-09,0,1,1.866e-08,1
623,-0.000430082,1.869e-08,7.5e-09,0,1,1.869e-08,1
624,-0.000429898,1.872e-08,7.5e-09,0,1,1.872e-08,1
625,-0.000429714,1.875e-08,7.5e-09,0,1,1.875e-08,1
626,-0.00042953,1.878e-08,7.5e-09,0,1,1.878e-08,1
627,-0.000429345,1.881e-08,7.5e-09,0,1,1.881e-08,1
628,-0.000429161,1.884e-08,7.5e-09,0,1,1.884e-08,1
629,-0.000428977,1.887e-08,7.5e-09,0,1,1.887e-08,1
630,-0.000428793,1.89e-08,7.5e-09,0,1,1.89e-08,1
631,-0.000428609,1.893e-08,7.5e-09,0,1,1.893e-08,1
632,-0.000428425,1.896e-08,7.5e-09,0,1,1.896e-08,1
633,-0.000428241,1.899e-08,7.5e-09,0,1,1.899e-08,1
634,-0.000426877,1.902e-08,7.5e-09,0,1,1.902e-08,1
635,-0.000424922,1.905e-08,7.5e-09,0,1,1.905e-08,1
636,-0.000422967,1.908e-08,7.5e-09,0,1,1.908e-08,1
637,-0.000421012,1.911e-08,7.5e-09,0,1,1.911e-08,1
638,-0.000419057,1.914e-08,7.5e-09,0,1,1.914e-08,1
639,-0.000417102,1.917e-08,7.5e-09,0,1,1.917e-08,1
640,-0.000415148,1.92e-08,7.5e-09,0,1,1.92e-08,1
641,-0.000413193,1.923e-08,7.5e-09,0,1,1.923e-08,1
642,-0.000411238,1.926e-08,7.5e-09,0,1,1.926e-08,1
643,-0.000409283,1.929e-08,7.5e-09,0,1,1.929e-08,1
644,-0.000407328,1.932e-08,7.5e-09,0,1,1.932e-08,1
645,-0.000405373,1.935e-08,7.5e-09,0,1,1.935e-08,1
646,-0.000403419,1.938e-08,7.5e-09,0,1,1.938e-08,1
647,-0.000401464,1.941e-08,7.5e-09,0,1,1.941e-08,1
648,-0.000399509,1.944e-08,7.5e-09,0,1,1.944e-08,1
649,-0.000397554,1.947e-08,7.5e-09,0,1,1.947e-08,1
650,-0.000395599,1.95e-08,7.5e-09,0,1,1.95e-08,1
651,-0.000393644,1.953e-08,7.5e-09,0,1,1.953e-08,1
652,-0.00039169,1.956e-08,7.5e-09,0,1,1.956e-08,1
653,-0.000389735,1.959e-08,7.5e-09,0,1,1.959e-08,1
654,-0.00038778,1.962e-08,7.5e-09,0,1,1.962e-08,1
655,-0.000385825,1.965e-08,7.5e-09,0,1,1.965e-08,1
656,-0.00038387,1.968e-08,7.5e-09,0,1,1.968e-08,1
657,-0.000381916,1.971e-08,7.5e-09,0,1,1.971e-08,1
658,-0.000379961,1.974e-08,7.5e-09,0,1,1.974e-08,1
659,-0.000378006,1.977e-08,7.5e-09,0,1,1.977e-08,1
660,-0.000376051,1.98e-08,7.5e-09,0,1,1.98e-08,1
661,-0.000374096,1.983e-08,7.5e-09,0,1,1.983e-08,1
662,-0.000372141,1.986e-08,7.5e-09,0,1,1.986e-08,1
663,-0.000370187,1.989e-08,7.5e-09,0,1,1.989e-08,1
664,-0.000368232,1.992e-08,7.5e-09,0,1,1.992e-08,1
665,-0.000366277,1.995e-08,7.5e-09,0,1,1.995e-08,1
666,-0.000364322,1.998e-08,7.5e-09,0,1,1.998e-08,1
667,-0.000361967,2.001e-08,7.5e-09,0,1,2.001e-08,1
668,-0.000358811,2.004e-08,7.5e-09,0,1,2.004e-08,1
669,-0.000355655,2.007e-08,7.5e-09,0,1,2.007e-08,1
670,-0.000352498,2.01e-08,7.5e-09,0,1,2.01e-08,1
671,-0.000349342,2.013e-08,7.5e-09,0,1,2.013e-08,1
672,-0.000346186,2.016e-08,7.5e-09,0,1,2.016e-08,1
673,-0.00034303,2.019e-08,7.5e-09,0,1,2.019e-08,1
674,-0.000339874,2.022e-08,7.5e-09,0,1,2.022e-08,1
675,-0.000336718,2.025e-08,7.5e-09,0,1,2.025e-08,1
676,-0.000333562,2.028e-08,7.5e-09,0,1,2.028e-08,1
677,-0.000330406,2.031e-08,7.5e-09,0,1,2.031e-08,1
678,-0.00032725,2.034e-08,7.5e-09,0,1,2.034e-08,1
679,-0.000324094,2.037e-08,7.5e-09,0,1,2.037e-08,1
680,-0.000320937,2.04e-08,7.5e-09,0,1,2.04e-08,1
681,-0.000317781,2.043e-08,7.5e-09,0,1,2.043e-08,1
682,-0.000314625,2.046e-08,7.5e-09,0,1,2.046e-08,1
683,-0.000311469,2.049e-08,7.5e-09,0,1,2.049e-08,1
684,-0.000308313,2.052e-08,7.5e-09,0,1,2.052e-08,1
685,-0.000305157,2.055e-08,7.5e-09,0,1,2.055e-08,1
686,-0.000302001,2.058e-08,7.5e-09,0,1,2.058e-08,1
687,-0.000298845,2.061e-08,7.5e-09,0,1,2.061e-08,1
688,-0.000295688,2.064e-08,7.5e-09,0,1,2.064e-08,1
689,-0.000292532,2.067e-08,7.5e-09,0,1,2.067e-08,1
690,-0.000289376,2.07e-08,7.5e-09,0,1,2.07e-08,1
691,-0.00028622,2.073e-08,7.5e-09,0,1,2.073e-08,1
692,-0.000283064,2.076e-08,7.5e-09,0,1,2.076e-08,1
693,-0.000279908,2.079e-08,7.5e-09,0,1,2.079e-08,1
694,-0.000276752,2.082e-08,7.5e-09,0,1,2.082e-08,1
695,-0.000273787,2.085e-08,7.5e-09,0,1,2.085e-08,1
696,-0.000270974,2.088e-08,7.5e-09,0,1,2.088e-08,1
697,-0.000268161,2.091e-08,7.5e-09,0,1,2.091e-08,1
698,-0.000265348,2.094e-08,7.5e-09,0,1,2.094e-08,1
699,-0.000262535,2.097e-08,7.5e-09,0,1,2.097e-08,1
700,-0.000259722,2.1e-08,7.5e-09,0,1,2.1e-08,1
701,-0.00025691,2.103e-08,7.5e-09,0,1,2.103e-08,1
702,-0.000254097,2.106e-08,7.5e-09,0,1,2.106e-08,1
703,-0.000251284,2.109e-08,7.5e-09,0,1,2.109e-08,1
704,-0.000248471,2.112e-08,7.5e-09,0,1,2.112e-08,1
705,-0.000245658,2.115e-08,7.5e-09,0,1,2.115e-08,1
706,-0.000242845,2.118e-08,7.5e-09,0,1,2.118e-08,1
707,-0.000240033,2.121e-08,7.5e-09,0,1,2.121e-08,1
708,-0.00023722,2.124e-08,7.5e-09,0,1,2.124e-08,1
709,-0.000234407,2.127e-08,7.5e-09,0,1,2.127e-08,1
710,-0.000231594,2.13e-08,7.5e-09,0,1,2.13e-08,1
711,-0.000228781,2.133e-08,7.5e-09,0,1,2.133e-08,1
712,-0.000225968,2.136e-08,7.5e-09,0,1,2.136e-08,1
713,-0.000223156,2.139e-08,7.5e-09,0,1,2.139e-08,1
714,-0.000220343,2.142e-08,7.5e-09,0,1,2.142e-08,1
715,-0.00021753,2.145e-08,7.5e-09,0,1,2.145e-08,1
716,-0.000214717,2.148e-08,7.5e-09,0,1,2.148e-08,1
717,-0.000211904,2.151e-08,7.5e-09,0,1,2.151e-08,1
718,-0.000209091,2.154e-08,7.5e-09,0,1,2.154e-08,1
719,-0.000206279,2.157e-08,7.5e-09,0,1,2.157e-08,1
720,-0.000203466,2.16e-08,7.5e-09,0,1,2.16e-08,1
721,-0.000200653,2.163e-08,7.5e-09,0,1,2.163e-08,1
722,-0.00019784,2.166e-08,7.5e-09,0,1,2.166e-08,1
723,-0.000195689,2.169e-08,7.5e-09,0,1,2.169e-08,1
724,-0.000193726,2.172e-08,7.5e-09,0,1,2.172e-08,1
725,-0.000191764,2.175e-08,7.5e-09,0,1,2.175e-08,1
726,-0.000189801,2.178e-08,7.5e-09,0,1,2.178e-08,1
727,-0.000187838,2.181e-08,7.5e-09,0,1,2.181e-08,1
728,-0.000185876,2.184e-08,7.5e-09,0,1,2.184e-08,1
729,-0.000183913,2.187e-08,7.5e-09,0,1,2.187e-08,1
730,-0.000181951,2.19e-08,7.5e-09,0,1,2.19e-08,1
731,-0.000179988,2.193e-08,7.5e-09,0,1,2.193e-08,1
732,-0.000178025,2.196e-08,7.5e-09,0,1,2.196e-08,1
733,-0.000176063,2.199e-08,7.5e-09,0,1,2.199e-08,1
734,-0.0001741,2.202e-08,7.5e-09,0,1,2.202e-08,1
735,-0.000172138,2.205e-08,7.5e-09,0,1,2.205e-08,1
736,-0.000170175,2.208e-08,7.5e-09,0,1,2.208e-08,1
737,-0.000168213,2.211e-08,7.5e-09,0,1,2.211e-08,1
738,-0.00016625,2.214e-08,7.5e-09,0,1,2.214e-08,1
739,-0.000164287,2.217e-08,7.5e-09,0,1,2.217e-08,1
740,-0.000162325,2.22e-08,7.5e-09,0,1,2.22e-08,1
741,-0.000160362,2.223e-08,7.5e-09,0,1,2.223e-08,1
742,-0.0001584,2.226e-08,7.5e-09,0,1,2.226e-08,1
743,-0.000156437,2.229e-08,7.5e-09,0,1,2.229e-08,1
744,-0.000154474,2.232e-08,7.5e-09,0,1,2.232e-08,1
745,-0.000152512,2.235e-08,7.5e-09,0,1,2.235e-08,1
746,-0.000150549,2.238e-08,7.5e-09,0,1,2.238e-08,1
747,-0.000148587,2.241e-08,7.5e-09,0,1,2.241e-08,1
748,-0.000146624,2.244e-08,7.5e-09,0,1,2.244e-08,1
749,-0.000144662,2.247e-08,7.5e-09,0,1,2.247e-08,1
750,-0.000142699,2.25e-08,7.5e-09,0,1,2.25e-08,1
751,-0.00014128,2.253e-08,7.5e-09,0,1,2.253e-08,1
752,-0.000139861,2.256e-08,7.5e-09,0,1,2.256e-08,1
753,-0.000138441,2.259e-08,7.5e-09,0,1,2.259e-08,1
754,-0.000137022,2.262e-08,7.5e-09,0,1,2.262e-08,1
755,-0.000135603,2.265e-08,7.5e-09,0,1,2.265e-08,1
756,-0.000134184,2.268e-08,7.5e-09,0,1,2.268e-08,1
757,-0.000132765,2.271e-08,7.5e-09,0,1,2.271e-08,1
758,-0.000131345,2.274e-08,7.5e-09,0,1,2.274e-08,1
759,-0.000129926,2.277e-08,7.5e-09,0,1,2.277e-08,1
760,-0.000128507,2.28e-08,7.5e-09,0,1,2.28e-08,1
761,-0.000127088,2.283e-08,7.5e-09,0,1,2.283e-08,1
762,-0.000125669,2.286e-08,7.5e-09,0,1,2.286e-08,1
763,-0.000124249,2.289e-08,7.5e-09,0,1,2.289e-08,1
764,-0.00012283,2.292e-08,7.5e-09,0,1,2.292e-08,1
765,-0.000121411,2.295e-08,7.5e-09,0,1,2.295e-08,1
766,-0.000119992,2.298e-08,7.5e-09,0,1,2.298e-08,1
767,-0.000118573,2.301e-08,7.5e-09,0,1,2.301e-08,1
768,-0.000117153,2.304e-08,7.5e-09,0,1,2.304e-08,1
769,-0.000115734,2.307e-08,7.5e-09,0,1,2.307e-08,1
770,-0.000114315,2.31e-08,7.5e-09,0,1,2.31e-08,1
771,-0.000112896,2.313e-08,7.5e-09,0,1,2.313e-08,1
772,-0.000111477,2.316e-08,7.5e-09,0,1,2.316e-08,1
773,-0.000110057,2.319e-08,7.5e-09,0,1,2.319e-08,1
774,-0.000108638,2.322e-08,7.5e-09,0,1,2.322e-08,1
775,-0.000107369,2.325e-08,7.5e-09,0,1,2.325e-08,1
776,-0.00010652,2.328e-08,7.5e-09,0,1,2.328e-08,1
777,-0.000105671,2.331e-08,7.5e-09,0,1,2.331e-08,1
778,-0.000104823,2.334e-08,7.5e-09,0,1,2.334e-08,1
779,-0.000103974,2.337e-08,7.5e-09,0,1,2.337e-08,1
780,-0.000103126,2.34e-08,7.5e-09,0,1,2.34e-08,1
781,-0.000102277,2.343e-08,7.5e-09,0,1,2.343e-08,1
782,-0.000101429,2.346e-08,7.5e-09,0,1,2.346e-08,1
783,-0.00010058,2.349e-08,7.5e-09,0,1,2.349e-08,1
784,-9.97313e-05,2.352e-08,7.5e-09,0,1,2.352e-08,1
785,-9.88827e-05,2.355e-08,7.5e-09,0,1,2.355e-08,1
786,-9.80341e-05,2.358e-08,7.5e-09,0,1,2.358e-08,1
787,-9.71855e-05,2.361e-08,7.5e-09,0,1,2.361e-08,1
788,-9.63369e-05,2.364e-08,7.5e-09,0,1,2.364e-08,1
789,-9.54883e-05,2.367e-08,7.5e-09,0,1,2.367e-08,1
790,-9.46398e-05,2.37e-08,7.5e-09,0,1,2.37e-08,1
791,-9.37911e-05,2.373e-08,7.5e-09,0,1,2.373e-08,1
792,-9.29426e-05,2.376e-08,7.5e-09,0,1,2.376e-08,1
793,-9.20939e-05,2.379e-08,7.5e-09,0,1,2.379e-08,1
794,-9.11363e-05,2.382e-08,7.5e-09,0,1,2.382e-08,1
795,-9.01164e-05,2.385e-08,7.5e-09,0,1,2.385e-08,1
796,-8.90966e-05,2.388e-08,7.5e-09,0,1,2.388e-08,1
797,-8.80768e-05,2.391e-08,7.5e-09,0,1,2.391e-08,1
798,-8.7057e-05,2.394e-08,7.5e-09,0,1,2.394e-08,1
799,-8.60372e-05,2.397e-08,7.5e-09,0,1,2.397e-08,1
800,-8.50174e-05,2.4e-08,7.5e-09,0,1,2.4e-08,1
801,-8.39975e-05,2.403e-08,7.5e-09,0,1,2.403e-08,1
802,-8.29778e-05,2.406e-08,7.5e-09,0,1,2.406e-08,1
803,-8.19579e-05,2.409e-08,7.5e-09,0,1,2.409e-08,1
804,-8.09381e-05,2.412e-08,7.5e-09,0,1,2.412e-08,1
805,-7.99183e-05,2.415e-08,7.5e-09,0,1,2.415e-08,1
806,-7.88985e-05,2.418e-08,7.5e-09,0,1,2.418e-08,1
807,-7.81882e-05,2.421e-08,7.5e-09,0,1,2.421e-08,1
808,-7.74935e-05,2.424e-08,7.5e-09,0,1,2.424e-08,1
809,-7.67988e-05,2.427e-08,7.5e-09,0,1,2.427e-08,1
810,-7.61041e-05,2.43e-08,7.5e-09,0,1,2.43e-08,1
811,-7.54093e-05,2.433e-08,7.5e-09,0,1,2.433e-08,1
812,-7.47146e-05,2.436e-08,7.5e-09,0,1,2.436e-08,1
813,-7.40199e-05,2.439e-08,7.5e-09,0,1,2.439e-08,1
814,-7.33484e-05,2.442e-08,7.5e-09,0,1,2.442e-08,1
815,-7.27717e-05,2.445e-08,7.5e-09,0,1,2.445e-08,1
816,-7.21951e-05,2.448e-08,7.5e-09,0,1,2.448e-08,1
817,-7.16185e-05,2.451e-08,7.5e-09,0,1,2.451e-08,1
818,-7.10419e-05,2.454e-08,7.5e-09,0,1,2.454e-08,1
819,-7.04652e-05,2.457e-08,7.5e-09,0,1,2.457e-08,1
820,-6.98886e-05,2.46e-08,7.5e-09,0,1,2.46e-08,1
821,-6.9312e-05,2.463e-08,7.5e-09,0,1,2.463e-08,1
822,-6.87354e-05,2.466e-08,7.5e-09,0,1,2.466e-08,1
823,-6.81587e-05,2.469e-08,7.5e-09,0,1,2.469e-08,1
824,-6.75821e-05,2.472e-08,7.5e-09,0,1,2.472e-08,1
825,-6.70055e-05,2.475e-08,7.5e-09,0,1,2.475e-08,1
826,-6.64289e-05,2.478e-08,7.5e-09,0,1,2.478e-08,1
827,-6.58522e-05,2.481e-08,7.5e-09,0,1,2.481e-08,1
828,-6.52756e-05,2.484e-08,7.5e-09,0,1,2.484e-08,1
829,-6.4699e-05,2.487e-08,7.5e-09,0,1,2.487e-08,1
830,-6.41224e-05,2.49e-08,7.5e-09,0,1,2.49e-08,1
831,-6.35457e-05,2.493e-08,7.5e-09,0,1,2.493e-08,1
832,-6.29691e-05,2.496e-08,7.5e-09,0,1,2.496e-08,1
833,-6.23925e-05,2.499e-08,7.5e-09,0,1,2.499e-08,1
834,-6.18158e-05,2.502e-08,7.5e-09,0,1,2.502e-08,1
835,-6.12392e-05,2.505e-08,7.5e-09,0,1,2.505e-08,1
836,-6.06626e-05,2.508e-08,7.5e-09,0,1,2.508e-08,1
837,-6.00859e-05,2.511e-08,7.5e-09,0,1,2.511e-08,1
838,-5.95093e-05,2.514e-08,7.5e-09,0,1,2.514e-08,1
839,-5.89327e-05,2.517e-08,7.5e-09,0,1,2.517e-08,1
840,-5.83561e-05,2.52e-08,7.5e-09,0,1,2.52e-08,1
841,-5.77794e-05,2.523e-08,7.5e-09,0,1,2.523e-08,1
842,-5.72028e-05,2.526e-08,7.5e-09,0,1,2.526e-08,1
843,-5.66262e-05,2.529e-08,7.5e-09,0,1,2.529e-08,1
844,-5.60496e-05,2.532e-08,7.5e-09,0,1,2.532e-08,1
845,-5.54729e-05,2.535e-08,7.5e-09,0,1,2.535e-08,1
846,-5.49614e-05,2.538e-08,7.5e-09,0,1,2.538e-08,1
847,-5.44757e-05,2.541e-08,7.5e-09,0,1,2.541e-08,1
848,-5.399e-05,2.544e-08,7.5e-09,0,1,2.544e-08,1
849,-5.35154e-05,2.547e-08,7.5e-09,0,1,2.547e-08,1
850,-5.30789e-05,2.55e-08,7.5e-09,0,1,2.55e-08,1
851,-5.26423e-05,2.553e-08,7.5e-09,0,1,2.553e-08,1
852,-5.22059e-05,2.556e-08,7.5e-09,0,1,2.556e-08,1
853,-5.17693e-05,2.559e-08,7.5e-09,0,1,2.559e-08,1
854,-5.13328e-05,2.562e-08,7.5e-09,0,1,2.562e-08,1
855,-5.08963e-05,2.565e-08,7.5e-09,0,1,2.565e-08,1
856,-5.04598e-05,2.568e-08,7.5e-09,0,1,2.568e-08,1
857,-5.00233e-05,2.571e-08,7.5e-09,0,1,2.571e-08,1
858,-4.95868e-05,2.574e-08,7.5e-09,0,1,2.574e-08,1
859,-4.91503e-05,2.577e-08,7.5e-09,0,1,2.577e-08,1
860,-4.86992e-05,2.58e-08,7.5e-09,0,1,2.58e-08,1
861,-4.82408e-05,2.583e-08,7.5e-09,0,1,2.583e-08,1
862,-4.77825e-05,2.586e-08,7.5e-09,0,1,2.586e-08,1
863,-4.73242e-05,2.589e-08,7.5e-09,0,1,2.589e-08,1
864,-4.68659e-05,2.592e-08,7.5e-09,0,1,2.592e-08,1
865,-4.64075e-05,2.595e-08,7.5e-09,0,1,2.595e-08,1
866,-4.59492e-05,2.598e-08,7.5e-09,0,1,2.598e-08,1
867,-4.54909e-05,2.601e-08,7.5e-09,0,1,2.601e-08,1
868,-4.50326e-05,2.604e-08,7.5e-09,0,1,2.604e-08,1
869,-4.45743e-05,2.607e-08,7.5e-09,0,1,2.607e-08,1
870,-4.41159e-05,2.61e-08,7.5e-09,0,1,2.61e-08,1
871,-4.36576e-05,2.613e-08,7.5e-09,0,1,2.613e-08,1
872,-4.31993e-05,2.616e-08,7.5e-09,0,1,2.616e-08,1
873,-4.2741e-05,2.619e-08,7.5e-09,0,1,2.619e-08,1
874,-4.22827e-05,2.622e-08,7.5e-09,0,1,2.622e-08,1
875,-4.18243e-05,2.625e-08,7.5e-09,0,1,2.625e-08,1
876,-4.1366e-05,2.628e-08,7.5e-09,0,1,2.628e-08,1
877,-4.09633e-05,2.631e-08,7.5e-09,0,1,2.631e-08,1
878,-4.05782e-05,2.634e-08,7.5e-09,0,1,2.634e-08,1
879,-4.0193e-05,2.637e-08,7.5e-09,0,1,2.637e-08,1
880,-3.98079e-05,2.64e-08,7.5e-09,0,1,2.64e-08,1
881,-3.94228e-05,2.643e-08,7.5e-09,0,1,2.643e-08,1
882,-3.90377e-05,2.646e-08,7.5e-09,0,1,2.646e-08,1
883,-3.86542e-05,2.649e-08,7.5e-09,0,1,2.649e-08,1
884,-3.8272e-05,2.652e-08,7.5e-09,0,1,2.652e-08,1
885,-3.78897e-05,2.655e-08,7.5e-09,0,1,2.655e-08,1
886,-3.75075e-05,2.658e-08,7.5e-09,0,1,2.658e-08,1
887,-3.71252e-05,2.661e-08,7.5e-09,0,1,2.661e-08,1
888,-3.6743e-05,2.664e-08,7.5e-09,0,1,2.664e-08,1
889,-3.63607e-05,2.667e-08,7.5e-09,0,1,2.667e-08,1
890,-3.59785e-05,2.67e-08,7.5e-09,0,1,2.67e-08,1
891,-3.55962e-05,2.673e-08,7.5e-09,0,1,2.673e-08,1
892,-3.5214e-05,2.676e-08,7.5e-09,0,1,2.676e-08,1
893,-3.48317e-05,2.679e-08,7.5e-09,0,1,2.679e-08,1
894,-3.44495e-05,2.682e-08,7.5e-09,0,1,2.682e-08,1
895,-3.40672e-05,2.685e-08,7.5e-09,0,1,2.685e-08,1
896,-3.3685e-05,2.688e-08,7.5e-09,0,1,2.688e-08,1
897,-3.33027e-05,2.691e-08,7.5e-09,0,1,2.691e-08,1
898,-3.29205e-05,2.694e-08,7.5e-09,0,1,2.694e-08,1
899,-3.25382e-05,2.697e-08,7.5e-09,0,1,2.697e-08,1
900,-3.2156e-05,2.7e-08,7.5e-09,0,1,2.7e-08,1
901,-3.17737e-05,2.703e-08,7.5e-09,0,1,2.703e-08,1
902,-3.13915e-05,2.706e-08,7.5e-09,0,1,2.706e-08,1
903,-3.10092e-05,2.709e-08,7.5e-09,0,1,2.709e-08,1
904,-3.06651e-05,2.712e-08,7.5e-09,0,1,2.712e-08,1
905,-3.03255e-05,2.715e-08,7.5e-09,0,1,2.715e-08,1
906,-2.99859e-05,2.718e-08,7.5e-09,0,1,2.718e-08,1
907,-2.96463e-05,2.721e-08,7.5e-09,0,1,2.721e-08,1
908,-2.93067e-05,2.724e-08,7.5e-09,0,1,2.724e-08,1
909,-2.8967e-05,2.727e-08,7.5e-09,0,1,2.727e-08,1
910,-2.86274e-05,2.73e-08,7.5e-09,0,1,2.73e-08,1
911,-2.82878e-05,2.733e-08,7.5e-09,0,1,2.733e-08,1
912,-2.79482e-05,2.736e-08,7.5e-09,0,1,2.736e-08,1
913,-2.76086e-05,2.739e-08,7.5e-09,0,1,2.739e-08,1
914,-2.72689e-05,2.742e-08,7.5e-09,0,1,2.742e-08,1
915,-2.69293e-05,2.745e-08,7.5e-09,0,1,2.745e-08,1
916,-2.65897e-05,2.748e-08,7.5e-09,0,1,2.748e-08,1
917,-2.62499e-05,2.751e-08,7.5e-09,0,1,2.751e-08,1
918,-2.59056e-05,2.754e-08,7.5e-09,0,1,2.754e-08,1
919,-2.55613e-05,2.757e-08,7.5e-09,0,1,2.757e-08,1
920,-2.5217e-05,2.76e-08,7.5e-09,0,1,2.76e-08,1
921,-2.48727e-05,2.763e-08,7.5e-09,0,1,2.763e-08,1
922,-2.45285e-05,2.766e-08,7.5e-09,0,1,2.766e-08,1
923,-2.41842e-05,2.769e-08,7.5e-09,0,1,2.769e-08,1
924,-2.38399e-05,2.772e-08,7.5e-09,0,1,2.772e-08,1
925,-2.34956e-05,2.775e-08,7.5e-09,0,1,2.775e-08,1
926,-2.31513e-05,2.778e-08,7.5e-09,0,1,2.778e-08,1
927,-2.2807e-05,2.781e-08,7.5e-09,0,1,2.781e-08,1
928,-2.24628e-05,2.784e-08,7.5e-09,0,1,2.784e-08,1
929,-2.21185e-05,2.787e-08,7.5e-09,0,1,2.787e-08,1
930,-2.17742e-05,2.79e-08,7.5e-09,0,1,2.79e-08,1
931,-2.14299e-05,2.793e-08,7.5e-09,0,1,2.793e-08,1
932,-2.10856e-05,2.796e-08,7.5e-09,0,1,2.796e-08,1
933,-2.07413e-05,2.799e-08,7.5e-09,0,1,2.799e-08,1
934,-2.04e-05,2.802e-08,7.5e-09,0,1,2.802e-08,1
935,-2.00846e-05,2.805e-08,7.5e-09,0,1,2.805e-08,1
936,-1.97691e-05,2.808e-08,7.5e-09,0,1,2.808e-08,1
937,-1.94537e-05,2.811e-08,7.5e-09,0,1,2.811e-08,1
938,-1.91383e-05,2.814e-08,7.5e-09,0,1,2.814e-08,1
939,-1.88228e-05,2.817e-08,7.5e-09,0,1,2.817e-08,1
940,-1.85074e-05,2.82e-08,7.5e-09,0,1,2.82e-08,1
941,-1.8192e-05,2.823e-08,7.5e-09,0,1,2.823e-08,1
942,-1.78765e-05,2.826e-08,7.5e-09,0,1,2.826e-08,1
943,-1.75611e-05,2.829e-08,7.5e-09,0,1,2.829e-08,1
944,-1.72457e-05,2.832e-08,7.5e-09,0,1,2.832e-08,1
945,-1.69302e-05,2.835e-08,7.5e-09,0,1,2.835e-08,1
946,-1.66148e-05,2.838e-08,7.5e-09,0,1,2.838e-08,1
947,-1.63001e-05,2.841e-08,7.5e-09,0,1,2.841e-08,1
948,-1.59906e-05,2.844e-08,7.5e-09,0,1,2.844e-08,1
949,-1.56812e-05,2.847e-08,7.5e-09,0,1,2.847e-08,1
950,-1.53717e-05,2.85e-08,7.5e-09,0,1,2.85e-08,1
951,-1.50622e-05,2.853e-08,7.5e-09,0,1,2.853e-08,1
952,-1.47528e-05,2.856e-08,7.5e-09,0,1,2.856e-08,1
953,-1.44433e-05,2.859e-08,7.5e-09,0,1,2.859e-08,1
954,-1.41339e-05,2.862e-08,7.5e-09,0,1,2.862e-08,1
955,-1.38244e-05,2.865e-08,7.5e-09,0,1,2.865e-08,1
956,-1.35149e-05,2.868e-08,7.5e-09,0,1,2.868e-08,1
957,-1.32055e-05,2.871e-08,7.5e-09,0,1,2.871e-08,1
958,-1.2896e-05,2.874e-08,7.5e-09,0,1,2.874e-08,1
959,-1.25865e-05,2.877e-08,7.5e-09,0,1,2.877e-08,1
960,-1.22771e-05,2.88e-08,7.5e-09,0,1,2.88e-08,1
961,-1.19676e-05,2.883e-08,7.5e-09,0,1,2.883e-08,1
962,-1.16581e-05,2.886e-08,7.5e-09,0,1,2.886e-08,1
963,-1.13487e-05,2.889e-08,7.5e-09,0,1,2.889e-08,1
964,-1.10392e-05,2.892e-08,7.5e-09,0,1,2.892e-08,1
965,-1.07297e-05,2.895e-08,7.5e-09,0,1,2.895e-08,1
966,-1.04203e-05,2.898e-08,7.5e-09,0,1,2.898e-08,1
967,-1.01108e-05,2.901e-08,7.5e-09,0,1,2.901e-08,1
968,-9.80135e-06,2.904e-08,7.5e-09,0,1,2.904e-08,1
969,-9.49188e-06,2.907e-08,7.5e-09,0,1,2.907e-08,1
970,-9.18242e-06,2.91e-08,7.5e-09,0,1,2.91e-08,1
971,-8.87492e-06,2.913e-08,7.5e-09,0,1,2.913e-08,1
972,-8.56977e-06,2.916e-08,7.5e-09,0,1,2.916e-08,1
973,-8.2646e-06,2.919e-08,7.5e-09,0,1,2.919e-08,1
974,-7.95945e-06,2.922e-08,7.5e-09,0,1,2.922e-08,1
975,-7.65428e-06,2.925e-08,7.5e-09,0,1,2.925e-08,1
976,-7.34913e-06,2.928e-08,7.5e-09,0,1,2.928e-08,1
977,-7.04396e-06,2.931e-08,7.5e-09,0,1,2.931e-08,1
978,-6.73881e-06,2.934e-08,7.5e-09,0,1,2.934e-08,1
979,-6.43364e-06,2.937e-08,7.5e-09,0,1,2.937e-08,1
980,-6.12849e-06,2.94e-08,7.5e-09,0,1,2.94e-08,1
981,-5.82332e-06,2.943e-08,7.5e-09,0,1,2.943e-08,1
982,-5.51757e-06,2.946e-08,7.5e-09,0,1,2.946e-08,1
983,-5.21103e-06,2.949e-08,7.5e-09,0,1,2.949e-08,1
984,-4.90451e-06,2.952e-08,7.5e-09,0,1,2.952e-08,1
985,-4.59797e-06,2.955e-08,7.5e-09,0,1,2.955e-08,1
986,-4.29144e-06,2.958e-08,7.5e-09,0,1,2.958e-08,1
987,-3.9849e-06,2.961e-08,7.5e-09,0,1,2.961e-08,1
988,-3.67838e-06,2.964e-08,7.5e-09,0,1,2.964e-08,1
989,-3.37184e-06,2.967e-08,7.5e-09,0,1,2.967e-08,1
990,-3.06532e-06,2.97e-08,7.5e-09,0,1,2.97e-08,1
991,-2.75878e-06,2.973e-08,7.5e-09,0,1,2.973e-08,1
992,-2.45225e-06,2.976e-08,7.5e-09,0,1,2.976e-08,1
993,-2.14571e-06,2.979e-08,7.5e-09,0,1,2.979e-08,1
994,-1.83917e-06,2.982e-08,7.5e-09,0,1,2.982e-08,1
995,-1.53265e-06,2.985e-08,7.5e-09,0,1,2.985e-08,1
996,-1.22613e-06,2.988e-08,7.5e-09,0,1,2.988e-08,1
997,-9.19604e-07,2.991e-08,7.5e-09,0,1,2.991e-08,1
998,-6.13045e-07,2.994e-08,7.5e-09,0,1,2.994e-08,1
999,-3.06523e-07,2.997e-08,7.5e-09,0,1,2.997e-08,1
1000,0,3e-08,7.5e-09,0,1,3e-08,1
