vtkOriginalIndices,Cl-,Points:0,Points:1,Points:2,__vtkIsSelected__
100,0.0911216,0.01,0,0,1
99,0.0911185,0.0099,0,0,1
98,0.0911092,0.0098,0,0,1
97,0.0910936,0.0097,0,0,1
96,0.0910719,0.0096,0,0,1
95,0.091044,0.0095,0,0,1
94,0.0910101,0.0094,0,0,1
93,0.0909701,0.0093,0,0,1
92,0.0909241,0.0092,0,0,1
91,0.0908723,0.0091,0,0,1
90,0.0908146,0.009,0,0,1
89,0.0907513,0.0089,0,0,1
88,0.0906824,0.0088,0,0,1
87,0.090608,0.0087,0,0,1
86,0.0905283,0.0086,0,0,1
85,0.0904434,0.0085,0,0,1
84,0.0903535,0.0084,0,0,1
83,0.0902587,0.0083,0,0,1
82,0.0901592,0.0082,0,0,1
81,0.0900552,0.0081,0,0,1
80,0.0899469,0.008,0,0,1
79,0.0898345,0.0079,0,0,1
78,0.0897181,0.0078,0,0,1
77,0.0895981,0.0077,0,0,1
76,0.0894746,0.0076,0,0,1
75,0.0893478,0.0075,0,0,1
74,0.0892181,0.0074,0,0,1
73,0.0890856,0.0073,0,0,1
72,0.0889507,0.0072,0,0,1
71,0.0888136,0.0071,0,0,1
70,0.0886746,0.007,0,0,1
69,0.088534,0.0069,0,0,1
68,0.088392,0.0068,0,0,1
67,0.088249,0.0067,0,0,1
66,0.0881053,0.0066,0,0,1
65,0.0879612,0.0065,0,0,1
64,0.087817,0.0064,0,0,1
63,0.0876731,0.0063,0,0,1
62,0.0875298,0.0062,0,0,1
61,0.0873875,0.0061,0,0,1
60,0.0872465,0.006,0,0,1
59,0.0871072,0.0059,0,0,1
58,0.0869699,0.0058,0,0,1
57,0.086835,0.0057,0,0,1
56,0.086703,0.0056,0,0,1
55,0.0865741,0.0055,0,0,1
54,0.0864489,0.0054,0,0,1
53,0.0863277,0.0053,0,0,1
52,0.0862109,0.0052,0,0,1
51,0.0860989,0.0051,0,0,1
50,0.0859922,0.005,0,0,1
49,0.0858912,0.0049,0,0,1
48,0.0857964,0.0048,0,0,1
47,0.0857081,0.0047,0,0,1
46,0.085627,0.0046,0,0,1
45,0.0855533,0.0045,0,0,1
44,0.0854877,0.0044,0,0,1
43,0.0854305,0.0043,0,0,1
42,0.0853823,0.0042,0,0,1
41,0.0853436,0.0041,0,0,1
40,0.0853149,0.004,0,0,1
39,0.0852967,0.0039,0,0,1
38,0.0852895,0.0038,0,0,1
37,0.0852939,0.0037,0,0,1
36,0.0853104,0.0036,0,0,1
35,0.0853396,0.0035,0,0,1
34,0.0853821,0.0034,0,0,1
33,0.0854383,0.0033,0,0,1
32,0.085509,0.0032,0,0,1
31,0.0855947,0.0031,0,0,1
30,0.0856961,0.003,0,0,1
29,0.0858137,0.0029,0,0,1
28,0.0859483,0.0028,0,0,1
27,0.0861004,0.0027,0,0,1
26,0.0862707,0.0026,0,0,1
25,0.08646,0.0025,0,0,1
24,0.0866689,0.0024,0,0,1
23,0.0868981,0.0023,0,0,1
22,0.0871485,0.0022,0,0,1
21,0.0874207,0.0021,0,0,1
20,0.0877155,0.002,0,0,1
19,0.0880338,0.0019,0,0,1
18,0.0883764,0.0018,0,0,1
17,0.0887441,0.0017,0,0,1
16,0.089138,0.0016,0,0,1
15,0.0895588,0.0015,0,0,1
14,0.0900076,0.0014,0,0,1
13,0.0904856,0.0013,0,0,1
12,0.0909937,0.0012,0,0,1
11,0.0915332,0.0011,0,0,1
10,0.0921056,0.001,0,0,1
9,0.0927121,0.0009,0,0,1
8,0.0933547,0.0008,0,0,1
7,0.0940352,0.0007,0,0,1
6,0.0947558,0.0006,0,0,1
5,0.095519,0.0005,0,0,1
4,0.096326,0.0004,0,0,1
3,0.0971746,0.0003,0,0,1
2,0.0980494,0.0002,0,0,1
1,0.0989063,0.0001,0,0,1
0,0.0997057,0,0,0,1
