
Point(1) = {0.0, 0.0, 0.0, 1.0e-9};
Point(2) = {0.02, 0.0, 0.0, 1.0e-9};
Point(3) = {0.04, 0.0, 0.0, 1.0e-9};
Point(4) = {0.06, 0.0, 0.0, 1.0e-9};
Point(5) = {0.08, 0.0, 0.0, 1.0e-9};
Point(6) = {0.1, 0.0, 0.0, 1.0e-9};
Point(7) = {0.12, 0.0, 0.0, 1.0e-9};
Point(8) = {0.14, 0.0, 0.0, 1.0e-9};
Point(9) = {0.16, 0.0, 0.0, 1.0e-9};
Point(10) = {0.18, 0.0, 0.0, 1.0e-9};
Point(11) = {0.2, 0.0, 0.0, 1.0e-9};
Point(12) = {0.22, 0.0, 0.0, 1.0e-9};
Point(13) = {0.24, 0.0, 0.0, 1.0e-9};
Point(14) = {0.26, 0.0, 0.0, 1.0e-9};
Point(15) = {0.28, 0.0, 0.0, 1.0e-9};
Point(16) = {0.3, 0.0, 0.0, 1.0e-9};
Point(17) = {0.32, 0.0, 0.0, 1.0e-9};
Point(18) = {0.34, 0.0, 0.0, 1.0e-9};
Point(19) = {0.36, 0.0, 0.0, 1.0e-9};
Point(20) = {0.38, 0.0, 0.0, 1.0e-9};
Point(21) = {0.4, 0.0, 0.0, 1.0e-9};
Point(22) = {0.44, 0.0, 0.0, 1.0e-9};
Point(23) = {0.48, 0.0, 0.0, 1.0e-9};
Point(24) = {0.52, 0.0, 0.0, 1.0e-9};
Point(25) = {0.56, 0.0, 0.0, 1.0e-9};
Point(26) = {0.60, 0.0, 0.0, 1.0e-9};
Point(27) = {0.64, 0.0, 0.0, 1.0e-9};
Point(28) = {0.68, 0.0, 0.0, 1.0e-9};
Point(29) = {0.72, 0.0, 0.0, 1.0e-9};
Point(30) = {0.76, 0.0, 0.0, 1.0e-9};
Point(31) = {0.80, 0.0, 0.0, 1.0e-9};
Point(32) = {0.84, 0.0, 0.0, 1.0e-9};
Point(33) = {0.88, 0.0, 0.0, 1.0e-9};
Point(34) = {0.92, 0.0, 0.0, 1.0e-9};
Point(35) = {0.96, 0.0, 0.0, 1.0e-9};
Point(36) = {1.00, 0.0, 0.0, 1.0e-9};
Point(37) = {1.04, 0.0, 0.0, 1.0e-9};
Point(38) = {1.08, 0.0, 0.0, 1.0e-9};
Point(39) = {1.12, 0.0, 0.0, 1.0e-9};
Point(40) = {1.16, 0.0, 0.0, 1.0e-9};
Point(41) = {1.20, 0.0, 0.0, 1.0e-9};
Point(42) = {1.24, 0.0, 0.0, 1.0e-9};
Point(43) = {1.28, 0.0, 0.0, 1.0e-9};
Point(44) = {1.32, 0.0, 0.0, 1.0e-9};
Point(45) = {1.36, 0.0, 0.0, 1.0e-9};
Point(46) = {1.40, 0.0, 0.0, 1.0e-9};
Point(47) = {1.44, 0.0, 0.0, 1.0e-9};
Point(48) = {1.48, 0.0, 0.0, 1.0e-9};
Point(49) = {1.52, 0.0, 0.0, 1.0e-9};
Point(50) = {1.56, 0.0, 0.0, 1.0e-9};
Point(51) = {1.60, 0.0, 0.0, 1.0e-9};
Point(52) = {1.64, 0.0, 0.0, 1.0e-9};
Point(53) = {1.68, 0.0, 0.0, 1.0e-9};
Point(54) = {1.72, 0.0, 0.0, 1.0e-9};
Point(55) = {1.76, 0.0, 0.0, 1.0e-9};
Point(56) = {1.8, 0.0, 0.0, 1.0e-9};
Point(57) = {1.9, 0.0, 0.0, 1.0e-9};
Point(58) = {2.0, 0.0, 0.0, 1.0e-9};
Point(59) = {2.1, 0.0, 0.0, 1.0e-9};
Point(60) = {2.2, 0.0, 0.0, 1.0e-9};
Point(61) = {2.3, 0.0, 0.0, 1.0e-9};
Point(62) = {2.4, 0.0, 0.0, 1.0e-9};
Point(63) = {2.5, 0.0, 0.0, 1.0e-9};
Point(64) = {2.6, 0.0, 0.0, 1.0e-9};
Point(65) = {2.7, 0.0, 0.0, 1.0e-9};
Point(66) = {2.8, 0.0, 0.0, 1.0e-9};
Point(67) = {3.3, 0.0, 0.0, 1.0e-9};
Point(68) = {3.8, 0.0, 0.0, 1.0e-9};
Point(69) = {4.3, 0.0, 0.0, 1.0e-9};
Point(70) = {4.8, 0.0, 0.0, 1.0e-9};
Point(71) = {5.3, 0.0, 0.0, 1.0e-9};
Point(72) = {5.8, 0.0, 0.0, 1.0e-9};
Point(73) = {6.3, 0.0, 0.0, 1.0e-9};
Point(74) = {6.8, 0.0, 0.0, 1.0e-9};
Point(75) = {7.3, 0.0, 0.0, 1.0e-9};
Point(76) = {7.8, 0.0, 0.0, 1.0e-9};
Point(77) = {8.8, 0.0, 0.0, 1.0e-9};
Point(78) = {9.8, 0.0, 0.0, 1.0e-9};
Point(79) = {10.8, 0.0, 0.0, 1.0e-9};
Point(80) = {11.8, 0.0, 0.0, 1.0e-9};
Point(81) = {12.8, 0.0, 0.0, 1.0e-9};
Point(82) = {13.8, 0.0, 0.0, 1.0e-9};
Point(83) = {14.8, 0.0, 0.0, 1.0e-9};
Point(84) = {15.8, 0.0, 0.0, 1.0e-9};
Point(85) = {16.8, 0.0, 0.0, 1.0e-9};
Point(86) = {17.8, 0.0, 0.0, 1.0e-9};
Point(87) = {19.8, 0.0, 0.0, 1.0e-9};
Point(88) = {21.8, 0.0, 0.0, 1.0e-9};
Point(89) = {23.8, 0.0, 0.0, 1.0e-9};
Point(90) = {25.8, 0.0, 0.0, 1.0e-9};
Point(91) = {27.8, 0.0, 0.0, 1.0e-9};
Point(92) = {29.8, 0.0, 0.0, 1.0e-9};
Point(93) = {31.8, 0.0, 0.0, 1.0e-9};
Point(94) = {33.8, 0.0, 0.0, 1.0e-9};
Point(95) = {35.8, 0.0, 0.0, 1.0e-9};
Point(96) = {37.8, 0.0, 0.0, 1.0e-9};
Point(97) = {40.3, 0.0, 0.0, 1.0e-9};
Point(98) = {0.0, 0.01, 0.0, 1.0e-9};
Point(99) = {0.02, 0.01, 0.0, 1.0e-9};
Point(100) = {0.04, 0.01, 0.0, 1.0e-9};
Point(101) = {0.06, 0.01, 0.0, 1.0e-9};
Point(102) = {0.08, 0.01, 0.0, 1.0e-9};
Point(103) = {0.1, 0.01, 0.0, 1.0e-9};
Point(104) = {0.12, 0.01, 0.0, 1.0e-9};
Point(105) = {0.14, 0.01, 0.0, 1.0e-9};
Point(106) = {0.16, 0.01, 0.0, 1.0e-9};
Point(107) = {0.18, 0.01, 0.0, 1.0e-9};
Point(108) = {0.2, 0.01, 0.0, 1.0e-9};
Point(109) = {0.22, 0.01, 0.0, 1.0e-9};
Point(110) = {0.24, 0.01, 0.0, 1.0e-9};
Point(111) = {0.26, 0.01, 0.0, 1.0e-9};
Point(112) = {0.28, 0.01, 0.0, 1.0e-9};
Point(113) = {0.3, 0.01, 0.0, 1.0e-9};
Point(114) = {0.32, 0.01, 0.0, 1.0e-9};
Point(115) = {0.34, 0.01, 0.0, 1.0e-9};
Point(116) = {0.36, 0.01, 0.0, 1.0e-9};
Point(117) = {0.38, 0.01, 0.0, 1.0e-9};
Point(118) = {0.4, 0.01, 0.0, 1.0e-9};
Point(119) = {0.44, 0.01, 0.0, 1.0e-9};
Point(120) = {0.48, 0.01, 0.0, 1.0e-9};
Point(121) = {0.52, 0.01, 0.0, 1.0e-9};
Point(122) = {0.56, 0.01, 0.0, 1.0e-9};
Point(123) = {0.60, 0.01, 0.0, 1.0e-9};
Point(124) = {0.64, 0.01, 0.0, 1.0e-9};
Point(125) = {0.68, 0.01, 0.0, 1.0e-9};
Point(126) = {0.72, 0.01, 0.0, 1.0e-9};
Point(127) = {0.76, 0.01, 0.0, 1.0e-9};
Point(128) = {0.80, 0.01, 0.0, 1.0e-9};
Point(129) = {0.84, 0.01, 0.0, 1.0e-9};
Point(130) = {0.88, 0.01, 0.0, 1.0e-9};
Point(131) = {0.92, 0.01, 0.0, 1.0e-9};
Point(132) = {0.96, 0.01, 0.0, 1.0e-9};
Point(133) = {1.00, 0.01, 0.0, 1.0e-9};
Point(134) = {1.04, 0.01, 0.0, 1.0e-9};
Point(135) = {1.08, 0.01, 0.0, 1.0e-9};
Point(136) = {1.12, 0.01, 0.0, 1.0e-9};
Point(137) = {1.16, 0.01, 0.0, 1.0e-9};
Point(138) = {1.20, 0.01, 0.0, 1.0e-9};
Point(139) = {1.24, 0.01, 0.0, 1.0e-9};
Point(140) = {1.28, 0.01, 0.0, 1.0e-9};
Point(141) = {1.32, 0.01, 0.0, 1.0e-9};
Point(142) = {1.36, 0.01, 0.0, 1.0e-9};
Point(143) = {1.40, 0.01, 0.0, 1.0e-9};
Point(144) = {1.44, 0.01, 0.0, 1.0e-9};
Point(145) = {1.48, 0.01, 0.0, 1.0e-9};
Point(146) = {1.52, 0.01, 0.0, 1.0e-9};
Point(147) = {1.56, 0.01, 0.0, 1.0e-9};
Point(148) = {1.60, 0.01, 0.0, 1.0e-9};
Point(149) = {1.64, 0.01, 0.0, 1.0e-9};
Point(150) = {1.68, 0.01, 0.0, 1.0e-9};
Point(151) = {1.72, 0.01, 0.0, 1.0e-9};
Point(152) = {1.76, 0.01, 0.0, 1.0e-9};
Point(153) = {1.8, 0.01, 0.0, 1.0e-9};
Point(154) = {1.9, 0.01, 0.0, 1.0e-9};
Point(155) = {2.0, 0.01, 0.0, 1.0e-9};
Point(156) = {2.1, 0.01, 0.0, 1.0e-9};
Point(157) = {2.2, 0.01, 0.0, 1.0e-9};
Point(158) = {2.3, 0.01, 0.0, 1.0e-9};
Point(159) = {2.4, 0.01, 0.0, 1.0e-9};
Point(160) = {2.5, 0.01, 0.0, 1.0e-9};
Point(161) = {2.6, 0.01, 0.0, 1.0e-9};
Point(162) = {2.7, 0.01, 0.0, 1.0e-9};
Point(163) = {2.8, 0.01, 0.0, 1.0e-9};
Point(164) = {3.3, 0.01, 0.0, 1.0e-9};
Point(165) = {3.8, 0.01, 0.0, 1.0e-9};
Point(166) = {4.3, 0.01, 0.0, 1.0e-9};
Point(167) = {4.8, 0.01, 0.0, 1.0e-9};
Point(168) = {5.3, 0.01, 0.0, 1.0e-9};
Point(169) = {5.8, 0.01, 0.0, 1.0e-9};
Point(170) = {6.3, 0.01, 0.0, 1.0e-9};
Point(171) = {6.8, 0.01, 0.0, 1.0e-9};
Point(172) = {7.3, 0.01, 0.0, 1.0e-9};
Point(173) = {7.8, 0.01, 0.0, 1.0e-9};
Point(174) = {8.8, 0.01, 0.0, 1.0e-9};
Point(175) = {9.8, 0.01, 0.0, 1.0e-9};
Point(176) = {10.8, 0.01, 0.0, 1.0e-9};
Point(177) = {11.8, 0.01, 0.0, 1.0e-9};
Point(178) = {12.8, 0.01, 0.0, 1.0e-9};
Point(179) = {13.8, 0.01, 0.0, 1.0e-9};
Point(180) = {14.8, 0.01, 0.0, 1.0e-9};
Point(181) = {15.8, 0.01, 0.0, 1.0e-9};
Point(182) = {16.8, 0.01, 0.0, 1.0e-9};
Point(183) = {17.8, 0.01, 0.0, 1.0e-9};
Point(184) = {19.8, 0.01, 0.0, 1.0e-9};
Point(185) = {21.8, 0.01, 0.0, 1.0e-9};
Point(186) = {23.8, 0.01, 0.0, 1.0e-9};
Point(187) = {25.8, 0.01, 0.0, 1.0e-9};
Point(188) = {27.8, 0.01, 0.0, 1.0e-9};
Point(189) = {29.8, 0.01, 0.0, 1.0e-9};
Point(190) = {31.8, 0.01, 0.0, 1.0e-9};
Point(191) = {33.8, 0.01, 0.0, 1.0e-9};
Point(192) = {35.8, 0.01, 0.0, 1.0e-9};
Point(193) = {37.8, 0.01, 0.0, 1.0e-9};
Point(194) = {40.3, 0.01, 0.0, 1.0e-9};
//+
Line(2) = {1, 2};
Line(3) = {2, 3};
Line(4) = {3, 4};
Line(5) = {4, 5};
Line(6) = {5, 6};
Line(7) = {6, 7};
Line(8) = {7, 8};
Line(9) = {8, 9};
Line(10) = {9, 10};
Line(11) = {10, 11};
Line(12) = {11, 12};
Line(13) = {12, 13};
Line(14) = {13, 14};
Line(15) = {14, 15};
Line(16) = {15, 16};
Line(17) = {16, 17};
Line(18) = {17, 18};
Line(19) = {18, 19};
Line(20) = {19, 20};
Line(21) = {20, 21};
Line(22) = {21, 22};
Line(23) = {22, 23};
Line(24) = {23, 24};
Line(25) = {24, 25};
Line(26) = {25, 26};
Line(27) = {26, 27};
Line(28) = {27, 28};
Line(29) = {28, 29};
Line(30) = {29, 30};
Line(31) = {30, 31};
Line(32) = {31, 32};
Line(33) = {32, 33};
Line(34) = {33, 34};
Line(35) = {34, 35};
Line(36) = {35, 36};
Line(37) = {36, 37};
Line(38) = {37, 38};
Line(39) = {38, 39};
Line(40) = {39, 40};
Line(41) = {40, 41};
Line(42) = {41, 42};
Line(43) = {42, 43};
Line(44) = {43, 44};
Line(45) = {44, 45};
Line(46) = {45, 46};
Line(47) = {46, 47};
Line(48) = {47, 48};
Line(49) = {48, 49};
Line(50) = {49, 50};
Line(51) = {50, 51};
Line(52) = {51, 52};
Line(53) = {52, 53};
Line(54) = {53, 54};
Line(55) = {54, 55};
Line(56) = {55, 56};
Line(57) = {56, 57};
Line(58) = {57, 58};
Line(59) = {58, 59};
Line(60) = {59, 60};
Line(61) = {60, 61};
Line(62) = {61, 62};
Line(63) = {62, 63};
Line(64) = {63, 64};
Line(65) = {64, 65};
Line(66) = {65, 66};
Line(67) = {66, 67};
Line(68) = {67, 68};
Line(69) = {68, 69};
Line(70) = {69, 70};
Line(81) = {70, 71};
Line(82) = {71, 72};
Line(83) = {72, 73};
Line(84) = {73, 74};
Line(85) = {74, 75};
Line(86) = {75, 76};
Line(87) = {76, 77};
Line(88) = {77, 78};
Line(89) = {78, 79};
Line(90) = {79, 80};
Line(91) = {80, 81};
Line(92) = {81, 82};
Line(93) = {82, 83};
Line(94) = {83, 84};
Line(95) = {84, 85};
Line(96) = {85, 86};
Line(97) = {86, 87};
Line(98) = {87, 88};
Line(99) = {88, 89};
Line(100) = {89, 90};
Line(101) = {90, 91};
Line(102) = {91, 92};
Line(103) = {92, 93};
Line(104) = {93, 94};
Line(105) = {94, 95};
Line(106) = {95, 96};
Line(107) = {96, 97};

Line(108) = {98, 99};
Line(109) = {99, 100};
Line(110) = {102, 103};
Line(111) = {103, 104};
Line(112) = {104, 105};
Line(113) = {105, 106};
Line(114) = {106, 107};
Line(115) = {107, 108};
Line(116) = {108, 109};
Line(117) = {109, 110};
Line(118) = {110, 111};
Line(119) = {111, 112};
Line(120) = {112, 113};
Line(121) = {113, 114};
Line(122) = {114, 115};
Line(123) = {115, 116};
Line(124) = {116, 117};
Line(125) = {117, 118};
Line(126) = {118, 119};
Line(127) = {119, 120};
Line(128) = {120, 121};
Line(129) = {121, 122};
Line(130) = {122, 123};
Line(131) = {123, 124};
Line(132) = {124, 125};
Line(133) = {125, 126};
Line(134) = {126, 127};
Line(135) = {127, 128};
Line(136) = {128, 129};
Line(137) = {129, 130};
Line(138) = {130, 131};
Line(139) = {131, 132};
Line(140) = {132, 133};
Line(141) = {133, 134};
Line(142) = {134, 135};
Line(143) = {135, 136};
Line(144) = {136, 137};
Line(145) = {137, 138};
Line(146) = {138, 139};
Line(147) = {139, 140};
Line(148) = {140, 141};
Line(149) = {141, 142};
Line(150) = {142, 143};
Line(151) = {143, 144};
Line(152) = {144, 145};
Line(153) = {145, 146};
Line(154) = {146, 147};
Line(155) = {147, 148};
Line(156) = {148, 149};
Line(157) = {149, 150};
Line(158) = {150, 151};
Line(159) = {151, 152};
Line(160) = {152, 153};
Line(161) = {153, 154};
Line(162) = {154, 155};
Line(163) = {155, 156};
Line(164) = {156, 157};
Line(165) = {157, 158};
Line(166) = {158, 159};
Line(167) = {159, 160};
Line(168) = {160, 161};
Line(169) = {161, 162};
Line(170) = {162, 163};
Line(171) = {163, 164};
Line(172) = {164, 165};
Line(173) = {165, 166};
Line(174) = {166, 167};
Line(175) = {167, 168};
Line(176) = {168, 169};
Line(177) = {169, 170};
Line(178) = {170, 171};
Line(179) = {171, 172};
Line(180) = {172, 173};
Line(181) = {173, 174};
Line(182) = {174, 175};
Line(183) = {175, 176};
Line(184) = {176, 177};
Line(185) = {177, 178};
Line(186) = {178, 179};
Line(187) = {179, 180};
Line(188) = {180, 181};
Line(189) = {181, 182};
Line(190) = {182, 183};
Line(191) = {183, 184};
Line(192) = {184, 185};
Line(193) = {185, 186};
Line(194) = {186, 187};
Line(195) = {187, 188};
Line(196) = {188, 189};
Line(197) = {189, 190};
Line(198) = {190, 191};
Line(199) = {191, 192};
Line(200) = {192, 193};
Line(201) = {193, 194};
Line(202) = {194, 195};
Line(203) = {195, 196};
Line(204) = {196, 197};
Line(205) = {100, 101};
Line(206) = {101, 102};

Line(207) = {1,98};
Line(208) = {97,194};

